# This file uses centimeters as units for non-parametric coordinates.

mtllib Mesa_Estandar_T.mtl
g default
v -2.284653 -1.763241 -4.504325
v -1.626428 -1.763241 -4.504325
v -2.284653 1.555051 -4.504325
v -1.626428 1.555051 -4.504325
v -2.284653 1.555051 -5.042235
v -1.626428 1.555051 -5.042235
v -2.284653 -1.763241 -5.042235
v -1.626428 -1.763241 -5.042235
v -2.284653 -1.763241 4.157073
v -1.626428 -1.763241 4.157073
v -2.284653 1.555051 4.157073
v -1.626428 1.555051 4.157073
v -2.284653 1.555051 3.553332
v -1.626428 1.555051 3.553332
v -2.284653 -1.763241 3.553332
v -1.626428 -1.763241 3.553332
v 1.508789 -1.763241 4.093897
v 2.167015 -1.763241 4.093897
v 1.508789 1.555051 4.093897
v 2.167015 1.555051 4.093897
v 1.508789 1.555051 3.562024
v 2.167015 1.555051 3.562024
v 1.508789 -1.763241 3.562024
v 2.167015 -1.763241 3.562024
v -3.232287 1.548865 6.313456
v 3.232287 1.548865 6.313456
v -2.807850 1.763241 5.893604
v 2.807850 1.763241 5.893604
v -2.807850 1.763241 -5.893604
v 2.807850 1.763241 -5.893604
v -3.232287 1.548865 -6.313456
v 3.232287 1.548865 -6.313456
v 3.487027 1.763241 6.572781
v -3.487027 1.763241 6.572781
v -3.487027 1.763241 -6.572780
v 3.487027 1.763241 -6.572780
v -3.232287 1.234295 6.313456
v 3.232287 1.234295 6.313456
v 3.487027 1.234295 6.572781
v -3.487027 1.234295 6.572781
v -3.232287 1.234295 -6.313456
v 3.232287 1.234295 -6.313456
v -3.487027 1.234295 -6.572780
v 3.487027 1.234295 -6.572780
v -1.626428 0.292985 4.093897
v 1.508789 0.292985 4.093897
v -1.626428 1.011400 4.093897
v 1.508789 1.011400 4.093897
v -1.626428 1.011400 3.562024
v 1.508789 1.011400 3.562024
v -1.626428 0.292985 3.562024
v 1.508789 0.292985 3.562024
v -1.626428 0.292985 -4.508812
v 1.508789 0.292985 -4.508812
v -1.626428 1.011400 -4.508812
v 1.508789 1.011400 -4.508812
v -1.626428 1.011400 -5.040684
v 1.508789 1.011400 -5.040684
v -1.626428 0.292985 -5.040684
v 1.508789 0.292985 -5.040684
v 1.508789 -1.763241 -4.508812
v 2.167015 -1.763241 -4.508812
v 1.508789 1.555051 -4.508812
v 2.167015 1.555051 -4.508812
v 1.508789 1.555051 -5.040684
v 2.167015 1.555051 -5.040684
v 1.508789 -1.763241 -5.040684
v 2.167015 -1.763241 -5.040684
vt 0.926214 0.761951
vt 0.952269 0.761951
vt 0.926214 0.788006
vt 0.952269 0.788006
vt 0.926214 0.814061
vt 0.952269 0.814061
vt 0.926214 0.840116
vt 0.952269 0.840116
vt 0.926214 0.866171
vt 0.952269 0.866171
vt 0.978324 0.761951
vt 0.978324 0.788006
vt 0.900159 0.761951
vt 0.900159 0.788006
vt 0.926214 0.761951
vt 0.952269 0.761951
vt 0.952269 0.788006
vt 0.926214 0.788006
vt 0.952269 0.814061
vt 0.926214 0.814061
vt 0.952269 0.840116
vt 0.926214 0.840116
vt 0.952269 0.866171
vt 0.926214 0.866171
vt 0.978324 0.761951
vt 0.978324 0.788006
vt 0.900159 0.761951
vt 0.900159 0.788006
vt 0.926214 0.761951
vt 0.952269 0.761951
vt 0.952269 0.788006
vt 0.926214 0.788006
vt 0.952269 0.814061
vt 0.926214 0.814061
vt 0.952269 0.840116
vt 0.926214 0.840116
vt 0.952269 0.866171
vt 0.926214 0.866171
vt 0.978324 0.761951
vt 0.978324 0.788006
vt 0.900159 0.761951
vt 0.900159 0.788006
vt 0.952269 0.788006
vt 0.926214 0.788006
vt 0.926214 0.761951
vt 0.952269 0.761951
vt 0.926214 0.788006
vt 0.952269 0.788006
vt 0.952269 0.814061
vt 0.926214 0.814061
vt 0.926214 0.840116
vt 0.952269 0.840116
vt 0.952269 0.866171
vt 0.926214 0.866171
vt 0.900159 0.788006
vt 0.900159 0.761951
vt 0.926214 0.761951
vt 0.952269 0.761951
vt 0.952269 0.814061
vt 0.926214 0.814061
vt 0.952269 0.840116
vt 0.926214 0.840116
vt 0.926214 0.840116
vt 0.952269 0.840116
vt 0.978324 0.761951
vt 0.978324 0.761951
vt 0.978324 0.788006
vt 0.978324 0.788006
vt 0.900159 0.761951
vt 0.900159 0.788006
vt 0.926214 0.761951
vt 0.952269 0.761951
vt 0.978324 0.761951
vt 0.900159 0.761951
vt 0.926214 0.761951
vt 0.952269 0.761951
vt 0.952269 0.788006
vt 0.926214 0.788006
vt 0.952269 0.814061
vt 0.926214 0.814061
vt 0.952269 0.840116
vt 0.926214 0.840116
vt 0.952269 0.866171
vt 0.926214 0.866171
vt 0.978324 0.761951
vt 0.978324 0.788006
vt 0.900159 0.761951
vt 0.900159 0.788006
vt 0.926214 0.761951
vt 0.952269 0.761951
vt 0.952269 0.788006
vt 0.926214 0.788006
vt 0.952269 0.814061
vt 0.926214 0.814061
vt 0.952269 0.840116
vt 0.926214 0.840116
vt 0.952269 0.866171
vt 0.926214 0.866171
vt 0.978324 0.761951
vt 0.978324 0.788006
vt 0.900159 0.761951
vt 0.900159 0.788006
vt 0.926214 0.761951
vt 0.952269 0.761951
vt 0.952269 0.788006
vt 0.926214 0.788006
vt 0.952269 0.814061
vt 0.926214 0.814061
vt 0.952269 0.840116
vt 0.926214 0.840116
vt 0.952269 0.866171
vt 0.926214 0.866171
vt 0.978324 0.761951
vt 0.978324 0.788006
vt 0.900159 0.761951
vt 0.900159 0.788006
vn 0.000000 0.000000 1.000000
vn 0.000000 0.000000 1.000000
vn 0.000000 0.000000 1.000000
vn 0.000000 0.000000 1.000000
vn 0.000000 1.000000 0.000000
vn 0.000000 1.000000 0.000000
vn 0.000000 1.000000 0.000000
vn 0.000000 1.000000 0.000000
vn 0.000000 0.000000 -1.000000
vn 0.000000 0.000000 -1.000000
vn 0.000000 0.000000 -1.000000
vn 0.000000 0.000000 -1.000000
vn 0.000000 -1.000000 0.000000
vn 0.000000 -1.000000 0.000000
vn 0.000000 -1.000000 0.000000
vn 0.000000 -1.000000 0.000000
vn 1.000000 0.000000 0.000000
vn 1.000000 0.000000 0.000000
vn 1.000000 0.000000 0.000000
vn 1.000000 0.000000 0.000000
vn -1.000000 0.000000 0.000000
vn -1.000000 0.000000 0.000000
vn -1.000000 0.000000 0.000000
vn -1.000000 0.000000 0.000000
vn 0.000000 0.000000 1.000000
vn 0.000000 0.000000 1.000000
vn 0.000000 0.000000 1.000000
vn 0.000000 0.000000 1.000000
vn 0.000000 1.000000 0.000000
vn 0.000000 1.000000 0.000000
vn 0.000000 1.000000 0.000000
vn 0.000000 1.000000 0.000000
vn 0.000000 0.000000 -1.000000
vn 0.000000 0.000000 -1.000000
vn 0.000000 0.000000 -1.000000
vn 0.000000 0.000000 -1.000000
vn 0.000000 -1.000000 0.000000
vn 0.000000 -1.000000 0.000000
vn 0.000000 -1.000000 0.000000
vn 0.000000 -1.000000 0.000000
vn 1.000000 0.000000 0.000000
vn 1.000000 0.000000 0.000000
vn 1.000000 0.000000 0.000000
vn 1.000000 0.000000 0.000000
vn -1.000000 0.000000 0.000000
vn -1.000000 0.000000 0.000000
vn -1.000000 0.000000 0.000000
vn -1.000000 0.000000 0.000000
vn 0.000000 0.000000 1.000000
vn 0.000000 0.000000 1.000000
vn 0.000000 0.000000 1.000000
vn 0.000000 0.000000 1.000000
vn 0.000000 1.000000 0.000000
vn 0.000000 1.000000 0.000000
vn 0.000000 1.000000 0.000000
vn 0.000000 1.000000 0.000000
vn 0.000000 0.000000 -1.000000
vn 0.000000 0.000000 -1.000000
vn 0.000000 0.000000 -1.000000
vn 0.000000 0.000000 -1.000000
vn 0.000000 -1.000000 0.000000
vn 0.000000 -1.000000 0.000000
vn 0.000000 -1.000000 0.000000
vn 0.000000 -1.000000 0.000000
vn 1.000000 0.000000 0.000000
vn 1.000000 0.000000 0.000000
vn 1.000000 0.000000 0.000000
vn 1.000000 0.000000 0.000000
vn -1.000000 0.000000 0.000000
vn -1.000000 0.000000 0.000000
vn -1.000000 0.000000 0.000000
vn -1.000000 0.000000 0.000000
vn 0.000000 0.000000 1.000000
vn 0.000000 0.000000 1.000000
vn 0.000000 0.000000 1.000000
vn 0.000000 0.000000 1.000000
vn 0.000000 1.000000 0.000000
vn 0.000000 1.000000 0.000000
vn 0.000000 1.000000 -0.000000
vn 0.000000 1.000000 -0.000000
vn 0.000000 -1.000000 0.000000
vn 0.000000 -1.000000 0.000000
vn 0.000000 -1.000000 0.000000
vn 0.000000 -1.000000 0.000000
vn -1.000000 0.000000 0.000000
vn -1.000000 0.000000 0.000000
vn -1.000000 0.000000 0.000000
vn -1.000000 0.000000 0.000000
vn 0.000000 -1.000000 0.000000
vn 0.000000 -1.000000 0.000000
vn 0.000000 -1.000000 0.000000
vn 0.000000 -1.000000 0.000000
vn 0.000000 1.000000 0.000000
vn 0.000000 1.000000 0.000000
vn 0.000000 1.000000 -0.000000
vn 0.000000 1.000000 -0.000000
vn 0.000000 -1.000000 -0.000000
vn 0.000000 -1.000000 -0.000000
vn 0.000000 -1.000000 -0.000000
vn 0.000000 -1.000000 -0.000000
vn 0.000000 0.000000 -1.000000
vn 0.000000 0.000000 -1.000000
vn 0.000000 0.000000 -1.000000
vn 0.000000 0.000000 -1.000000
vn 0.000000 0.000000 1.000000
vn 0.000000 0.000000 1.000000
vn 0.000000 0.000000 1.000000
vn 0.000000 0.000000 1.000000
vn 0.000000 0.000000 -1.000000
vn 0.000000 0.000000 -1.000000
vn 0.000000 0.000000 -1.000000
vn 0.000000 0.000000 -1.000000
vn -1.000000 0.000000 0.000000
vn -1.000000 0.000000 0.000000
vn -1.000000 0.000000 0.000000
vn -1.000000 0.000000 0.000000
vn 1.000000 0.000000 0.000000
vn 1.000000 0.000000 0.000000
vn 1.000000 0.000000 0.000000
vn 1.000000 0.000000 0.000000
vn 1.000000 0.000000 0.000000
vn 1.000000 0.000000 0.000000
vn 1.000000 0.000000 0.000000
vn 1.000000 0.000000 0.000000
vn 0.000000 0.000000 1.000000
vn 0.000000 0.000000 1.000000
vn 0.000000 0.000000 1.000000
vn 0.000000 0.000000 1.000000
vn 0.000000 1.000000 0.000000
vn 0.000000 1.000000 0.000000
vn 0.000000 1.000000 0.000000
vn 0.000000 1.000000 0.000000
vn 0.000000 0.000000 -1.000000
vn 0.000000 0.000000 -1.000000
vn 0.000000 0.000000 -1.000000
vn 0.000000 0.000000 -1.000000
vn 0.000000 -1.000000 0.000000
vn 0.000000 -1.000000 0.000000
vn 0.000000 -1.000000 0.000000
vn 0.000000 -1.000000 0.000000
vn 1.000000 0.000000 0.000000
vn 1.000000 0.000000 0.000000
vn 1.000000 0.000000 0.000000
vn 1.000000 0.000000 0.000000
vn -1.000000 0.000000 0.000000
vn -1.000000 0.000000 0.000000
vn -1.000000 0.000000 0.000000
vn -1.000000 0.000000 0.000000
vn 0.000000 0.000000 1.000000
vn 0.000000 0.000000 1.000000
vn 0.000000 0.000000 1.000000
vn 0.000000 0.000000 1.000000
vn 0.000000 1.000000 0.000000
vn 0.000000 1.000000 0.000000
vn 0.000000 1.000000 0.000000
vn 0.000000 1.000000 0.000000
vn 0.000000 0.000000 -1.000000
vn 0.000000 0.000000 -1.000000
vn 0.000000 0.000000 -1.000000
vn 0.000000 0.000000 -1.000000
vn 0.000000 -1.000000 0.000000
vn 0.000000 -1.000000 0.000000
vn 0.000000 -1.000000 0.000000
vn 0.000000 -1.000000 0.000000
vn 1.000000 0.000000 0.000000
vn 1.000000 0.000000 0.000000
vn 1.000000 0.000000 0.000000
vn 1.000000 0.000000 0.000000
vn -1.000000 0.000000 0.000000
vn -1.000000 0.000000 0.000000
vn -1.000000 0.000000 0.000000
vn -1.000000 0.000000 0.000000
vn 0.000000 0.000000 1.000000
vn 0.000000 0.000000 1.000000
vn 0.000000 0.000000 1.000000
vn 0.000000 0.000000 1.000000
vn 0.000000 1.000000 0.000000
vn 0.000000 1.000000 0.000000
vn 0.000000 1.000000 0.000000
vn 0.000000 1.000000 0.000000
vn 0.000000 0.000000 -1.000000
vn 0.000000 0.000000 -1.000000
vn 0.000000 0.000000 -1.000000
vn 0.000000 0.000000 -1.000000
vn 0.000000 -1.000000 0.000000
vn 0.000000 -1.000000 0.000000
vn 0.000000 -1.000000 0.000000
vn 0.000000 -1.000000 0.000000
vn 1.000000 0.000000 0.000000
vn 1.000000 0.000000 0.000000
vn 1.000000 0.000000 0.000000
vn 1.000000 0.000000 0.000000
vn -1.000000 0.000000 0.000000
vn -1.000000 0.000000 0.000000
vn -1.000000 0.000000 0.000000
vn -1.000000 0.000000 0.000000
s off
g Mesa_estandar
usemtl initialShadingGroup
f 1/1/1 2/2/2 4/4/3 3/3/4
f 3/3/5 4/4/6 6/6/7 5/5/8
f 5/5/9 6/6/10 8/8/11 7/7/12
f 7/7/13 8/8/14 2/10/15 1/9/16
f 2/2/17 8/11/18 6/12/19 4/4/20
f 7/13/21 1/1/22 3/3/23 5/14/24
f 9/15/25 10/16/26 12/17/27 11/18/28
f 11/18/29 12/17/30 14/19/31 13/20/32
f 13/20/33 14/19/34 16/21/35 15/22/36
f 15/22/37 16/21/38 10/23/39 9/24/40
f 10/16/41 16/25/42 14/26/43 12/17/44
f 15/27/45 9/15/46 11/18/47 13/28/48
f 17/29/49 18/30/50 20/31/51 19/32/52
f 19/32/53 20/31/54 22/33/55 21/34/56
f 21/34/57 22/33/58 24/35/59 23/36/60
f 23/36/61 24/35/62 18/37/63 17/38/64
f 18/30/65 24/39/66 22/40/67 20/31/68
f 23/41/69 17/29/70 19/32/71 21/42/72
f 33/43/73 34/44/74 40/45/75 39/46/76
s 1
f 27/47/77 28/48/78 30/49/79 29/50/80
s off
f 31/51/81 32/52/82 26/53/83 25/54/84
f 34/44/85 35/55/86 43/56/87 40/45/88
s 2
f 37/57/89 38/58/90 39/46/91 40/45/92
s 1
f 28/48/78 27/47/77 34/44/93 33/43/94
f 29/50/80 30/49/79 36/59/95 35/60/96
s 2
f 42/61/97 41/62/98 43/63/99 44/64/100
f 38/58/90 42/65/97 44/66/100 39/46/91
s 1
f 30/67/79 28/48/78 33/43/94 36/68/95
s 2
f 41/69/98 37/57/89 40/45/92 43/56/99
s 1
f 27/47/77 29/70/80 35/55/96 34/44/93
s off
f 25/71/101 26/72/102 38/58/103 37/57/104
f 32/52/105 31/51/106 41/62/107 42/61/108
f 36/59/109 44/64/110 43/63/111 35/60/112
f 26/72/113 32/73/114 42/65/115 38/58/116
f 33/43/117 39/46/118 44/66/119 36/68/120
f 31/74/121 25/71/122 37/57/123 41/69/124
f 45/75/125 46/76/126 48/77/127 47/78/128
f 47/78/129 48/77/130 50/79/131 49/80/132
f 49/80/133 50/79/134 52/81/135 51/82/136
f 51/82/137 52/81/138 46/83/139 45/84/140
f 46/76/141 52/85/142 50/86/143 48/77/144
f 51/87/145 45/75/146 47/78/147 49/88/148
f 53/89/149 54/90/150 56/91/151 55/92/152
f 55/92/153 56/91/154 58/93/155 57/94/156
f 57/94/157 58/93/158 60/95/159 59/96/160
f 59/96/161 60/95/162 54/97/163 53/98/164
f 54/90/165 60/99/166 58/100/167 56/91/168
f 59/101/169 53/89/170 55/92/171 57/102/172
f 61/103/173 62/104/174 64/105/175 63/106/176
f 63/106/177 64/105/178 66/107/179 65/108/180
f 65/108/181 66/107/182 68/109/183 67/110/184
f 67/110/185 68/109/186 62/111/187 61/112/188
f 62/104/189 68/113/190 66/114/191 64/105/192
f 67/115/193 61/103/194 63/106/195 65/116/196
