# This file uses centimeters as units for non-parametric coordinates.

mtllib Recuadro_T.mtl
g default
v -1.750000 -2.250000 0.100000
v 1.750000 -2.250000 0.100000
v -1.750000 2.250000 0.100000
v 1.750000 2.250000 0.100000
v -1.750000 2.250000 -0.134672
v 1.750000 2.250000 -0.134672
v -1.750000 -2.250000 -0.134672
v 1.750000 -2.250000 -0.134672
v -1.750000 2.091888 0.100000
v 1.750000 2.091888 0.100000
v 1.750000 2.091888 -0.134672
v -1.750000 2.091888 -0.134672
v -1.599786 -2.250000 0.100000
v -1.599786 -2.250000 -0.134672
v -1.599787 2.091888 -0.134672
v -1.599786 2.250000 -0.134672
v -1.599786 2.250000 0.100000
v -1.599786 2.091888 0.100000
v 1.616509 2.091888 -0.134672
v 1.616508 -2.250000 -0.134672
v 1.616508 -2.250000 0.100000
v 1.616508 2.091888 0.100000
v 1.616508 2.250000 0.100000
v 1.616508 2.250000 -0.134672
v -1.750000 -2.092112 0.100000
v -1.599786 -2.092111 0.100000
v 1.616508 -2.092112 0.100000
v 1.750000 -2.092112 0.100000
v 1.750000 -2.092111 -0.134672
v 1.616508 -2.092111 -0.134672
v -1.599786 -2.092112 -0.134672
v -1.750000 -2.092111 -0.134672
v -1.599786 2.091888 0.021876
v -1.599786 -2.092111 0.021876
v 1.616508 -2.092112 0.021876
v 1.616508 2.091888 0.021876
v 1.750000 -1.673711 -0.134672
v 1.750000 -1.673712 0.100000
v 1.616508 -1.673712 0.100000
v 1.616508 -1.673712 0.021876
v -1.599786 -1.673711 0.021876
v -1.599786 -1.673711 0.100000
v -1.750000 -1.673712 0.100000
v -1.750000 -1.673711 -0.134672
v -1.599786 -1.673712 -0.134672
v 1.616508 -1.673711 -0.134672
v -1.278156 -2.250000 0.100000
v -1.278156 -2.250000 -0.134672
v -1.278156 -2.092112 -0.134672
v -1.278156 -1.673712 -0.134672
v -1.278157 2.091888 -0.134672
v -1.278156 2.250000 -0.134672
v -1.278156 2.250000 0.100000
v -1.278156 2.091888 0.100000
v -1.278156 2.091888 0.021876
v -1.278156 -1.673711 0.021876
v -1.278156 -2.092111 0.021876
v -1.278156 -2.092111 0.100000
v 1.327043 2.091888 -0.134672
v 1.327041 -1.673711 -0.134672
v 1.327041 -2.092111 -0.134672
v 1.327041 -2.250000 -0.134672
v 1.327041 -2.250000 0.100000
v 1.327041 -2.092112 0.100000
v 1.327041 -2.092112 0.021876
v 1.327041 -1.673712 0.021876
v 1.327041 2.091888 0.021876
v 1.327041 2.091888 0.100000
v 1.327041 2.250000 0.100000
v 1.327041 2.250000 -0.134672
v 1.750000 1.715328 -0.134672
v 1.750000 1.715328 0.100000
v 1.616508 1.715328 0.100000
v 1.616508 1.715328 0.021876
v 1.327041 1.715328 0.021876
v -1.278156 1.715328 0.021876
v -1.599786 1.715328 0.021876
v -1.599786 1.715328 0.100000
v -1.750000 1.715328 0.100000
v -1.750000 1.715328 -0.134672
v -1.599787 1.715328 -0.134672
v -1.278157 1.715328 -0.134672
v 1.327043 1.715328 -0.134672
v 1.616509 1.715328 -0.134672
v 1.327041 1.715328 -0.033498
v -1.278156 1.715328 -0.033498
v -1.278156 -1.673711 -0.033498
v 1.327041 -1.673712 -0.033498
vt 0.052636 0.380808
vt 0.081810 0.380808
vt 0.052636 0.410323
vt 0.081810 0.410323
vt 0.052636 0.439837
vt 0.081810 0.439837
vt 0.052636 0.469352
vt 0.081810 0.469352
vt 0.052636 0.498867
vt 0.328244 0.744182
vt 0.110984 0.380808
vt 0.110984 0.410323
vt 0.023462 0.380808
vt 0.023462 0.410323
vt 0.052636 0.409286
vt 0.081810 0.409286
vt 0.081810 0.440874
vt 0.110984 0.409286
vt 0.023462 0.409286
vt 0.052636 0.440874
vt 0.053888 0.380808
vt 0.053888 0.498867
vt 0.053888 0.469352
vt 0.053888 0.440874
vt 0.053888 0.439837
vt 0.053888 0.410323
vt 0.053888 0.409286
vt 0.080697 0.440874
vt 0.327131 0.714667
vt 0.080697 0.380808
vt 0.327131 0.744182
vt 0.080697 0.409286
vt 0.080697 0.410323
vt 0.080697 0.439837
vt 0.052636 0.381843
vt 0.053888 0.381843
vt 0.080697 0.381843
vt 0.081810 0.381843
vt 0.081810 0.468316
vt 0.110984 0.381843
vt 0.080697 0.468316
vt 0.053888 0.468316
vt 0.023462 0.381843
vt 0.052636 0.468316
vt 0.053888 0.409286
vt 0.053888 0.381843
vt 0.080697 0.381843
vt 0.080697 0.409286
vt 0.081810 0.465572
vt 0.110984 0.384588
vt 0.081810 0.384588
vt 0.080697 0.384588
vt 0.080697 0.384588
vt 0.053888 0.384588
vt 0.053888 0.384588
vt 0.052636 0.384588
vt 0.023462 0.384588
vt 0.052636 0.465572
vt 0.053888 0.465572
vt 0.080697 0.465572
vt 0.056569 0.380808
vt 0.056569 0.498867
vt 0.056569 0.469352
vt 0.056569 0.468316
vt 0.056569 0.465572
vt 0.056569 0.440874
vt 0.056569 0.439837
vt 0.056569 0.410323
vt 0.056569 0.409286
vt 0.056569 0.409286
vt 0.056569 0.384588
vt 0.056569 0.381843
vt 0.056569 0.381843
vt 0.078285 0.440874
vt 0.078285 0.465572
vt 0.078285 0.468316
vt 0.324718 0.714667
vt 0.078285 0.380808
vt 0.324718 0.744182
vt 0.078285 0.381843
vt 0.078285 0.381843
vt 0.078285 0.384588
vt 0.078285 0.409286
vt 0.078285 0.409286
vt 0.078285 0.410323
vt 0.078285 0.439837
vt 0.081810 0.443344
vt 0.110984 0.406816
vt 0.081810 0.406816
vt 0.080697 0.406816
vt 0.080697 0.406816
vt 0.078285 0.406816
vt 0.056569 0.406816
vt 0.053888 0.406816
vt 0.053888 0.406816
vt 0.052636 0.406816
vt 0.023462 0.406816
vt 0.052636 0.443344
vt 0.053888 0.443344
vt 0.056569 0.443344
vt 0.078285 0.443344
vt 0.080697 0.443344
vt 0.874816 0.476050
vt 0.056569 0.406816
vt 0.056569 0.384588
vt 0.078285 0.384588
vt 0.078285 0.384588
vt 0.874816 0.377770
vt 0.078285 0.406816
vt 0.078285 0.406816
vt 0.056569 0.384588
vt 0.757184 0.377770
vt 0.078285 0.384588
vt 0.078285 0.384588
vt 0.078285 0.384588
vt 0.078285 0.384588
vt 0.056569 0.406816
vt 0.757184 0.476050
vt 0.056569 0.384588
vt 0.056569 0.384588
vt 0.056569 0.384588
vt 0.056569 0.384588
vt 0.056569 0.406816
vt 0.056569 0.406816
vt 0.056569 0.406816
vt 0.056569 0.406816
vt 0.078285 0.406816
vt 0.078285 0.406816
vt 0.078285 0.406816
vt 0.078285 0.406816
vt 0.080697 0.443344
vt 0.080697 0.443344
vt 0.080697 0.443344
vt 0.110984 0.406816
vt 0.081810 0.443344
vt 0.078285 0.443344
vt 0.078285 0.443344
vt 0.078285 0.443344
vt 0.056569 0.443344
vt 0.056569 0.443344
vt 0.056569 0.443344
vt 0.053888 0.443344
vt 0.053888 0.443344
vt 0.053888 0.443344
vt 0.023462 0.406816
vt 0.052636 0.443344
vt 0.052636 0.406816
vt 0.052636 0.406816
vt 0.052636 0.406816
vt 0.053888 0.406816
vt 0.053888 0.406816
vt 0.053888 0.406816
vt 0.053888 0.406816
vt 0.053888 0.406816
vt 0.053888 0.406816
vt 0.080697 0.406816
vt 0.080697 0.406816
vt 0.080697 0.406816
vt 0.080697 0.406816
vt 0.080697 0.406816
vt 0.080697 0.406816
vt 0.081810 0.406816
vt 0.081810 0.406816
vt 0.081810 0.406816
vt 0.080697 0.465572
vt 0.080697 0.465572
vt 0.080697 0.465572
vt 0.078285 0.465572
vt 0.078285 0.465572
vt 0.078285 0.465572
vt 0.056569 0.440874
vt 0.056569 0.440874
vt 0.056569 0.440874
vt 0.053888 0.440874
vt 0.053888 0.440874
vt 0.053888 0.440874
vt 0.023462 0.384588
vt 0.052636 0.465572
vt 0.052636 0.409286
vt 0.052636 0.409286
vt 0.052636 0.409286
vt 0.053888 0.384588
vt 0.053888 0.384588
vt 0.053888 0.384588
vt 0.053888 0.384588
vt 0.053888 0.384588
vt 0.053888 0.384588
vt 0.078285 0.409286
vt 0.078285 0.409286
vt 0.078285 0.409286
vt 0.080697 0.409286
vt 0.080697 0.409286
vt 0.080697 0.409286
vt 0.080697 0.409286
vt 0.080697 0.409286
vt 0.080697 0.409286
vt 0.081810 0.409286
vt 0.081810 0.409286
vt 0.081810 0.409286
vt 0.081810 0.465572
vt 0.110984 0.384588
vt 0.078285 0.439837
vt 0.078285 0.439837
vt 0.078285 0.439837
vt 0.078285 0.440874
vt 0.078285 0.440874
vt 0.078285 0.440874
vt 0.078285 0.410323
vt 0.078285 0.410323
vt 0.078285 0.410323
vt 0.078285 0.409286
vt 0.078285 0.409286
vt 0.078285 0.409286
vt 0.078285 0.381843
vt 0.078285 0.381843
vt 0.078285 0.381843
vt 0.078285 0.381843
vt 0.078285 0.381843
vt 0.078285 0.381843
vt 0.078285 0.498867
vt 0.078285 0.380808
vt 0.078285 0.469352
vt 0.078285 0.469352
vt 0.078285 0.469352
vt 0.078285 0.468316
vt 0.078285 0.468316
vt 0.078285 0.468316
vt 0.080697 0.439837
vt 0.080697 0.439837
vt 0.080697 0.439837
vt 0.080697 0.410323
vt 0.080697 0.410323
vt 0.080697 0.410323
vt 0.080697 0.381843
vt 0.080697 0.381843
vt 0.080697 0.381843
vt 0.080697 0.381843
vt 0.080697 0.381843
vt 0.080697 0.381843
vt 0.080697 0.380808
vt 0.327131 0.744182
vt 0.327131 0.714667
vt 0.080697 0.469352
vt 0.080697 0.469352
vt 0.056569 0.468316
vt 0.056569 0.468316
vt 0.056569 0.468316
vt 0.056569 0.381843
vt 0.056569 0.381843
vt 0.056569 0.381843
vt 0.056569 0.498867
vt 0.056569 0.380808
vt 0.056569 0.381843
vt 0.056569 0.381843
vt 0.056569 0.381843
vt 0.056569 0.409286
vt 0.056569 0.409286
vt 0.056569 0.409286
vt 0.056569 0.409286
vt 0.056569 0.409286
vt 0.056569 0.409286
vt 0.056569 0.410323
vt 0.056569 0.410323
vt 0.056569 0.410323
vt 0.056569 0.439837
vt 0.056569 0.439837
vt 0.056569 0.439837
vt 0.056569 0.465572
vt 0.056569 0.465572
vt 0.056569 0.465572
vt 0.056569 0.469352
vt 0.056569 0.469352
vt 0.056569 0.469352
vt 0.053888 0.468316
vt 0.053888 0.468316
vt 0.053888 0.468316
vt 0.053888 0.465572
vt 0.053888 0.465572
vt 0.053888 0.465572
vt 0.052636 0.384588
vt 0.052636 0.384588
vt 0.052636 0.384588
vt 0.080697 0.384588
vt 0.080697 0.384588
vt 0.080697 0.384588
vt 0.080697 0.384588
vt 0.080697 0.384588
vt 0.080697 0.384588
vt 0.081810 0.384588
vt 0.081810 0.384588
vt 0.081810 0.384588
vt 0.080697 0.468316
vt 0.080697 0.468316
vt 0.080697 0.468316
vt 0.023462 0.381843
vt 0.052636 0.468316
vt 0.053888 0.381843
vt 0.053888 0.381843
vt 0.053888 0.381843
vt 0.053888 0.381843
vt 0.053888 0.381843
vt 0.053888 0.381843
vt 0.081810 0.468316
vt 0.110984 0.381843
vt 0.053888 0.409286
vt 0.053888 0.409286
vt 0.053888 0.409286
vt 0.053888 0.409286
vt 0.053888 0.409286
vt 0.053888 0.409286
vt 0.052636 0.381843
vt 0.052636 0.381843
vt 0.052636 0.381843
vt 0.081810 0.381843
vt 0.081810 0.381843
vt 0.081810 0.381843
vt 0.052636 0.469352
vt 0.328244 0.714667
vt 0.053888 0.498867
vt 0.053888 0.380808
vt 0.080697 0.440874
vt 0.080697 0.440874
vt 0.080697 0.440874
vt 0.081810 0.439837
vt 0.081810 0.410323
vt 0.081810 0.410323
vt 0.081810 0.380808
vt 0.053888 0.410323
vt 0.053888 0.410323
vt 0.053888 0.410323
vt 0.053888 0.439837
vt 0.053888 0.439837
vt 0.053888 0.439837
vt 0.053888 0.469352
vt 0.053888 0.469352
vt 0.053888 0.469352
vt 0.023462 0.409286
vt 0.052636 0.440874
vt 0.110984 0.409286
vt 0.081810 0.440874
vt 0.052636 0.410323
vt 0.052636 0.410323
vt 0.052636 0.380808
vt 0.052636 0.439837
vn 0.000000 0.000000 1.000000
vn 0.000000 0.000000 1.000000
vn 0.000000 0.000000 1.000000
vn 0.000000 0.000000 1.000000
vn 0.000000 1.000000 0.000000
vn 0.000000 1.000000 0.000000
vn 0.000000 1.000000 0.000000
vn 0.000000 1.000000 0.000000
vn 0.000000 0.000000 -1.000000
vn 0.000000 0.000000 -1.000000
vn 0.000000 0.000000 -1.000000
vn 0.000000 0.000000 -1.000000
vn 0.000000 -1.000000 0.000000
vn 0.000000 -1.000000 0.000000
vn 0.000000 -1.000000 0.000000
vn 0.000000 -1.000000 0.000000
vn 1.000000 0.000000 0.000000
vn 1.000000 0.000000 0.000000
vn 1.000000 0.000000 0.000000
vn 1.000000 0.000000 0.000000
vn -1.000000 0.000000 -0.000000
vn -1.000000 0.000000 -0.000000
vn -1.000000 0.000000 0.000000
vn -1.000000 0.000000 0.000000
vn -0.000000 0.000000 1.000000
vn -0.000000 0.000000 1.000000
vn -0.000000 0.000000 1.000000
vn -0.000000 0.000000 1.000000
vn 1.000000 0.000000 0.000000
vn 1.000000 0.000000 0.000000
vn 1.000000 0.000000 0.000000
vn 1.000000 0.000000 0.000000
vn 0.000000 0.000000 -1.000000
vn 0.000000 0.000000 -1.000000
vn 0.000000 0.000000 -1.000000
vn 0.000000 0.000000 -1.000000
vn -1.000000 0.000000 0.000000
vn -1.000000 0.000000 0.000000
vn -1.000000 0.000000 0.000000
vn -1.000000 0.000000 0.000000
vn 0.000000 -1.000000 0.000000
vn 0.000000 -1.000000 0.000000
vn 0.000000 -1.000000 0.000000
vn 0.000000 -1.000000 0.000000
vn -0.000000 0.000000 -1.000000
vn -0.000000 0.000000 -1.000000
vn -0.000000 0.000000 -1.000000
vn -0.000000 0.000000 -1.000000
vn 0.000000 0.000000 -1.000000
vn 0.000000 0.000000 -1.000000
vn 0.000000 0.000000 -1.000000
vn 0.000000 0.000000 -1.000000
vn 0.000000 1.000000 0.000000
vn 0.000000 1.000000 0.000000
vn 0.000000 1.000000 0.000000
vn 0.000000 1.000000 0.000000
vn 0.000000 0.000000 1.000000
vn 0.000000 0.000000 1.000000
vn 0.000000 0.000000 1.000000
vn 0.000000 0.000000 1.000000
vn 0.000000 0.000000 1.000000
vn 0.000000 0.000000 1.000000
vn 0.000000 0.000000 1.000000
vn 0.000000 0.000000 1.000000
vn 0.000000 0.000000 -1.000000
vn 0.000000 0.000000 -1.000000
vn 0.000000 0.000000 -1.000000
vn 0.000000 0.000000 -1.000000
vn 0.000000 -1.000000 0.000000
vn 0.000000 -1.000000 0.000000
vn 0.000000 -1.000000 0.000000
vn 0.000000 -1.000000 0.000000
vn 0.000000 0.000000 1.000000
vn 0.000000 0.000000 1.000000
vn 0.000000 0.000000 1.000000
vn 0.000000 0.000000 1.000000
vn 0.000000 0.000000 1.000000
vn 0.000000 0.000000 1.000000
vn 0.000000 0.000000 1.000000
vn 0.000000 0.000000 1.000000
vn 0.000000 1.000000 0.000000
vn 0.000000 1.000000 0.000000
vn 0.000000 1.000000 0.000000
vn 0.000000 1.000000 0.000000
vn 0.000000 0.000000 -1.000000
vn 0.000000 0.000000 -1.000000
vn 0.000000 0.000000 -1.000000
vn 0.000000 0.000000 -1.000000
vn 0.000000 0.000000 1.000000
vn 0.000000 0.000000 1.000000
vn 0.000000 0.000000 1.000000
vn 0.000000 0.000000 1.000000
vn 0.000000 0.000000 1.000000
vn 0.000000 0.000000 1.000000
vn 0.000000 0.000000 1.000000
vn 0.000000 0.000000 1.000000
vn 1.000000 0.000000 0.000000
vn 1.000000 0.000000 0.000000
vn 0.000000 0.000000 -1.000000
vn 0.000000 0.000000 -1.000000
vn 0.000000 0.000000 -1.000000
vn 0.000000 0.000000 -1.000000
vn 0.000000 0.000000 -1.000000
vn 0.000000 0.000000 -1.000000
vn -1.000000 0.000000 0.000000
vn -1.000000 0.000000 0.000000
vn 1.000000 0.000000 0.000000
vn 1.000000 0.000000 0.000000
vn 1.000000 0.000000 0.000000
vn 1.000000 0.000000 0.000000
vn 0.000000 1.000000 0.000000
vn 0.000000 1.000000 0.000000
vn 0.000000 1.000000 0.000000
vn 0.000000 1.000000 0.000000
vn -1.000000 0.000000 0.000000
vn -1.000000 0.000000 0.000000
vn -1.000000 0.000000 0.000000
vn -1.000000 0.000000 0.000000
vn 0.000000 -1.000000 0.000000
vn 0.000000 -1.000000 0.000000
vn 0.000000 -1.000000 0.000000
vn 0.000000 -1.000000 0.000000
vn 1.000000 0.000000 0.000000
vn 1.000000 0.000000 0.000000
vn 0.000000 0.000000 1.000000
vn 0.000000 0.000000 1.000000
vn -1.000000 0.000000 0.000000
vn -1.000000 0.000000 0.000000
vn 0.000000 0.000000 1.000000
vn 0.000000 0.000000 1.000000
vn 0.000000 0.000000 1.000000
vn 0.000000 0.000000 1.000000
vn 1.000000 0.000000 0.000000
vn 1.000000 0.000000 0.000000
vn 0.000000 0.000000 1.000000
vn 0.000000 0.000000 1.000000
vn -1.000000 0.000000 -0.000000
vn -1.000000 0.000000 -0.000000
vn -0.000000 0.000000 -1.000000
vn -0.000000 0.000000 -1.000000
vn 0.000000 0.000000 -1.000000
vn 0.000000 0.000000 -1.000000
vn 0.000000 0.000000 -1.000000
vn 0.000000 0.000000 -1.000000
vn 0.000000 -1.000000 0.000000
vn 0.000000 -1.000000 0.000000
vn 0.000000 0.000000 1.000000
vn 0.000000 0.000000 1.000000
vn 0.000000 0.000000 1.000000
vn 0.000000 0.000000 1.000000
vn 0.000000 1.000000 0.000000
vn 0.000000 1.000000 0.000000
vn 0.000000 1.000000 0.000000
vn 0.000000 1.000000 0.000000
vn -0.000000 0.000000 1.000000
vn 0.000000 0.000000 1.000000
vn -0.000000 0.000000 1.000000
vn -0.000000 0.000000 1.000000
vn 0.000000 -1.000000 0.000000
vn 0.000000 -1.000000 0.000000
vn -1.000000 0.000000 0.000000
vn -1.000000 0.000000 0.000000
vn 0.000000 0.000000 1.000000
vn 0.000000 0.000000 1.000000
vn 0.000000 0.000000 1.000000
vn 0.000000 0.000000 1.000000
vn 1.000000 0.000000 0.000000
vn 1.000000 0.000000 0.000000
vn 0.000000 -1.000000 0.000000
vn 0.000000 -1.000000 0.000000
vn 0.000000 -1.000000 0.000000
vn 0.000000 -1.000000 0.000000
vn 1.000000 0.000000 0.000000
vn 1.000000 0.000000 0.000000
vn 1.000000 0.000000 0.000000
vn 1.000000 0.000000 0.000000
vn 0.000000 1.000000 0.000000
vn 0.000000 1.000000 0.000000
vn 0.000000 1.000000 0.000000
vn 0.000000 1.000000 0.000000
vn -1.000000 0.000000 0.000000
vn -1.000000 0.000000 0.000000
vn -1.000000 0.000000 0.000000
vn -1.000000 0.000000 0.000000
s 1
g Recuadro
usemtl initialShadingGroup
f 53/264/1 54/260/2 68/213/3 69/209/4
s 2
f 52/267/5 53/263/6 69/210/7 70/203/8
s 3
f 51/171/9 52/266/10 70/204/11 59/74/12
s 4
f 47/62/13 48/272/14 62/224/15 63/220/16
s 5
f 10/198/17 11/339/18 6/12/19 4/325/20
s 6
f 12/19/21 9/179/22 3/3/23 5/14/24
s 7
f 65/216/25 66/115/26 56/119/27 57/254/28
s 5
f 28/316/29 29/304/30 37/50/31 38/290/32
s 3
f 60/168/33 61/226/34 49/64/35 50/269/36
s 6
f 32/43/37 25/35/38 43/282/39 44/177/40
s 4
f 7/7/41 14/334/42 13/319/43 1/9/44
s 3
f 44/58/45 45/278/46 31/274/47 32/296/48
f 5/5/49 16/331/50 15/175/51 12/20/52
s 2
f 3/341/53 17/328/54 16/25/55 5/344/56
s 1
f 9/180/57 18/308/58 17/26/59 3/342/60
f 25/311/61 26/300/62 42/183/63 43/281/64
s 3
f 29/39/65 30/294/66 46/166/67 37/200/68
s 4
f 21/31/69 20/242/70 8/318/71 2/10/72
s 1
f 38/291/73 39/287/74 27/237/75 28/315/76
f 23/232/77 22/195/78 10/197/79 4/326/80
s 2
f 24/229/81 23/231/82 4/4/83 6/324/84
s 3
f 19/323/85 24/228/86 6/6/87 11/340/88
s 1
f 1/343/89 13/320/90 26/299/62 25/312/61
f 63/221/91 64/218/92 58/250/93 47/61/94
f 28/314/76 27/238/75 21/240/95 2/2/96
s 5
f 2/327/97 8/11/98 29/40/30 28/38/29
s 3
f 20/243/99 30/293/66 29/303/65 8/8/100
f 48/273/101 49/247/35 61/227/34 62/223/102
f 32/44/48 31/275/47 14/23/103 7/317/104
s 6
f 7/13/105 1/1/106 25/313/38 32/295/37
s 17
f 41/186/107 42/182/108 26/36/109 34/302/110
s 18
f 57/255/111 58/249/112 64/219/113 65/215/114
s 19
f 27/236/115 39/288/116 40/284/117 35/234/118
s 20
f 67/188/119 68/212/120 54/261/121 55/257/122
s 5
f 38/289/32 37/201/31 71/88/123 72/163/124
s 1
f 72/164/125 73/160/126 39/286/74 38/51/73
s 19
f 40/283/117 39/52/116 73/161/127 74/157/128
s off
f 85/103/129 86/118/130 87/112/131 88/108/132
s 17
f 77/155/133 78/151/134 42/55/108 41/187/107
s 1
f 43/280/64 42/184/63 78/152/135 79/148/136
s 6
f 44/57/40 43/56/39 79/149/137 80/145/138
s 3
f 80/146/139 81/143/140 45/277/46 44/178/45
f 82/141/141 83/137/142 60/75/33 50/270/36
f 37/49/68 46/167/67 84/133/143 71/87/144
s 4
f 13/22/43 14/335/42 48/271/14 47/251/13
s 3
f 14/336/103 31/276/47 49/246/35 48/63/101
f 50/268/36 49/245/35 31/42/47 45/279/46
f 81/144/140 82/140/141 50/65/36 45/59/46
f 15/174/51 16/332/50 52/265/10 51/172/9
s 2
f 16/333/55 17/329/54 53/262/6 52/67/5
s 1
f 17/330/59 18/309/58 54/259/2 53/68/1
s 20
f 55/256/122 54/69/121 18/310/145 33/306/146
s 7
f 76/123/147 77/154/148 41/54/149 56/121/27
f 57/253/28 56/120/27 41/185/149 34/46/150
s 18
f 26/297/151 58/248/112 57/72/111 34/301/152
s 1
f 47/252/94 58/73/93 26/298/62 13/21/90
s 3
f 46/60/67 60/170/33 83/138/142 84/132/143
f 30/41/66 61/225/34 60/169/33 46/165/67
f 62/222/102 61/76/34 30/292/66 20/244/99
s 4
f 63/79/16 62/77/15 20/29/70 21/241/69
s 1
f 27/239/75 64/217/92 63/78/91 21/30/95
s 18
f 65/214/114 64/80/113 27/37/153 35/235/154
s 7
f 40/285/155 66/114/26 65/81/25 35/47/156
f 74/158/157 75/129/158 66/113/26 40/53/155
s 20
f 22/193/159 68/211/120 67/189/119 36/191/160
s 1
f 69/208/4 68/84/3 22/194/78 23/233/77
s 2
f 70/202/8 69/85/7 23/33/82 24/230/81
s 3
f 59/207/12 70/86/11 24/34/86 19/28/85
s 5
f 72/162/124 71/134/123 11/18/18 10/199/17
s 1
f 22/196/78 73/159/126 72/89/125 10/16/79
s 19
f 74/156/128 73/90/127 22/32/161 36/192/162
s 7
f 67/190/163 75/128/158 74/91/157 36/48/164
f 55/258/165 76/125/147 75/127/158 67/83/163
f 33/45/166 77/153/148 76/124/147 55/70/165
s 17
f 18/27/167 78/150/134 77/94/133 33/305/168
s 1
f 79/147/136 78/95/135 18/307/58 9/181/57
s 6
f 80/97/138 79/96/137 9/15/22 12/337/21
s 3
f 12/338/52 15/176/51 81/142/140 80/98/139
f 51/173/9 82/139/141 81/99/140 15/24/51
f 59/205/12 83/136/142 82/100/141 51/66/9
f 84/131/143 83/101/142 59/206/12 19/321/85
f 71/135/144 84/102/143 19/322/85 11/17/88
s off
f 75/92/169 76/126/170 86/117/171 85/109/172
f 76/93/173 56/122/174 87/111/175 86/104/176
f 56/71/177 66/116/178 88/107/179 87/105/180
f 66/82/181 75/130/182 85/110/183 88/106/184
