%YAML 1.1
%TAG !u! tag:unity3d.com,2011:
--- !u!114 &11400000
MonoBehaviour:
  m_ObjectHideFlags: 0
  m_CorrespondingSourceObject: {fileID: 0}
  m_PrefabInstance: {fileID: 0}
  m_PrefabAsset: {fileID: 0}
  m_GameObject: {fileID: 0}
  m_Enabled: 1
  m_EditorHideFlags: 0
  m_Script: {fileID: 11500000, guid: 094617b49fc55fc41ad46f24a99fe375, type: 3}
  m_Name: Bolsa Tela
  m_EditorClassIdentifier: 
  objName: Bolsa Tela
  descripcion: Una bolsa vieja de tela
  sanidad: 0
  image: {fileID: 21300000, guid: 25626b596e1b75c4c962e6b7dc57c338, type: 3}
  _note: {fileID: 11400000, guid: ec35c954b63e30b4a9424513cfe6db73, type: 2}
