%YAML 1.1
%TAG !u! tag:unity3d.com,2011:
--- !u!114 &11400000
MonoBehaviour:
  m_ObjectHideFlags: 0
  m_CorrespondingSourceObject: {fileID: 0}
  m_PrefabInstance: {fileID: 0}
  m_PrefabAsset: {fileID: 0}
  m_GameObject: {fileID: 0}
  m_Enabled: 1
  m_EditorHideFlags: 0
  m_Script: {fileID: 11500000, guid: 094617b49fc55fc41ad46f24a99fe375, type: 3}
  m_Name: Botiquin cerrado
  m_EditorClassIdentifier: 
  objName: BotiquinCerrado
  descripcion: Otro botiquin
  sanidad: 0
  image: {fileID: 21300000, guid: 3347650f61bfde9498c0db30c59524a9, type: 3}
  _note: {fileID: 11400000, guid: 1f2db894cc8b13f4a9f2fbfa9c3d7c01, type: 2}
