%YAML 1.1
%TAG !u! tag:unity3d.com,2011:
--- !u!114 &11400000
MonoBehaviour:
  m_ObjectHideFlags: 0
  m_CorrespondingSourceObject: {fileID: 0}
  m_PrefabInstance: {fileID: 0}
  m_PrefabAsset: {fileID: 0}
  m_GameObject: {fileID: 0}
  m_Enabled: 1
  m_EditorHideFlags: 0
  m_Script: {fileID: 11500000, guid: 094617b49fc55fc41ad46f24a99fe375, type: 3}
  m_Name: LibroAbierto 2
  m_EditorClassIdentifier: 
  objName: Nota de amor
  descripcion: Libro Abierto
  sanidad: 0
  image: {fileID: 21300000, guid: 6c10e3210dfc75149b8c134e56cca97b, type: 3}
  _note: {fileID: 11400000, guid: 8aa1cdcced79eb5479ad97674aa0af10, type: 2}
