%YAML 1.1
%TAG !u! tag:unity3d.com,2011:
--- !u!114 &11400000
MonoBehaviour:
  m_ObjectHideFlags: 0
  m_CorrespondingSourceObject: {fileID: 0}
  m_PrefabInstance: {fileID: 0}
  m_PrefabAsset: {fileID: 0}
  m_GameObject: {fileID: 0}
  m_Enabled: 1
  m_EditorHideFlags: 0
  m_Script: {fileID: 11500000, guid: 094617b49fc55fc41ad46f24a99fe375, type: 3}
  m_Name: Llaves
  m_EditorClassIdentifier: 
  objName: Llaves
  descripcion: Muchas llaves
  sanidad: 0
  image: {fileID: 0}
  _note: {fileID: 0}
