%YAML 1.1
%TAG !u! tag:unity3d.com,2011:
--- !u!65 &65126952250131908
BoxCollider:
  m_ObjectHideFlags: 0
  m_CorrespondingSourceObject: {fileID: 0}
  m_PrefabInstance: {fileID: 0}
  m_PrefabAsset: {fileID: 0}
  m_GameObject: {fileID: 7687110809090171850}
  m_Material: {fileID: 0}
  m_IsTrigger: 0
  m_Enabled: 1
  serializedVersion: 2
  m_Size: {x: 7.9919806, y: 12.21969, z: 7.4386377}
  m_Center: {x: -0.002035746, y: 0.5680983, z: -0.17083336}
--- !u!1001 &7687110809090205032
PrefabInstance:
  m_ObjectHideFlags: 0
  serializedVersion: 2
  m_Modification:
    m_TransformParent: {fileID: 0}
    m_Modifications:
    - target: {fileID: 100000, guid: db676b363a50c694192be31a1915b6ac, type: 3}
      propertyPath: m_Layer
      value: 0
      objectReference: {fileID: 0}
    - target: {fileID: 100002, guid: db676b363a50c694192be31a1915b6ac, type: 3}
      propertyPath: m_Name
      value: Silla_oficina_T Variant
      objectReference: {fileID: 0}
    - target: {fileID: 100002, guid: db676b363a50c694192be31a1915b6ac, type: 3}
      propertyPath: m_Layer
      value: 0
      objectReference: {fileID: 0}
    - target: {fileID: 400002, guid: db676b363a50c694192be31a1915b6ac, type: 3}
      propertyPath: m_LocalPosition.x
      value: -86.10106
      objectReference: {fileID: 0}
    - target: {fileID: 400002, guid: db676b363a50c694192be31a1915b6ac, type: 3}
      propertyPath: m_LocalPosition.y
      value: 96.958
      objectReference: {fileID: 0}
    - target: {fileID: 400002, guid: db676b363a50c694192be31a1915b6ac, type: 3}
      propertyPath: m_LocalPosition.z
      value: -1034.956
      objectReference: {fileID: 0}
    - target: {fileID: 400002, guid: db676b363a50c694192be31a1915b6ac, type: 3}
      propertyPath: m_LocalRotation.x
      value: 0
      objectReference: {fileID: 0}
    - target: {fileID: 400002, guid: db676b363a50c694192be31a1915b6ac, type: 3}
      propertyPath: m_LocalRotation.y
      value: -0
      objectReference: {fileID: 0}
    - target: {fileID: 400002, guid: db676b363a50c694192be31a1915b6ac, type: 3}
      propertyPath: m_LocalRotation.z
      value: -0
      objectReference: {fileID: 0}
    - target: {fileID: 400002, guid: db676b363a50c694192be31a1915b6ac, type: 3}
      propertyPath: m_LocalRotation.w
      value: 1
      objectReference: {fileID: 0}
    - target: {fileID: 400002, guid: db676b363a50c694192be31a1915b6ac, type: 3}
      propertyPath: m_RootOrder
      value: 0
      objectReference: {fileID: 0}
    - target: {fileID: 400002, guid: db676b363a50c694192be31a1915b6ac, type: 3}
      propertyPath: m_LocalEulerAnglesHint.x
      value: 0
      objectReference: {fileID: 0}
    - target: {fileID: 400002, guid: db676b363a50c694192be31a1915b6ac, type: 3}
      propertyPath: m_LocalEulerAnglesHint.y
      value: 0
      objectReference: {fileID: 0}
    - target: {fileID: 400002, guid: db676b363a50c694192be31a1915b6ac, type: 3}
      propertyPath: m_LocalEulerAnglesHint.z
      value: 0
      objectReference: {fileID: 0}
    - target: {fileID: 400002, guid: db676b363a50c694192be31a1915b6ac, type: 3}
      propertyPath: m_LocalScale.x
      value: 0.24366
      objectReference: {fileID: 0}
    - target: {fileID: 400002, guid: db676b363a50c694192be31a1915b6ac, type: 3}
      propertyPath: m_LocalScale.y
      value: 0.24366
      objectReference: {fileID: 0}
    - target: {fileID: 400002, guid: db676b363a50c694192be31a1915b6ac, type: 3}
      propertyPath: m_LocalScale.z
      value: 0.24366
      objectReference: {fileID: 0}
    - target: {fileID: 2300000, guid: db676b363a50c694192be31a1915b6ac, type: 3}
      propertyPath: m_Materials.Array.data[0]
      value: 
      objectReference: {fileID: 2100000, guid: 67dff0cfa64248f47823d2b2e9611941, type: 2}
    m_RemovedComponents: []
  m_SourcePrefab: {fileID: 100100000, guid: db676b363a50c694192be31a1915b6ac, type: 3}
--- !u!1 &7687110809090171850 stripped
GameObject:
  m_CorrespondingSourceObject: {fileID: 100002, guid: db676b363a50c694192be31a1915b6ac,
    type: 3}
  m_PrefabInstance: {fileID: 7687110809090205032}
  m_PrefabAsset: {fileID: 0}
