# This file uses centimeters as units for non-parametric coordinates.

mtllib drc1.mtl
g default
v 0.001430 0.001016 -0.025053
v 2.754222 0.000962 -0.025053
v 5.507064 -0.004221 -0.024678
v 8.259848 -0.024857 -0.022029
v 11.012620 -0.003597 -0.024445
v 13.765391 0.001016 -0.025053
v 16.518184 0.001016 -0.025053
v 19.270975 0.001016 -0.025053
v 22.023768 0.001016 -0.025053
v 24.776560 0.001016 -0.025053
v 27.529352 0.001016 -0.025053
v 0.001430 0.000916 2.727747
v 2.755359 -0.014074 2.728296
v 5.507424 0.046463 2.725047
v 8.255808 0.148068 2.709483
v 11.012955 0.055335 2.720956
v 13.768999 0.117025 2.722237
v 16.502812 0.488188 2.706944
v 19.271164 0.013976 2.726288
v 22.023768 0.164385 2.727747
v 24.776560 0.706425 2.727747
v 27.529352 0.004459 2.727747
v 0.001433 0.000350 5.480550
v 2.754408 0.003062 5.480646
v 5.504323 0.049636 5.478649
v 8.223311 0.902712 5.518958
v 10.922783 0.936081 5.524128
v 13.821763 0.422527 5.473700
v 16.479992 0.809428 5.466162
v 19.243269 1.049862 5.471601
v 22.021043 0.938029 5.497755
v 24.776567 0.572818 5.482272
v 27.529352 0.043010 5.480546
v 0.001430 0.001016 8.233347
v 2.754222 0.060475 8.233347
v 5.505497 0.566138 8.237562
v 8.223053 0.950723 8.306119
v 11.061665 0.973563 8.181895
v 13.719716 1.203375 7.880279
v 16.274920 2.008184 7.993980
v 19.229527 2.548801 8.022417
v 22.120275 0.741389 8.238247
v 24.778017 0.847676 8.245996
v 27.529352 0.019624 8.233347
v 0.001430 0.001016 10.986147
v 2.754222 0.509432 10.986147
v 5.559426 0.789715 11.034164
v 8.241748 0.468339 11.011875
v 10.552309 1.476969 10.194688
v 13.209069 3.093530 9.016340
v 16.380112 3.346628 9.423677
v 19.371854 2.113012 10.347132
v 22.646378 2.169262 9.237354
v 25.132256 1.061239 10.632003
v 27.529352 0.001016 10.986147
v 0.001430 0.307727 14.254356
v 2.754199 0.572470 13.750412
v 5.514045 1.026664 13.243758
v 7.763351 1.535712 13.097041
v 10.372606 3.906747 10.827127
v 13.809281 4.427631 11.703800
v 16.543998 5.492328 10.291173
v 21.200920 4.041310 11.417534
v 24.412844 2.395403 10.917642
v 25.470606 1.248642 13.485781
v 27.529352 0.307255 14.255255
v 0.001430 2.826846 15.553562
v 2.749457 2.830811 15.519948
v 5.531375 2.793863 14.645677
v 8.155600 3.167593 14.339014
v 10.836214 5.000132 12.430445
v 13.513788 4.395920 13.822407
v 16.720992 6.273326 11.826581
v 19.547108 4.641421 13.316745
v 22.593925 3.968066 12.167489
v 24.799282 2.828840 15.384907
v 27.527753 2.826618 15.567386
v 0.001430 5.579507 15.580685
v 2.754222 5.579507 15.580685
v 5.505519 5.582298 15.497777
v 8.253998 5.607293 14.840572
v 10.519264 6.634852 13.344333
v 13.399489 6.282129 12.675176
v 16.651674 6.828927 12.316685
v 19.514302 6.080703 12.978532
v 22.442467 6.328964 13.804164
v 24.796725 5.598834 15.385229
v 27.529320 5.579498 15.580967
v 0.001430 8.332157 15.607804
v 2.754201 8.332166 15.607650
v 5.504430 8.339475 15.118680
v 8.273436 8.331671 14.661357
v 10.960216 8.553481 14.761605
v 13.758608 8.353288 15.284626
v 16.548067 8.320575 14.957218
v 19.225767 8.269289 14.871466
v 22.043835 8.362149 15.142195
v 24.776637 8.332280 15.606876
v 27.529352 8.332157 15.607804
v 0.001430 11.084824 15.634927
v 2.754222 11.084824 15.634927
v 5.507014 11.084824 15.634927
v 8.259811 11.084834 15.634863
v 11.012627 11.084882 15.634386
v 13.765313 11.084944 15.633455
v 16.509091 11.104505 15.460385
v 19.279071 11.107299 15.444232
v 22.024132 11.085228 15.631785
v 24.776560 11.084824 15.634927
v 27.529352 11.084824 15.634927
v 0.001430 13.837476 15.662048
v 2.754222 13.837476 15.662048
v 5.507014 13.837476 15.662048
v 8.259807 13.837476 15.662048
v 11.012599 13.837476 15.662048
v 13.765391 13.837476 15.662048
v 16.518184 13.837476 15.662048
v 19.270975 13.837476 15.662048
v 22.023768 13.837476 15.662048
v 24.776560 13.837476 15.662048
v 27.529352 13.837476 15.662048
vt 0.000000 0.000000
vt 0.100000 0.000000
vt 0.200000 0.000000
vt 0.300000 0.000000
vt 0.400000 0.000000
vt 0.500000 0.000000
vt 0.600000 0.000000
vt 0.700000 0.000000
vt 0.800000 0.000000
vt 0.900000 0.000000
vt 1.000000 0.000000
vt 0.000000 0.100000
vt 0.100000 0.100000
vt 0.200000 0.100000
vt 0.300000 0.100000
vt 0.400000 0.100000
vt 0.500000 0.100000
vt 0.600000 0.100000
vt 0.700000 0.100000
vt 0.800000 0.100000
vt 0.900000 0.100000
vt 1.000000 0.100000
vt 0.000000 0.200000
vt 0.100000 0.200000
vt 0.200000 0.200000
vt 0.300000 0.200000
vt 0.400000 0.200000
vt 0.500000 0.200000
vt 0.600000 0.200000
vt 0.700000 0.200000
vt 0.800000 0.200000
vt 0.900000 0.200000
vt 1.000000 0.200000
vt 0.000000 0.300000
vt 0.100000 0.300000
vt 0.200000 0.300000
vt 0.300000 0.300000
vt 0.400000 0.300000
vt 0.500000 0.300000
vt 0.600000 0.300000
vt 0.700000 0.300000
vt 0.800000 0.300000
vt 0.900000 0.300000
vt 1.000000 0.300000
vt 0.000000 0.400000
vt 0.100000 0.400000
vt 0.200000 0.400000
vt 0.300000 0.400000
vt 0.400000 0.400000
vt 0.500000 0.400000
vt 0.600000 0.400000
vt 0.700000 0.400000
vt 0.800000 0.400000
vt 0.900000 0.400000
vt 1.000000 0.400000
vt 0.000000 0.500000
vt 0.100000 0.500000
vt 0.200000 0.500000
vt 0.300000 0.500000
vt 0.400000 0.500000
vt 0.500000 0.500000
vt 0.600000 0.500000
vt 0.700000 0.500000
vt 0.800000 0.500000
vt 0.900000 0.500000
vt 1.000000 0.500000
vt 0.000000 0.600000
vt 0.100000 0.600000
vt 0.200000 0.600000
vt 0.300000 0.600000
vt 0.400000 0.600000
vt 0.500000 0.600000
vt 0.600000 0.600000
vt 0.700000 0.600000
vt 0.800000 0.600000
vt 0.900000 0.600000
vt 1.000000 0.600000
vt 0.000000 0.700000
vt 0.100000 0.700000
vt 0.200000 0.700000
vt 0.300000 0.700000
vt 0.400000 0.700000
vt 0.500000 0.700000
vt 0.600000 0.700000
vt 0.700000 0.700000
vt 0.800000 0.700000
vt 0.900000 0.700000
vt 1.000000 0.700000
vt 0.000000 0.800000
vt 0.100000 0.800000
vt 0.200000 0.800000
vt 0.300000 0.800000
vt 0.400000 0.800000
vt 0.500000 0.800000
vt 0.600000 0.800000
vt 0.700000 0.800000
vt 0.800000 0.800000
vt 0.900000 0.800000
vt 1.000000 0.800000
vt 0.000000 0.900000
vt 0.100000 0.900000
vt 0.200000 0.900000
vt 0.300000 0.900000
vt 0.400000 0.900000
vt 0.500000 0.900000
vt 0.600000 0.900000
vt 0.700000 0.900000
vt 0.800000 0.900000
vt 0.900000 0.900000
vt 1.000000 0.900000
vt 0.000000 1.000000
vt 0.100000 1.000000
vt 0.200000 1.000000
vt 0.300000 1.000000
vt 0.400000 1.000000
vt 0.500000 1.000000
vt 0.600000 1.000000
vt 0.700000 1.000000
vt 0.800000 1.000000
vt 0.900000 1.000000
vt 1.000000 1.000000
vn 0.002732 0.999992 0.002748
vn -0.003659 0.999992 -0.001860
vn -0.006142 0.999978 -0.002609
vn 0.002481 0.999997 -0.000130
vn -0.012426 0.999645 -0.023585
vn -0.054775 0.997384 -0.047168
vn -0.000868 0.999137 -0.041530
vn -0.040395 0.990989 -0.127707
vn 0.000485 0.999313 -0.037050
vn 0.023229 0.989358 -0.143633
vn -0.039750 0.996709 -0.070644
vn -0.033040 0.992526 -0.117475
vn 0.009620 0.994938 -0.100024
vn -0.019137 0.990018 -0.139636
vn 0.029357 0.997685 -0.061348
vn 0.023618 0.984962 -0.171151
vn -0.062484 0.993579 -0.094317
vn -0.040376 0.986712 -0.157383
vn 0.014376 0.989789 -0.141812
vn 0.054960 0.993948 -0.095110
vn 0.125458 0.983977 -0.126688
vn 0.172663 0.983450 -0.054898
vn -0.032198 0.999021 -0.030330
vn -0.004530 0.999967 -0.006779
vn -0.127245 0.988165 -0.085663
vn -0.097468 0.986058 -0.134867
vn 0.028585 0.985471 -0.167424
vn -0.054690 0.975137 -0.214749
vn -0.102012 0.946312 -0.306735
vn 0.060841 0.944968 -0.321457
vn 0.090222 0.980094 -0.176852
vn 0.121389 0.991811 -0.039687
vn 0.228892 0.973354 -0.013816
vn -0.088144 0.993013 -0.078457
vn -0.057064 0.997314 -0.045924
vn -0.120881 0.990123 -0.071028
vn -0.108487 0.993818 -0.023601
vn -0.146924 0.961404 -0.232627
vn -0.141117 0.866272 -0.479227
vn -0.070238 0.860826 -0.504029
vn 0.131165 0.934941 -0.329668
vn 0.211914 0.950763 -0.226147
vn 0.228633 0.964919 -0.129064
vn 0.290711 0.955422 -0.051529
vn -0.130514 0.988176 -0.080457
vn -0.124174 0.989768 -0.070286
vn -0.085658 0.991658 -0.096320
vn -0.323918 0.893213 -0.311846
vn -0.438268 0.727341 -0.528106
vn -0.249600 0.668615 -0.700467
vn 0.076009 0.643444 -0.761710
vn 0.251842 0.650279 -0.716738
vn 0.187934 0.830108 -0.524978
vn 0.480408 0.850309 -0.214900
vn 0.392289 0.916374 -0.079803
vn -0.171641 0.866914 -0.467974
vn -0.140667 0.847441 -0.511915
vn -0.166992 0.859091 -0.483814
vn -0.450708 0.696190 -0.558733
vn -0.479508 0.672900 -0.563273
vn -0.277232 0.845791 -0.455828
vn 0.063348 0.776162 -0.627343
vn 0.256260 0.759150 -0.598349
vn 0.589054 0.719950 -0.366998
vn 0.542630 0.782258 -0.305983
vn 0.376645 0.819892 -0.431180
vn -0.130256 0.330568 -0.934750
vn -0.060331 0.292728 -0.954290
vn -0.201094 0.411831 -0.888795
vn -0.500157 0.457880 -0.734975
vn -0.402826 0.599909 -0.691260
vn -0.162207 0.644557 -0.747151
vn 0.044229 0.805205 -0.591344
vn 0.306096 0.734416 -0.605755
vn 0.564620 0.626640 -0.537147
vn 0.540499 0.428207 -0.724223
vn 0.170823 0.303328 -0.937450
vn -0.070624 0.031843 -0.996995
vn -0.003072 0.012896 -0.999912
vn -0.165315 0.060082 -0.984409
vn -0.357845 0.153053 -0.921152
vn -0.252172 0.387424 -0.886743
vn -0.060361 0.491612 -0.868720
vn 0.007466 0.611322 -0.791347
vn 0.144964 0.538802 -0.829866
vn 0.381964 0.394567 -0.835715
vn 0.378754 0.157183 -0.912052
vn 0.052637 0.023828 -0.998329
vn -0.048143 0.013589 -0.998748
vn -0.000028 0.009852 -0.999952
vn -0.118454 0.051772 -0.991609
vn -0.148351 0.189850 -0.970541
vn -0.014350 0.426479 -0.904384
vn -0.030395 0.531318 -0.846627
vn -0.026660 0.557464 -0.829773
vn 0.095246 0.478265 -0.873036
vn 0.162900 0.318621 -0.933780
vn 0.126176 0.114937 -0.985327
vn 0.018018 0.027645 -0.999456
vn -0.022207 0.032068 -0.999239
vn -0.000014 0.009866 -0.999951
vn -0.042617 0.096899 -0.994382
vn -0.019769 0.155546 -0.987631
vn 0.026172 0.144797 -0.989115
vn -0.005956 0.107760 -0.994159
vn -0.035461 0.115494 -0.992675
vn 0.023927 0.125650 -0.991786
vn 0.049998 0.085520 -0.995081
vn 0.021479 0.031122 -0.999285
vn 0.000084 0.009937 -0.999951
vn 0.000000 0.009852 -0.999952
vn 0.000000 0.009852 -0.999952
vn -0.000006 0.009858 -0.999951
vn -0.000049 0.009913 -0.999951
vn -0.000128 0.010090 -0.999949
vn -0.015855 0.026070 -0.999534
vn -0.017232 0.059335 -0.998089
vn 0.015591 0.060960 -0.998018
vn 0.017380 0.027803 -0.999462
vn 0.000286 0.010138 -0.999949
vn 0.000000 0.009852 -0.999952
s 1
g pPlane46 pisoespecial
usemtl initialShadingGroup
f 1/1/1 2/2/2 13/13/3 12/12/4
f 2/2/2 3/3/5 14/14/6 13/13/3
f 3/3/5 4/4/7 15/15/8 14/14/6
f 4/4/7 5/5/9 16/16/10 15/15/8
f 5/5/9 6/6/11 17/17/12 16/16/10
f 6/6/11 7/7/13 18/18/14 17/17/12
f 7/7/13 8/8/15 19/19/16 18/18/14
f 8/8/15 9/9/17 20/20/18 19/19/16
f 9/9/17 10/10/19 21/21/20 20/20/18
f 10/10/19 11/11/21 22/22/22 21/21/20
f 12/12/4 13/13/3 24/24/23 23/23/24
f 13/13/3 14/14/6 25/25/25 24/24/23
f 14/14/6 15/15/8 26/26/26 25/25/25
f 15/15/8 16/16/10 27/27/27 26/26/26
f 16/16/10 17/17/12 28/28/28 27/27/27
f 17/17/12 18/18/14 29/29/29 28/28/28
f 18/18/14 19/19/16 30/30/30 29/29/29
f 19/19/16 20/20/18 31/31/31 30/30/30
f 20/20/18 21/21/20 32/32/32 31/31/31
f 21/21/20 22/22/22 33/33/33 32/32/32
f 23/23/24 24/24/23 35/35/34 34/34/35
f 24/24/23 25/25/25 36/36/36 35/35/34
f 25/25/25 26/26/26 37/37/37 36/36/36
f 26/26/26 27/27/27 38/38/38 37/37/37
f 27/27/27 28/28/28 39/39/39 38/38/38
f 28/28/28 29/29/29 40/40/40 39/39/39
f 29/29/29 30/30/30 41/41/41 40/40/40
f 30/30/30 31/31/31 42/42/42 41/41/41
f 31/31/31 32/32/32 43/43/43 42/42/42
f 32/32/32 33/33/33 44/44/44 43/43/43
f 34/34/35 35/35/34 46/46/45 45/45/46
f 35/35/34 36/36/36 47/47/47 46/46/45
f 36/36/36 37/37/37 48/48/48 47/47/47
f 37/37/37 38/38/38 49/49/49 48/48/48
f 38/38/38 39/39/39 50/50/50 49/49/49
f 39/39/39 40/40/40 51/51/51 50/50/50
f 40/40/40 41/41/41 52/52/52 51/51/51
f 41/41/41 42/42/42 53/53/53 52/52/52
f 42/42/42 43/43/43 54/54/54 53/53/53
f 43/43/43 44/44/44 55/55/55 54/54/54
f 45/45/46 46/46/45 57/57/56 56/56/57
f 46/46/45 47/47/47 58/58/58 57/57/56
f 47/47/47 48/48/48 59/59/59 58/58/58
f 48/48/48 49/49/49 60/60/60 59/59/59
f 49/49/49 50/50/50 61/61/61 60/60/60
f 50/50/50 51/51/51 62/62/62 61/61/61
f 51/51/51 52/52/52 63/63/63 62/62/62
f 52/52/52 53/53/53 64/64/64 63/63/63
f 53/53/53 54/54/54 65/65/65 64/64/64
f 54/54/54 55/55/55 66/66/66 65/65/65
f 56/56/57 57/57/56 68/68/67 67/67/68
f 57/57/56 58/58/58 69/69/69 68/68/67
f 58/58/58 59/59/59 70/70/70 69/69/69
f 59/59/59 60/60/60 71/71/71 70/70/70
f 60/60/60 61/61/61 72/72/72 71/71/71
f 61/61/61 62/62/62 73/73/73 72/72/72
f 62/62/62 63/63/63 74/74/74 73/73/73
f 63/63/63 64/64/64 75/75/75 74/74/74
f 64/64/64 65/65/65 76/76/76 75/75/75
f 65/65/65 66/66/66 77/77/77 76/76/76
f 67/67/68 68/68/67 79/79/78 78/78/79
f 68/68/67 69/69/69 80/80/80 79/79/78
f 69/69/69 70/70/70 81/81/81 80/80/80
f 70/70/70 71/71/71 82/82/82 81/81/81
f 71/71/71 72/72/72 83/83/83 82/82/82
f 72/72/72 73/73/73 84/84/84 83/83/83
f 73/73/73 74/74/74 85/85/85 84/84/84
f 74/74/74 75/75/75 86/86/86 85/85/85
f 75/75/75 76/76/76 87/87/87 86/86/86
f 76/76/76 77/77/77 88/88/88 87/87/87
f 78/78/79 79/79/78 90/90/89 89/89/90
f 79/79/78 80/80/80 91/91/91 90/90/89
f 80/80/80 81/81/81 92/92/92 91/91/91
f 81/81/81 82/82/82 93/93/93 92/92/92
f 82/82/82 83/83/83 94/94/94 93/93/93
f 83/83/83 84/84/84 95/95/95 94/94/94
f 84/84/84 85/85/85 96/96/96 95/95/95
f 85/85/85 86/86/86 97/97/97 96/96/96
f 86/86/86 87/87/87 98/98/98 97/97/97
f 87/87/87 88/88/88 99/99/99 98/98/98
f 89/89/90 90/90/89 101/101/100 100/100/101
f 90/90/89 91/91/91 102/102/102 101/101/100
f 91/91/91 92/92/92 103/103/103 102/102/102
f 92/92/92 93/93/93 104/104/104 103/103/103
f 93/93/93 94/94/94 105/105/105 104/104/104
f 94/94/94 95/95/95 106/106/106 105/105/105
f 95/95/95 96/96/96 107/107/107 106/106/106
f 96/96/96 97/97/97 108/108/108 107/107/107
f 97/97/97 98/98/98 109/109/109 108/108/108
f 98/98/98 99/99/99 110/110/110 109/109/109
f 100/100/101 101/101/100 112/112/111 111/111/112
f 101/101/100 102/102/102 113/113/113 112/112/111
f 102/102/102 103/103/103 114/114/114 113/113/113
f 103/103/103 104/104/104 115/115/115 114/114/114
f 104/104/104 105/105/105 116/116/116 115/115/115
f 105/105/105 106/106/106 117/117/117 116/116/116
f 106/106/106 107/107/107 118/118/118 117/117/117
f 107/107/107 108/108/108 119/119/119 118/118/118
f 108/108/108 109/109/109 120/120/120 119/119/119
f 109/109/109 110/110/110 121/121/121 120/120/120
