# This file uses centimeters as units for non-parametric coordinates.

mtllib drlc2.mtl
g default
v 0.001422 -13.172225 -15.775357
v 2.754213 -13.172171 -15.775357
v 5.507055 -13.166988 -15.774982
v 8.259840 -13.146352 -15.772333
v 11.012611 -13.167612 -15.774749
v 13.780169 -12.685680 -15.741827
v 16.518175 -13.172225 -15.775357
v 19.270966 -13.172225 -15.775357
v 22.023759 -13.172225 -15.775357
v 24.776552 -13.172225 -15.775357
v 27.529343 -13.172225 -15.775357
v 0.001422 -13.172125 -13.022565
v 2.755351 -13.157135 -13.022016
v 5.507416 -13.217672 -13.025264
v 8.227985 -12.701357 -12.944255
v 11.007894 -13.087130 -13.021637
v 13.697899 -13.749291 -12.925305
v 16.502804 -13.659397 -13.043368
v 19.271156 -13.185186 -13.024024
v 22.023759 -13.335594 -13.022565
v 24.776552 -13.877635 -13.022565
v 27.529343 -13.175669 -13.022565
v 0.001424 -13.171559 -10.269770
v 2.754399 -13.174271 -10.269673
v 5.502986 -13.251927 -10.276610
v 8.199443 -14.449033 -10.313420
v 10.927706 -14.007938 -10.211184
v 13.850282 -13.052792 -10.243886
v 16.454963 -13.935132 -10.289971
v 19.244698 -14.171121 -10.279906
v 22.021034 -14.109238 -10.252565
v 24.776558 -13.744028 -10.268048
v 27.529343 -13.214220 -10.269773
v 0.001422 -13.172225 -7.516980
v 2.754213 -13.231684 -7.516980
v 5.505488 -13.737347 -7.512765
v 8.222042 -14.304609 -7.444397
v 11.012299 -13.903064 -7.586153
v 13.747481 -13.295580 -7.543459
v 16.019460 -14.236355 -7.630279
v 19.120217 -15.706727 -7.196907
v 22.010778 -13.428198 -7.475308
v 24.771045 -13.992132 -7.489390
v 27.529343 -13.190834 -7.516980
v 0.001422 -13.172225 -4.764189
v 2.762827 -13.601750 -4.758509
v 5.619561 -13.415707 -4.674889
v 8.244583 -15.535534 -4.759848
v 11.008146 -13.322517 -5.011043
v 13.065640 -13.855097 -5.145900
v 15.623446 -13.901058 -5.918970
v 19.056624 -14.734041 -4.212538
v 21.884941 -12.864914 -4.608038
v 24.780083 -13.635824 -4.760563
v 27.529343 -13.172225 -4.764189
v 0.001422 -12.890654 -2.108251
v 2.754191 -13.283071 -1.695873
v 5.597984 -13.522328 -1.407498
v 8.305210 -14.380482 -2.206641
v 10.419820 -14.012597 -2.176825
v 13.578016 -13.283047 -2.244153
v 16.701083 -14.594065 -3.582043
v 20.641004 -14.107158 -2.850140
v 22.170336 -13.919341 -1.808533
v 24.827933 -13.033355 -1.977793
v 27.529343 -12.889954 -2.108987
v 0.001422 -11.007514 -0.266317
v 2.749448 -11.004619 -0.232593
v 5.768178 -12.002626 0.399072
v 8.450556 -12.022982 0.313947
v 11.631934 -11.946943 0.057468
v 13.780542 -11.022763 -0.094541
v 16.704116 -11.653985 -0.053615
v 20.246126 -11.416596 -0.924110
v 22.055795 -11.688054 1.619594
v 24.799273 -11.010880 -0.097683
v 27.527744 -11.007302 -0.280142
v 0.001422 -8.255382 -0.206002
v 2.754213 -8.255382 -0.206002
v 5.755246 -9.192244 0.021848
v 8.232293 -9.539354 -0.012333
v 11.289463 -9.273362 -0.137978
v 14.253564 -8.136316 0.070584
v 16.823041 -8.422647 0.867219
v 19.239471 -8.453904 0.881384
v 22.173357 -8.625460 2.296906
v 24.796716 -8.242270 -0.010031
v 27.529311 -8.255378 -0.206283
v 0.001422 -5.503253 -0.145684
v 2.754192 -5.503255 -0.145529
v 5.601521 -5.666847 -0.530268
v 7.984418 -6.319413 1.221025
v 10.943841 -5.637150 0.426054
v 13.852140 -5.470853 0.100193
v 16.476548 -5.528065 1.332893
v 19.262749 -5.645961 1.155773
v 22.201929 -5.408667 1.144372
v 24.776628 -5.503162 -0.144750
v 27.529343 -5.503253 -0.145684
v 0.001422 -2.751120 -0.085365
v 2.754213 -2.751120 -0.085365
v 5.507155 -2.749128 -0.077492
v 8.462874 -2.735790 0.432899
v 11.035546 -2.725364 0.307038
v 13.751313 -2.754162 0.075282
v 16.503416 -2.733387 0.158265
v 19.279061 -2.734702 0.105946
v 22.024123 -2.750807 -0.082214
v 24.776552 -2.751120 -0.085365
v 27.529343 -2.751120 -0.085365
v 0.001422 0.001016 -0.025053
v 2.754213 0.001016 -0.025053
v 5.507005 0.001016 -0.025053
v 8.259799 0.001009 -0.025074
v 11.012590 0.001016 -0.025053
v 13.765382 0.001016 -0.025053
v 16.518175 0.001016 -0.025053
v 19.270966 0.001016 -0.025053
v 22.023759 0.001016 -0.025053
v 24.776552 0.001016 -0.025053
v 27.529343 0.001016 -0.025053
vt 0.000000 0.000000
vt 0.100000 0.000000
vt 0.200000 0.000000
vt 0.300000 0.000000
vt 0.400000 0.000000
vt 0.500000 0.000000
vt 0.600000 0.000000
vt 0.700000 0.000000
vt 0.800000 0.000000
vt 0.900000 0.000000
vt 1.000000 0.000000
vt 0.000000 0.100000
vt 0.100000 0.100000
vt 0.200000 0.100000
vt 0.300000 0.100000
vt 0.400000 0.100000
vt 0.500000 0.100000
vt 0.600000 0.100000
vt 0.700000 0.100000
vt 0.800000 0.100000
vt 0.900000 0.100000
vt 1.000000 0.100000
vt 0.000000 0.200000
vt 0.100000 0.200000
vt 0.200000 0.200000
vt 0.300000 0.200000
vt 0.400000 0.200000
vt 0.500000 0.200000
vt 0.600000 0.200000
vt 0.700000 0.200000
vt 0.800000 0.200000
vt 0.900000 0.200000
vt 1.000000 0.200000
vt 0.000000 0.300000
vt 0.100000 0.300000
vt 0.200000 0.300000
vt 0.300000 0.300000
vt 0.400000 0.300000
vt 0.500000 0.300000
vt 0.600000 0.300000
vt 0.700000 0.300000
vt 0.800000 0.300000
vt 0.900000 0.300000
vt 1.000000 0.300000
vt 0.000000 0.400000
vt 0.100000 0.400000
vt 0.200000 0.400000
vt 0.300000 0.400000
vt 0.400000 0.400000
vt 0.500000 0.400000
vt 0.600000 0.400000
vt 0.700000 0.400000
vt 0.800000 0.400000
vt 0.900000 0.400000
vt 1.000000 0.400000
vt 0.000000 0.500000
vt 0.100000 0.500000
vt 0.200000 0.500000
vt 0.300000 0.500000
vt 0.400000 0.500000
vt 0.500000 0.500000
vt 0.600000 0.500000
vt 0.700000 0.500000
vt 0.800000 0.500000
vt 0.900000 0.500000
vt 1.000000 0.500000
vt 0.000000 0.600000
vt 0.100000 0.600000
vt 0.200000 0.600000
vt 0.300000 0.600000
vt 0.400000 0.600000
vt 0.500000 0.600000
vt 0.600000 0.600000
vt 0.700000 0.600000
vt 0.800000 0.600000
vt 0.900000 0.600000
vt 1.000000 0.600000
vt 0.000000 0.700000
vt 0.100000 0.700000
vt 0.200000 0.700000
vt 0.300000 0.700000
vt 0.400000 0.700000
vt 0.500000 0.700000
vt 0.600000 0.700000
vt 0.700000 0.700000
vt 0.800000 0.700000
vt 0.900000 0.700000
vt 1.000000 0.700000
vt 0.000000 0.800000
vt 0.100000 0.800000
vt 0.200000 0.800000
vt 0.300000 0.800000
vt 0.400000 0.800000
vt 0.500000 0.800000
vt 0.600000 0.800000
vt 0.700000 0.800000
vt 0.800000 0.800000
vt 0.900000 0.800000
vt 1.000000 0.800000
vt 0.000000 0.900000
vt 0.100000 0.900000
vt 0.200000 0.900000
vt 0.300000 0.900000
vt 0.400000 0.900000
vt 0.500000 0.900000
vt 0.600000 0.900000
vt 0.700000 0.900000
vt 0.800000 0.900000
vt 0.900000 0.900000
vt 1.000000 0.900000
vt 0.000000 1.000000
vt 0.100000 1.000000
vt 0.200000 1.000000
vt 0.300000 1.000000
vt 0.400000 1.000000
vt 0.500000 1.000000
vt 0.600000 1.000000
vt 0.700000 1.000000
vt 0.800000 1.000000
vt 0.900000 1.000000
vt 1.000000 1.000000
vn 0.002732 -0.999992 0.002748
vn -0.003659 -0.999992 -0.001860
vn -0.007555 -0.999963 -0.004024
vn 0.002481 -0.999997 -0.000130
vn 0.043602 -0.998521 0.032472
vn -0.013107 -0.997823 -0.064632
vn 0.011288 -0.996542 0.082316
vn -0.019564 -0.987296 -0.157682
vn -0.050670 -0.997914 -0.039997
vn -0.010290 -0.988752 -0.149210
vn -0.053147 -0.973153 -0.223938
vn -0.047634 -0.993542 -0.102984
vn 0.002601 -0.982977 -0.183710
vn -0.021760 -0.990595 -0.135086
vn 0.029357 -0.997685 -0.061348
vn 0.021602 -0.986050 -0.165045
vn -0.062484 -0.993579 -0.094317
vn -0.042653 -0.986968 -0.155160
vn 0.014376 -0.989789 -0.141813
vn 0.054960 -0.993948 -0.095110
vn 0.125458 -0.983977 -0.126689
vn 0.172663 -0.983450 -0.054898
vn -0.035085 -0.998924 -0.030341
vn -0.004530 -0.999967 -0.006779
vn -0.141191 -0.982593 -0.120730
vn -0.069381 -0.977651 -0.198457
vn 0.121755 -0.984271 -0.128009
vn -0.041684 -0.998700 -0.029337
vn -0.174292 -0.970441 -0.166934
vn 0.042896 -0.967681 -0.248501
vn 0.088904 -0.988450 -0.122727
vn 0.099496 -0.994919 -0.015398
vn 0.226487 -0.973948 -0.011317
vn -0.065558 -0.996805 -0.045621
vn -0.049900 -0.998003 -0.038738
vn -0.236395 -0.968779 -0.074725
vn -0.055825 -0.995616 -0.075047
vn 0.231287 -0.972557 -0.025299
vn -0.057071 -0.996054 -0.067970
vn -0.319525 -0.944317 -0.078542
vn 0.112611 -0.993279 0.026767
vn 0.224027 -0.969656 0.097870
vn 0.047223 -0.996630 0.067068
vn 0.229430 -0.973239 0.012939
vn -0.075900 -0.996967 0.017180
vn -0.122610 -0.992241 0.020619
vn -0.252444 -0.967430 0.018733
vn -0.033991 -0.999346 0.012298
vn 0.236393 -0.971584 -0.011964
vn -0.084998 -0.996378 -0.002388
vn -0.267849 -0.961154 0.066634
vn 0.172602 -0.976519 0.128916
vn 0.249612 -0.966120 0.065625
vn 0.025630 -0.996574 0.078629
vn 0.169328 -0.979144 0.112271
vn -0.134874 -0.895278 0.424601
vn -0.143561 -0.883369 0.446150
vn -0.181173 -0.875812 0.447359
vn -0.022850 -0.913602 0.405967
vn 0.225691 -0.885878 0.405320
vn -0.009490 -0.885991 0.463605
vn -0.053943 -0.889623 0.453499
vn 0.060366 -0.897581 0.436697
vn -0.028620 -0.926350 0.375576
vn 0.191552 -0.897808 0.396545
vn 0.092363 -0.884458 0.457386
vn -0.126070 -0.278776 0.952046
vn -0.059177 -0.331770 0.941502
vn -0.096634 -0.359138 0.928268
vn 0.048853 -0.376191 0.925253
vn 0.134190 -0.436547 0.889618
vn -0.032117 -0.429586 0.902455
vn -0.000264 -0.559830 0.828607
vn -0.215850 -0.602892 0.768069
vn -0.020620 -0.529575 0.848012
vn 0.366094 -0.426371 0.827154
vn 0.069315 -0.382845 0.921209
vn -0.012861 0.030591 0.999449
vn -0.003073 -0.018867 0.999817
vn -0.127135 0.027962 0.991491
vn 0.001544 -0.045758 0.998951
vn 0.076266 -0.066490 0.994868
vn -0.136895 -0.107033 0.984786
vn -0.071185 -0.217918 0.973367
vn -0.173165 -0.222264 0.959486
vn 0.082976 -0.081282 0.993231
vn 0.368854 0.018533 0.929303
vn 0.052638 -0.007891 0.998582
vn 0.027943 -0.011528 0.999543
vn -0.000028 -0.021912 0.999760
vn -0.164603 0.001405 0.986359
vn -0.095465 -0.067793 0.993122
vn 0.122466 -0.046928 0.991363
vn -0.100847 0.000848 0.994902
vn -0.137842 0.089895 0.986366
vn -0.045585 0.198331 0.979074
vn 0.166964 0.237747 0.956870
vn 0.236454 0.103050 0.966163
vn 0.018018 -0.004112 0.999829
vn 0.016383 -0.038993 0.999105
vn -0.000014 -0.021897 0.999760
vn -0.117381 0.010365 0.993033
vn -0.073241 0.104867 0.991786
vn 0.081539 0.093118 0.992311
vn -0.024862 0.089955 0.995635
vn -0.046487 0.178033 0.982926
vn 0.027539 0.216794 0.975829
vn 0.069485 0.157310 0.985102
vn 0.059371 0.037320 0.997538
vn 0.000085 -0.021826 0.999762
vn -0.000711 -0.021199 0.999775
vn 0.000000 -0.021909 0.999760
vn -0.046167 0.025774 0.998601
vn -0.037579 0.104318 0.993834
vn 0.032939 0.111195 0.993253
vn 0.013521 0.065111 0.997787
vn -0.002845 0.054530 0.998508
vn 0.021814 0.035515 0.999131
vn 0.017380 -0.003953 0.999841
vn 0.000285 -0.021624 0.999766
vn 0.000000 -0.021909 0.999760
s 1
g pPlane51 pisoespecial
usemtl initialShadingGroup
f 1/1/1 2/2/2 13/13/3 12/12/4
f 2/2/2 3/3/5 14/14/6 13/13/3
f 3/3/5 4/4/7 15/15/8 14/14/6
f 4/4/7 5/5/9 16/16/10 15/15/8
f 5/5/9 6/6/11 17/17/12 16/16/10
f 6/6/11 7/7/13 18/18/14 17/17/12
f 7/7/13 8/8/15 19/19/16 18/18/14
f 8/8/15 9/9/17 20/20/18 19/19/16
f 9/9/17 10/10/19 21/21/20 20/20/18
f 10/10/19 11/11/21 22/22/22 21/21/20
f 12/12/4 13/13/3 24/24/23 23/23/24
f 13/13/3 14/14/6 25/25/25 24/24/23
f 14/14/6 15/15/8 26/26/26 25/25/25
f 15/15/8 16/16/10 27/27/27 26/26/26
f 16/16/10 17/17/12 28/28/28 27/27/27
f 17/17/12 18/18/14 29/29/29 28/28/28
f 18/18/14 19/19/16 30/30/30 29/29/29
f 19/19/16 20/20/18 31/31/31 30/30/30
f 20/20/18 21/21/20 32/32/32 31/31/31
f 21/21/20 22/22/22 33/33/33 32/32/32
f 23/23/24 24/24/23 35/35/34 34/34/35
f 24/24/23 25/25/25 36/36/36 35/35/34
f 25/25/25 26/26/26 37/37/37 36/36/36
f 26/26/26 27/27/27 38/38/38 37/37/37
f 27/27/27 28/28/28 39/39/39 38/38/38
f 28/28/28 29/29/29 40/40/40 39/39/39
f 29/29/29 30/30/30 41/41/41 40/40/40
f 30/30/30 31/31/31 42/42/42 41/41/41
f 31/31/31 32/32/32 43/43/43 42/42/42
f 32/32/32 33/33/33 44/44/44 43/43/43
f 34/34/35 35/35/34 46/46/45 45/45/46
f 35/35/34 36/36/36 47/47/47 46/46/45
f 36/36/36 37/37/37 48/48/48 47/47/47
f 37/37/37 38/38/38 49/49/49 48/48/48
f 38/38/38 39/39/39 50/50/50 49/49/49
f 39/39/39 40/40/40 51/51/51 50/50/50
f 40/40/40 41/41/41 52/52/52 51/51/51
f 41/41/41 42/42/42 53/53/53 52/52/52
f 42/42/42 43/43/43 54/54/54 53/53/53
f 43/43/43 44/44/44 55/55/55 54/54/54
f 45/45/46 46/46/45 57/57/56 56/56/57
f 46/46/45 47/47/47 58/58/58 57/57/56
f 47/47/47 48/48/48 59/59/59 58/58/58
f 48/48/48 49/49/49 60/60/60 59/59/59
f 49/49/49 50/50/50 61/61/61 60/60/60
f 50/50/50 51/51/51 62/62/62 61/61/61
f 51/51/51 52/52/52 63/63/63 62/62/62
f 52/52/52 53/53/53 64/64/64 63/63/63
f 53/53/53 54/54/54 65/65/65 64/64/64
f 54/54/54 55/55/55 66/66/66 65/65/65
f 56/56/57 57/57/56 68/68/67 67/67/68
f 57/57/56 58/58/58 69/69/69 68/68/67
f 58/58/58 59/59/59 70/70/70 69/69/69
f 59/59/59 60/60/60 71/71/71 70/70/70
f 60/60/60 61/61/61 72/72/72 71/71/71
f 61/61/61 62/62/62 73/73/73 72/72/72
f 62/62/62 63/63/63 74/74/74 73/73/73
f 63/63/63 64/64/64 75/75/75 74/74/74
f 64/64/64 65/65/65 76/76/76 75/75/75
f 65/65/65 66/66/66 77/77/77 76/76/76
f 67/67/68 68/68/67 79/79/78 78/78/79
f 68/68/67 69/69/69 80/80/80 79/79/78
f 69/69/69 70/70/70 81/81/81 80/80/80
f 70/70/70 71/71/71 82/82/82 81/81/81
f 71/71/71 72/72/72 83/83/83 82/82/82
f 72/72/72 73/73/73 84/84/84 83/83/83
f 73/73/73 74/74/74 85/85/85 84/84/84
f 74/74/74 75/75/75 86/86/86 85/85/85
f 75/75/75 76/76/76 87/87/87 86/86/86
f 76/76/76 77/77/77 88/88/88 87/87/87
f 78/78/79 79/79/78 90/90/89 89/89/90
f 79/79/78 80/80/80 91/91/91 90/90/89
f 80/80/80 81/81/81 92/92/92 91/91/91
f 81/81/81 82/82/82 93/93/93 92/92/92
f 82/82/82 83/83/83 94/94/94 93/93/93
f 83/83/83 84/84/84 95/95/95 94/94/94
f 84/84/84 85/85/85 96/96/96 95/95/95
f 85/85/85 86/86/86 97/97/97 96/96/96
f 86/86/86 87/87/87 98/98/98 97/97/97
f 87/87/87 88/88/88 99/99/99 98/98/98
f 89/89/90 90/90/89 101/101/100 100/100/101
f 90/90/89 91/91/91 102/102/102 101/101/100
f 91/91/91 92/92/92 103/103/103 102/102/102
f 92/92/92 93/93/93 104/104/104 103/103/103
f 93/93/93 94/94/94 105/105/105 104/104/104
f 94/94/94 95/95/95 106/106/106 105/105/105
f 95/95/95 96/96/96 107/107/107 106/106/106
f 96/96/96 97/97/97 108/108/108 107/107/107
f 97/97/97 98/98/98 109/109/109 108/108/108
f 98/98/98 99/99/99 110/110/110 109/109/109
f 100/100/101 101/101/100 112/112/111 111/111/112
f 101/101/100 102/102/102 113/113/113 112/112/111
f 102/102/102 103/103/103 114/114/114 113/113/113
f 103/103/103 104/104/104 115/115/115 114/114/114
f 104/104/104 105/105/105 116/116/116 115/115/115
f 105/105/105 106/106/106 117/117/117 116/116/116
f 106/106/106 107/107/107 118/118/118 117/117/117
f 107/107/107 108/108/108 119/119/119 118/118/118
f 108/108/108 109/109/109 120/120/120 119/119/119
f 109/109/109 110/110/110 121/121/121 120/120/120
