# This file uses centimeters as units for non-parametric coordinates.

mtllib fgucr1.mtl
g default
v 0.001421 0.001016 -0.025054
v 2.754213 0.000962 -0.025054
v 5.507055 -0.004221 -0.025429
v 8.259840 -0.024857 -0.028078
v 11.012611 -0.003597 -0.025662
v 13.780169 -0.000482 -0.058584
v 16.518171 0.000819 -0.025079
v 19.270947 -0.000482 -0.025209
v 22.023759 0.001016 -0.025054
v 24.776552 0.001016 -0.025054
v 27.529343 0.001016 -0.025054
v 0.001421 0.000916 -2.777846
v 2.755350 -0.014074 -2.778395
v 5.507416 0.046463 -2.775147
v 8.222946 -0.321979 -2.842550
v 11.007894 -0.084080 -2.778774
v 13.700795 0.486987 -2.874835
v 16.502376 0.474339 -2.760087
v 19.271288 0.023577 -2.775332
v 22.023759 0.164385 -2.777846
v 24.776161 0.701528 -2.778062
v 27.529343 0.004459 -2.777846
v 0.001424 0.000350 -5.530641
v 2.756345 -0.026137 -5.532694
v 5.532967 -0.307491 -5.553781
v 8.253088 0.321293 -5.671610
v 10.923667 0.705587 -5.588092
v 13.839590 0.374212 -5.572594
v 16.492112 0.504257 -5.484428
v 19.253031 0.803201 -5.504278
v 22.023563 0.757031 -5.531539
v 24.780358 0.620290 -5.529851
v 27.529343 0.043010 -5.530638
v 0.001421 0.001016 -8.283431
v 2.757063 0.036062 -8.285206
v 5.638074 -0.562529 -8.367076
v 8.257183 0.547515 -8.365325
v 10.967287 0.454561 -8.186920
v 13.744361 0.269622 -8.232091
v 16.393949 0.849132 -8.014574
v 19.351870 0.928709 -8.278494
v 22.044125 0.664874 -8.259178
v 24.771616 0.831402 -8.310139
v 27.529343 0.019624 -6.844360
v 0.001421 0.001016 -11.036223
v 2.763038 0.428252 -11.042047
v 5.618312 0.056738 -11.162298
v 8.181711 0.428103 -10.925583
v 10.993286 0.476341 -10.750082
v 13.165483 0.468242 -10.605331
v 15.831665 0.774828 -9.638419
v 19.325607 1.297929 -11.078880
v 21.979699 1.029645 -11.023205
v 24.780050 0.473523 -9.769860
v 27.529343 0.001016 -9.537830
v 1.139185 -0.839187 -20.320379
v 3.566908 0.017656 -19.191766
v 6.147540 0.580143 -18.115460
v 8.430698 0.004251 -16.478701
v 10.307047 1.389134 -15.694997
v 13.547108 0.760854 -15.031849
v 16.091221 0.989859 -12.352618
v 19.814944 1.663325 -11.945181
v 21.566057 2.229827 -11.975195
v 24.063399 1.490027 -11.282472
v 26.607457 1.758776 -11.562898
v 2.011242 -0.037568 -22.805293
v 4.547749 0.311163 -21.806640
v 7.094728 0.447998 -19.851022
v 9.404221 1.086218 -18.713061
v 12.412741 1.298963 -17.683984
v 14.631019 2.110555 -17.673533
v 17.156262 2.096625 -16.083370
v 20.441940 2.648287 -14.727601
v 22.376042 2.986800 -14.693439
v 24.918342 2.971681 -13.795794
v 27.480684 3.111727 -12.850995
v 2.883085 0.765016 -25.289967
v 5.429890 1.081280 -24.294165
v 8.022817 0.874170 -22.449743
v 10.078662 1.396784 -21.123843
v 12.933205 2.015642 -20.304982
v 16.049348 2.699108 -20.181923
v 18.270211 3.349448 -18.922638
v 20.448278 3.501394 -18.071711
v 23.104390 3.906391 -17.161685
v 25.787586 3.804559 -16.290511
v 28.351173 3.927378 -15.332023
v 3.754929 1.567601 -27.774643
v 6.301684 1.884007 -26.778813
v 8.964488 1.790216 -25.684648
v 11.113470 2.754609 -23.898793
v 13.816675 3.174992 -23.613889
v 16.661810 2.981011 -22.826370
v 18.927044 3.947606 -21.605738
v 21.654917 2.418657 -20.869690
v 24.504416 2.727801 -19.845265
v 26.676188 4.414587 -18.812283
v 29.222988 4.730234 -17.816623
v 4.626773 2.370183 -30.259319
v 7.173579 2.686447 -29.263517
v 9.719569 3.010799 -28.267783
v 12.355309 3.841462 -27.101812
v 14.828693 3.782334 -26.278896
v 17.360455 3.952922 -25.280090
v 19.945963 3.977839 -24.341959
v 22.446753 4.658627 -23.276937
v 25.036308 4.616091 -22.343905
v 27.548026 5.216555 -21.297102
v 30.094832 5.532820 -20.301300
v 5.498616 3.172766 -32.743993
v 8.045421 3.489032 -31.748191
v 10.592227 3.805295 -30.752390
v 13.139038 4.121538 -29.756587
v 15.685838 4.437821 -28.760787
v 18.232646 4.754085 -27.764983
v 20.779451 5.070348 -26.769182
v 23.326256 5.386611 -25.773380
v 25.873063 5.702875 -24.777579
v 28.419869 6.019139 -23.781776
v 30.966675 6.335403 -22.785974
vt 0.000000 0.000000
vt 0.100000 0.000000
vt 0.200000 0.000000
vt 0.300000 0.000000
vt 0.400000 0.000000
vt 0.500000 0.000000
vt 0.600000 0.000000
vt 0.700000 0.000000
vt 0.800000 0.000000
vt 0.900000 0.000000
vt 1.000000 0.000000
vt 0.000000 0.100000
vt 0.100000 0.100000
vt 0.200000 0.100000
vt 0.300000 0.100000
vt 0.400000 0.100000
vt 0.500000 0.100000
vt 0.600000 0.100000
vt 0.700000 0.100000
vt 0.800000 0.100000
vt 0.900000 0.100000
vt 1.000000 0.100000
vt 0.000000 0.200000
vt 0.100000 0.200000
vt 0.200000 0.200000
vt 0.300000 0.200000
vt 0.400000 0.200000
vt 0.500000 0.200000
vt 0.600000 0.200000
vt 0.700000 0.200000
vt 0.800000 0.200000
vt 0.900000 0.200000
vt 1.000000 0.200000
vt 0.000000 0.300000
vt 0.100000 0.300000
vt 0.200000 0.300000
vt 0.300000 0.300000
vt 0.400000 0.300000
vt 0.500000 0.300000
vt 0.600000 0.300000
vt 0.700000 0.300000
vt 0.800000 0.300000
vt 0.900000 0.300000
vt 1.000000 0.300000
vt 0.000000 0.400000
vt 0.100000 0.400000
vt 0.200000 0.400000
vt 0.300000 0.400000
vt 0.400000 0.400000
vt 0.500000 0.400000
vt 0.600000 0.400000
vt 0.700000 0.400000
vt 0.800000 0.400000
vt 0.900000 0.400000
vt 1.000000 0.400000
vt 0.000000 0.500000
vt 0.100000 0.500000
vt 0.200000 0.500000
vt 0.300000 0.500000
vt 0.400000 0.500000
vt 0.500000 0.500000
vt 0.600000 0.500000
vt 0.700000 0.500000
vt 0.800000 0.500000
vt 0.900000 0.500000
vt 1.000000 0.500000
vt 0.000000 0.600000
vt 0.100000 0.600000
vt 0.200000 0.600000
vt 0.300000 0.600000
vt 0.400000 0.600000
vt 0.500000 0.600000
vt 0.600000 0.600000
vt 0.700000 0.600000
vt 0.800000 0.600000
vt 0.900000 0.600000
vt 1.000000 0.600000
vt 0.000000 0.700000
vt 0.100000 0.700000
vt 0.200000 0.700000
vt 0.300000 0.700000
vt 0.400000 0.700000
vt 0.500000 0.700000
vt 0.600000 0.700000
vt 0.700000 0.700000
vt 0.800000 0.700000
vt 0.900000 0.700000
vt 1.000000 0.700000
vt 0.000000 0.800000
vt 0.100000 0.800000
vt 0.200000 0.800000
vt 0.300000 0.800000
vt 0.400000 0.800000
vt 0.500000 0.800000
vt 0.600000 0.800000
vt 0.700000 0.800000
vt 0.800000 0.800000
vt 0.900000 0.800000
vt 1.000000 0.800000
vt 0.000000 0.900000
vt 0.100000 0.900000
vt 0.200000 0.900000
vt 0.300000 0.900000
vt 0.400000 0.900000
vt 0.500000 0.900000
vt 0.600000 0.900000
vt 0.700000 0.900000
vt 0.800000 0.900000
vt 0.900000 0.900000
vt 1.000000 0.900000
vt 0.000000 1.000000
vt 0.100000 1.000000
vt 0.200000 1.000000
vt 0.300000 1.000000
vt 0.400000 1.000000
vt 0.500000 1.000000
vt 0.600000 1.000000
vt 0.700000 1.000000
vt 0.800000 1.000000
vt 0.900000 1.000000
vt 1.000000 1.000000
vn 0.002732 0.999992 -0.002748
vn -0.003659 0.999992 0.001860
vn 0.010058 0.999817 -0.016252
vn 0.005130 0.999984 -0.002520
vn 0.030315 0.999357 -0.019174
vn 0.014264 0.999800 -0.014016
vn 0.011412 0.998355 -0.056191
vn -0.036097 0.998116 0.049618
vn -0.074227 0.997237 0.002933
vn -0.077264 0.992592 0.093758
vn -0.051374 0.990966 0.123886
vn -0.041848 0.995152 0.089006
vn 0.039401 0.990654 0.130583
vn 0.021625 0.994673 0.100789
vn 0.028076 0.997673 0.062124
vn 0.016976 0.991452 0.129364
vn -0.061313 0.993598 0.094889
vn -0.052349 0.989769 0.132727
vn 0.014388 0.989913 0.140941
vn 0.046824 0.994718 0.091339
vn 0.124597 0.984197 0.125828
vn 0.175903 0.982626 0.059203
vn 0.050932 0.998453 -0.022327
vn 0.002993 0.999985 0.004560
vn -0.036229 0.999239 -0.014465
vn -0.137744 0.987727 0.073638
vn -0.032199 0.996331 0.079295
vn -0.026605 0.999391 0.022591
vn -0.044702 0.996648 0.068519
vn 0.000734 0.992370 0.123294
vn -0.009054 0.995670 0.092521
vn 0.089082 0.995323 0.037361
vn 0.228991 0.973319 0.014607
vn 0.063491 0.996280 0.058264
vn -0.042567 0.998244 0.041200
vn -0.060477 0.996381 0.059734
vn -0.160671 0.986909 0.013990
vn 0.021226 0.999643 -0.016248
vn -0.043052 0.998862 0.020513
vn -0.101071 0.992144 0.073726
vn 0.005741 0.997161 0.075078
vn 0.053078 0.997737 0.041276
vn 0.128959 0.991573 -0.012338
vn 0.240306 0.970694 -0.002594
vn -0.091748 0.995770 -0.004955
vn -0.185674 0.981227 -0.052135
vn -0.014142 0.998894 0.044846
vn -0.130724 0.990767 0.035951
vn -0.044463 0.996829 0.065988
vn -0.019918 0.996492 0.081279
vn -0.133754 0.987743 0.080464
vn -0.051208 0.985722 0.160406
vn 0.029221 0.944284 0.327831
vn 0.099885 0.959935 0.261816
vn 0.179526 0.963604 0.198084
vn -0.165308 0.985677 -0.033387
vn -0.237335 0.970721 -0.037052
vn -0.045341 0.998664 0.024778
vn -0.113114 0.992773 0.040083
vn -0.175920 0.981011 0.081664
vn -0.087956 0.978838 0.184770
vn -0.190856 0.967975 0.163089
vn -0.192844 0.939499 0.283113
vn -0.090901 0.903321 0.419224
vn -0.034066 0.833344 0.551704
vn -0.062383 0.813999 0.577506
vn -0.184488 0.973089 0.138063
vn -0.245628 0.955209 0.165057
vn -0.164419 0.982047 0.092471
vn -0.227611 0.969138 0.094678
vn -0.180579 0.971896 0.151029
vn -0.234010 0.949527 0.208897
vn -0.243864 0.936538 0.251846
vn -0.224395 0.940923 0.253594
vn -0.118456 0.943661 0.308985
vn -0.086047 0.922625 0.375978
vn -0.144868 0.910034 0.388395
vn -0.153110 0.960885 0.230777
vn -0.211042 0.950156 0.229488
vn -0.247137 0.952145 0.179840
vn -0.289868 0.940084 0.179497
vn -0.203993 0.956474 0.208671
vn -0.240756 0.957016 0.161730
vn -0.143312 0.977349 0.155724
vn -0.053599 0.997723 0.040929
vn -0.119619 0.992222 -0.034465
vn -0.160673 0.976315 0.144889
vn -0.155742 0.958353 0.239381
vn -0.166623 0.950309 0.262962
vn -0.209191 0.949627 0.233340
vn -0.294489 0.925014 0.240054
vn -0.321333 0.916740 0.237346
vn -0.137151 0.957828 0.252498
vn -0.190485 0.966763 0.170545
vn -0.093153 0.983271 0.156525
vn -0.013866 0.987463 0.157238
vn -0.259613 0.961388 0.091287
vn -0.298793 0.943697 0.141980
vn -0.186845 0.956579 0.223709
vn -0.199098 0.946173 0.255181
vn -0.209174 0.949633 0.233332
vn -0.283252 0.934243 0.216697
vn -0.242995 0.953487 0.178368
vn -0.120731 0.968305 0.218654
vn -0.168283 0.959250 0.226980
vn -0.172463 0.947198 0.270320
vn -0.177337 0.899729 0.398797
vn -0.306484 0.872233 0.381153
vn -0.309878 0.915357 0.257093
vn -0.209096 0.949653 0.233319
vn -0.209599 0.949755 0.232450
vn -0.209166 0.949630 0.233350
vn -0.236307 0.956123 0.173170
vn -0.189217 0.973231 0.130456
vn -0.141079 0.972908 0.183159
vn -0.176964 0.949125 0.260471
vn -0.230097 0.934163 0.272756
vn -0.222194 0.937312 0.268472
vn -0.217316 0.936109 0.276537
vn -0.241478 0.938359 0.247325
vn -0.209166 0.949630 0.233349
s 1
g curvaderechainclinadosup pisoespecial
usemtl initialShadingGroup
f 1/1/1 2/2/2 13/13/3 12/12/4
f 2/2/2 3/3/5 14/14/6 13/13/3
f 3/3/5 4/4/7 15/15/8 14/14/6
f 4/4/7 5/5/9 16/16/10 15/15/8
f 5/5/9 6/6/11 17/17/12 16/16/10
f 6/6/11 7/7/13 18/18/14 17/17/12
f 7/7/13 8/8/15 19/19/16 18/18/14
f 8/8/15 9/9/17 20/20/18 19/19/16
f 9/9/17 10/10/19 21/21/20 20/20/18
f 10/10/19 11/11/21 22/22/22 21/21/20
f 12/12/4 13/13/3 24/24/23 23/23/24
f 13/13/3 14/14/6 25/25/25 24/24/23
f 14/14/6 15/15/8 26/26/26 25/25/25
f 15/15/8 16/16/10 27/27/27 26/26/26
f 16/16/10 17/17/12 28/28/28 27/27/27
f 17/17/12 18/18/14 29/29/29 28/28/28
f 18/18/14 19/19/16 30/30/30 29/29/29
f 19/19/16 20/20/18 31/31/31 30/30/30
f 20/20/18 21/21/20 32/32/32 31/31/31
f 21/21/20 22/22/22 33/33/33 32/32/32
f 23/23/24 24/24/23 35/35/34 34/34/35
f 24/24/23 25/25/25 36/36/36 35/35/34
f 25/25/25 26/26/26 37/37/37 36/36/36
f 26/26/26 27/27/27 38/38/38 37/37/37
f 27/27/27 28/28/28 39/39/39 38/38/38
f 28/28/28 29/29/29 40/40/40 39/39/39
f 29/29/29 30/30/30 41/41/41 40/40/40
f 30/30/30 31/31/31 42/42/42 41/41/41
f 31/31/31 32/32/32 43/43/43 42/42/42
f 32/32/32 33/33/33 44/44/44 43/43/43
f 34/34/35 35/35/34 46/46/45 45/45/46
f 35/35/34 36/36/36 47/47/47 46/46/45
f 36/36/36 37/37/37 48/48/48 47/47/47
f 37/37/37 38/38/38 49/49/49 48/48/48
f 38/38/38 39/39/39 50/50/50 49/49/49
f 39/39/39 40/40/40 51/51/51 50/50/50
f 40/40/40 41/41/41 52/52/52 51/51/51
f 41/41/41 42/42/42 53/53/53 52/52/52
f 42/42/42 43/43/43 54/54/54 53/53/53
f 43/43/43 44/44/44 55/55/55 54/54/54
f 45/45/46 46/46/45 57/57/56 56/56/57
f 46/46/45 47/47/47 58/58/58 57/57/56
f 47/47/47 48/48/48 59/59/59 58/58/58
f 48/48/48 49/49/49 60/60/60 59/59/59
f 49/49/49 50/50/50 61/61/61 60/60/60
f 50/50/50 51/51/51 62/62/62 61/61/61
f 51/51/51 52/52/52 63/63/63 62/62/62
f 52/52/52 53/53/53 64/64/64 63/63/63
f 53/53/53 54/54/54 65/65/65 64/64/64
f 54/54/54 55/55/55 66/66/66 65/65/65
f 56/56/57 57/57/56 68/68/67 67/67/68
f 57/57/56 58/58/58 69/69/69 68/68/67
f 58/58/58 59/59/59 70/70/70 69/69/69
f 59/59/59 60/60/60 71/71/71 70/70/70
f 60/60/60 61/61/61 72/72/72 71/71/71
f 61/61/61 62/62/62 73/73/73 72/72/72
f 62/62/62 63/63/63 74/74/74 73/73/73
f 63/63/63 64/64/64 75/75/75 74/74/74
f 64/64/64 65/65/65 76/76/76 75/75/75
f 65/65/65 66/66/66 77/77/77 76/76/76
f 67/67/68 68/68/67 79/79/78 78/78/79
f 68/68/67 69/69/69 80/80/80 79/79/78
f 69/69/69 70/70/70 81/81/81 80/80/80
f 70/70/70 71/71/71 82/82/82 81/81/81
f 71/71/71 72/72/72 83/83/83 82/82/82
f 72/72/72 73/73/73 84/84/84 83/83/83
f 73/73/73 74/74/74 85/85/85 84/84/84
f 74/74/74 75/75/75 86/86/86 85/85/85
f 75/75/75 76/76/76 87/87/87 86/86/86
f 76/76/76 77/77/77 88/88/88 87/87/87
f 78/78/79 79/79/78 90/90/89 89/89/90
f 79/79/78 80/80/80 91/91/91 90/90/89
f 80/80/80 81/81/81 92/92/92 91/91/91
f 81/81/81 82/82/82 93/93/93 92/92/92
f 82/82/82 83/83/83 94/94/94 93/93/93
f 83/83/83 84/84/84 95/95/95 94/94/94
f 84/84/84 85/85/85 96/96/96 95/95/95
f 85/85/85 86/86/86 97/97/97 96/96/96
f 86/86/86 87/87/87 98/98/98 97/97/97
f 87/87/87 88/88/88 99/99/99 98/98/98
f 89/89/90 90/90/89 101/101/100 100/100/101
f 90/90/89 91/91/91 102/102/102 101/101/100
f 91/91/91 92/92/92 103/103/103 102/102/102
f 92/92/92 93/93/93 104/104/104 103/103/103
f 93/93/93 94/94/94 105/105/105 104/104/104
f 94/94/94 95/95/95 106/106/106 105/105/105
f 95/95/95 96/96/96 107/107/107 106/106/106
f 96/96/96 97/97/97 108/108/108 107/107/107
f 97/97/97 98/98/98 109/109/109 108/108/108
f 98/98/98 99/99/99 110/110/110 109/109/109
f 100/100/101 101/101/100 112/112/111 111/111/112
f 101/101/100 102/102/102 113/113/113 112/112/111
f 102/102/102 103/103/103 114/114/114 113/113/113
f 103/103/103 104/104/104 115/115/115 114/114/114
f 104/104/104 105/105/105 116/116/116 115/115/115
f 105/105/105 106/106/106 117/117/117 116/116/116
f 106/106/106 107/107/107 118/118/118 117/117/117
f 107/107/107 108/108/108 119/119/119 118/118/118
f 108/108/108 109/109/109 120/120/120 119/119/119
f 109/109/109 110/110/110 121/121/121 120/120/120
