# This file uses centimeters as units for non-parametric coordinates.

mtllib fr6.mtl
g default
v 0.001424 0.001016 -0.025052
v 2.754215 0.001016 -0.025052
v 5.507007 0.001016 -0.025052
v 8.259800 0.001016 -0.025052
v 11.012592 0.001016 -0.025052
v 13.774321 0.168077 -0.025055
v 16.518177 0.001016 -0.025052
v 19.270968 0.001016 -0.025052
v 22.023761 0.001016 -0.025052
v 24.776554 0.001016 -0.025052
v 27.529345 0.001016 -0.025052
v 0.001424 0.001016 -2.777844
v 2.754215 0.001016 -2.777844
v 5.507007 0.001016 -2.777844
v 8.259800 0.001016 -2.777844
v 11.018564 0.211093 -2.789936
v 13.799609 0.658307 -2.988099
v 16.482589 0.691534 -2.762874
v 19.270964 0.001107 -2.777844
v 22.023761 0.164385 -2.777844
v 24.776554 0.706425 -2.777844
v 27.529345 0.004459 -2.777844
v 0.001424 0.001016 -5.530636
v 2.754215 0.001016 -5.530636
v 5.506842 0.032852 -5.530642
v 8.053913 2.178430 -5.428419
v 11.018552 3.870565 -4.931471
v 13.728836 4.995267 -4.476622
v 16.403979 4.691114 -4.858533
v 19.232279 1.948565 -5.511333
v 21.996648 1.758194 -5.570931
v 24.776497 0.571348 -5.532310
v 27.529345 0.043010 -5.530636
v 0.001424 0.001016 -8.283429
v 2.642199 1.178211 -8.215574
v 5.090373 3.208119 -8.043704
v 7.886943 4.131018 -7.935862
v 11.043903 3.820653 -7.965541
v 13.958166 5.762606 -7.864376
v 16.728542 6.669674 -7.927234
v 19.496985 5.720567 -8.369480
v 22.067092 3.204663 -8.562971
v 24.771776 0.838074 -8.311626
v 27.529345 0.019624 -8.283429
v 0.001424 0.001016 -11.036221
v 2.734885 0.799299 -11.021199
v 4.886569 4.224518 -10.978595
v 7.927456 4.314615 -10.901133
v 10.675163 6.490511 -10.457876
v 14.050039 6.557547 -10.268116
v 17.458840 6.340090 -10.594571
v 19.978996 4.282098 -10.727403
v 22.485382 3.985010 -11.295273
v 24.815465 0.646333 -11.066574
v 27.529345 0.001016 -11.036221
v 0.001424 0.002031 -13.789013
v 2.752585 0.605100 -13.788368
v 4.861265 4.182151 -13.846869
v 7.694546 4.290092 -13.600577
v 10.014462 7.804585 -13.529958
v 13.963815 11.248825 -13.380903
v 17.514179 7.669060 -13.525596
v 20.569980 5.320743 -13.351496
v 23.346772 4.237344 -13.632039
v 24.871424 0.534934 -13.772588
v 27.535964 0.066987 -13.789779
v 0.001424 0.001016 -16.541805
v 2.715634 0.117410 -16.557474
v 5.015843 2.992327 -16.692326
v 7.605884 4.613125 -16.612034
v 10.717728 6.333801 -16.791000
v 13.880000 5.771300 -16.959313
v 16.721237 4.562880 -16.795833
v 19.689032 5.714368 -17.334137
v 23.061118 4.086017 -16.551634
v 24.778722 0.032099 -16.542300
v 27.547687 0.075212 -16.546924
v 0.001424 0.001016 -19.294597
v 2.605011 0.508334 -19.344324
v 5.123022 1.309967 -19.423939
v 7.403143 5.119526 -19.489262
v 10.958701 4.830365 -19.701970
v 14.055389 5.523721 -19.922539
v 16.817457 3.745628 -19.505480
v 19.293750 1.626108 -19.227774
v 22.114955 1.820289 -19.410592
v 24.842564 0.532914 -19.318156
v 27.536589 0.075212 -19.296617
v 0.001424 0.001016 -22.047390
v 2.754208 0.001037 -22.047392
v 4.766315 2.861011 -22.369201
v 8.153039 2.848564 -22.300168
v 11.082733 2.875074 -22.597824
v 13.707785 2.554269 -22.454713
v 16.430363 2.674842 -22.287816
v 19.317384 2.390826 -22.135830
v 22.300212 1.998603 -22.283142
v 24.816228 0.335262 -22.066241
v 27.529345 0.001016 -22.047390
v 0.001424 0.001016 -24.800182
v 2.754215 0.001016 -24.800182
v 5.488650 0.101139 -24.818058
v 8.120141 1.797463 -25.341371
v 11.028562 1.599556 -25.338760
v 13.760378 1.545924 -25.360510
v 16.511303 2.218434 -25.591490
v 19.394797 2.089628 -25.484086
v 22.028502 0.057426 -24.815965
v 24.776554 0.001016 -24.800182
v 27.529345 0.001016 -24.800182
v 0.001424 0.001016 -27.552973
v 2.754215 0.001016 -27.552973
v 5.507007 0.001016 -27.552973
v 8.259800 0.001016 -27.552973
v 11.012592 0.001016 -27.552973
v 13.765384 0.001016 -27.552973
v 16.518177 0.001016 -27.552973
v 19.270968 0.001016 -27.552973
v 22.023761 0.001016 -27.552973
v 24.776554 0.001016 -27.552973
v 27.529345 0.001016 -27.552973
vt 0.000000 0.000000
vt 0.100000 0.000000
vt 0.200000 0.000000
vt 0.300000 0.000000
vt 0.400000 0.000000
vt 0.500000 0.000000
vt 0.600000 0.000000
vt 0.700000 0.000000
vt 0.800000 0.000000
vt 0.900000 0.000000
vt 1.000000 0.000000
vt 0.000000 0.100000
vt 0.100000 0.100000
vt 0.200000 0.100000
vt 0.300000 0.100000
vt 0.400000 0.100000
vt 0.500000 0.100000
vt 0.600000 0.100000
vt 0.700000 0.100000
vt 0.800000 0.100000
vt 0.900000 0.100000
vt 1.000000 0.100000
vt 0.000000 0.200000
vt 0.100000 0.200000
vt 0.200000 0.200000
vt 0.300000 0.200000
vt 0.400000 0.200000
vt 0.500000 0.200000
vt 0.600000 0.200000
vt 0.700000 0.200000
vt 0.800000 0.200000
vt 0.900000 0.200000
vt 1.000000 0.200000
vt 0.000000 0.300000
vt 0.100000 0.300000
vt 0.200000 0.300000
vt 0.300000 0.300000
vt 0.400000 0.300000
vt 0.500000 0.300000
vt 0.600000 0.300000
vt 0.700000 0.300000
vt 0.800000 0.300000
vt 0.900000 0.300000
vt 1.000000 0.300000
vt 0.000000 0.400000
vt 0.100000 0.400000
vt 0.200000 0.400000
vt 0.300000 0.400000
vt 0.400000 0.400000
vt 0.500000 0.400000
vt 0.600000 0.400000
vt 0.700000 0.400000
vt 0.800000 0.400000
vt 0.900000 0.400000
vt 1.000000 0.400000
vt 0.000000 0.500000
vt 0.100000 0.500000
vt 0.200000 0.500000
vt 0.300000 0.500000
vt 0.400000 0.500000
vt 0.500000 0.500000
vt 0.600000 0.500000
vt 0.700000 0.500000
vt 0.800000 0.500000
vt 0.900000 0.500000
vt 1.000000 0.500000
vt 0.000000 0.600000
vt 0.100000 0.600000
vt 0.200000 0.600000
vt 0.300000 0.600000
vt 0.400000 0.600000
vt 0.500000 0.600000
vt 0.600000 0.600000
vt 0.700000 0.600000
vt 0.800000 0.600000
vt 0.900000 0.600000
vt 1.000000 0.600000
vt 0.000000 0.700000
vt 0.100000 0.700000
vt 0.200000 0.700000
vt 0.300000 0.700000
vt 0.400000 0.700000
vt 0.500000 0.700000
vt 0.600000 0.700000
vt 0.700000 0.700000
vt 0.800000 0.700000
vt 0.900000 0.700000
vt 1.000000 0.700000
vt 0.000000 0.800000
vt 0.100000 0.800000
vt 0.200000 0.800000
vt 0.300000 0.800000
vt 0.400000 0.800000
vt 0.500000 0.800000
vt 0.600000 0.800000
vt 0.700000 0.800000
vt 0.800000 0.800000
vt 0.900000 0.800000
vt 1.000000 0.800000
vt 0.000000 0.900000
vt 0.100000 0.900000
vt 0.200000 0.900000
vt 0.300000 0.900000
vt 0.400000 0.900000
vt 0.500000 0.900000
vt 0.600000 0.900000
vt 0.700000 0.900000
vt 0.800000 0.900000
vt 0.900000 0.900000
vt 1.000000 0.900000
vt 0.000000 1.000000
vt 0.100000 1.000000
vt 0.200000 1.000000
vt 0.300000 1.000000
vt 0.400000 1.000000
vt 0.500000 1.000000
vt 0.600000 1.000000
vt 0.700000 1.000000
vt 0.800000 1.000000
vt 0.900000 1.000000
vt 1.000000 1.000000
vn 0.000000 1.000000 0.000000
vn 0.000000 1.000000 0.000000
vn -0.001446 0.999998 0.001446
vn 0.000000 1.000000 0.000000
vn 0.000000 1.000000 0.000000
vn -0.099312 0.989809 0.102058
vn -0.019040 0.999637 0.019040
vn -0.192749 0.909699 0.367826
vn -0.072463 0.994144 0.080162
vn -0.174698 0.797127 0.577987
vn -0.045662 0.985850 0.161293
vn -0.061465 0.695380 0.716008
vn 0.069624 0.984131 0.163213
vn 0.202875 0.757283 0.620777
vn 0.047588 0.995887 0.077101
vn 0.169342 0.893015 0.416950
vn -0.063646 0.993616 0.093146
vn -0.001702 0.964336 0.264676
vn 0.014376 0.989789 0.141813
vn 0.091524 0.987086 0.131474
vn 0.125458 0.983977 0.126689
vn 0.172536 0.983479 0.054767
vn -0.149140 0.956243 0.251709
vn -0.107423 0.988393 0.107423
vn -0.283082 0.843795 0.455933
vn -0.320437 0.738636 0.593075
vn -0.311044 0.742986 0.592641
vn -0.187851 0.719526 0.668577
vn 0.256873 0.654077 0.711477
vn 0.359552 0.673886 0.645446
vn 0.291372 0.843064 0.452045
vn 0.287643 0.947406 0.140300
vn 0.227678 0.973652 0.012838
vn -0.467085 0.847486 0.252189
vn -0.282763 0.956863 0.066771
vn -0.462872 0.779960 0.421202
vn -0.283766 0.853891 0.436287
vn -0.336347 0.875508 0.346925
vn -0.248529 0.915757 0.315631
vn 0.254662 0.899985 0.353799
vn 0.510364 0.782049 0.357669
vn 0.553532 0.773762 0.308050
vn 0.483805 0.867449 0.116034
vn 0.247924 0.968771 0.004144
vn -0.630790 0.775921 -0.007101
vn -0.296016 0.953749 -0.052320
vn -0.542286 0.837770 0.063783
vn -0.386792 0.886578 0.253715
vn -0.428621 0.725510 0.538442
vn -0.062128 0.798872 0.598284
vn 0.428499 0.831829 0.352772
vn 0.493569 0.856198 0.152692
vn 0.640221 0.747545 0.176902
vn 0.599377 0.796051 0.083970
vn 0.231557 0.972600 -0.020731
vn -0.629940 0.770881 -0.094435
vn -0.189847 0.979951 -0.060445
vn -0.596023 0.797294 -0.095287
vn -0.506818 0.861828 -0.019676
vn -0.557490 0.829792 -0.025510
vn 0.066334 0.993243 -0.095232
vn 0.501069 0.853910 -0.140597
vn 0.394122 0.916912 0.062773
vn 0.723229 0.688712 0.051143
vn 0.678151 0.734786 -0.014165
vn 0.139831 0.988991 -0.048423
vn -0.488585 0.865258 -0.112312
vn -0.123305 0.992332 -0.008553
vn -0.675420 0.719452 -0.161854
vn -0.527105 0.833273 -0.166783
vn -0.340104 0.826724 -0.448170
vn 0.170824 0.769741 -0.615076
vn 0.329949 0.753347 -0.568860
vn 0.225648 0.819943 -0.526095
vn 0.616652 0.708736 -0.342687
vn 0.584132 0.801327 -0.129091
vn 0.076487 0.997070 0.000700
vn -0.389489 0.920929 -0.013732
vn -0.105568 0.994363 -0.009932
vn -0.632210 0.771707 -0.069123
vn -0.397600 0.873568 -0.280702
vn -0.076511 0.882465 -0.464113
vn 0.174381 0.877488 -0.446773
vn 0.324737 0.840469 -0.433772
vn 0.214280 0.863365 -0.456821
vn 0.410359 0.836128 -0.363999
vn 0.428871 0.898800 -0.090708
vn 0.110053 0.993697 0.021316
vn -0.333380 0.937219 -0.102369
vn -0.046822 0.997805 -0.046818
vn -0.487942 0.824175 -0.287486
vn -0.193566 0.863064 -0.466533
vn -0.002386 0.852558 -0.522627
vn 0.033651 0.867658 -0.496022
vn 0.166060 0.941811 -0.292262
vn 0.239412 0.965970 -0.097900
vn 0.329344 0.932460 -0.148498
vn 0.266300 0.955754 -0.124974
vn 0.103376 0.993095 -0.055463
vn -0.144307 0.980290 -0.134932
vn -0.000002 1.000000 -0.000002
vn -0.279671 0.881718 -0.379944
vn -0.137975 0.859457 -0.492237
vn 0.029050 0.875517 -0.482313
vn -0.050151 0.883265 -0.466185
vn -0.033557 0.899818 -0.434974
vn 0.217567 0.892341 -0.395464
vn 0.279178 0.915702 -0.289047
vn 0.098903 0.987385 -0.123649
vn 0.030489 0.999070 -0.030489
vn -0.009122 0.999917 -0.009122
vn 0.000000 1.000000 0.000000
vn -0.170250 0.967097 -0.189046
vn -0.135891 0.856704 -0.497586
vn 0.017228 0.803607 -0.594911
vn -0.057802 0.776828 -0.627054
vn -0.041719 0.710829 -0.702127
vn 0.192811 0.784068 -0.589967
vn 0.197156 0.958117 -0.207704
vn 0.005132 0.999974 -0.005132
vn 0.000000 1.000000 0.000000
s 1
g pisosrelievefuerte2 pisosrelievefuerte
usemtl initialShadingGroup
f 1/1/1 2/2/2 13/13/3 12/12/4
f 2/2/2 3/3/5 14/14/6 13/13/3
f 3/3/5 4/4/7 15/15/8 14/14/6
f 4/4/7 5/5/9 16/16/10 15/15/8
f 5/5/9 6/6/11 17/17/12 16/16/10
f 6/6/11 7/7/13 18/18/14 17/17/12
f 7/7/13 8/8/15 19/19/16 18/18/14
f 8/8/15 9/9/17 20/20/18 19/19/16
f 9/9/17 10/10/19 21/21/20 20/20/18
f 10/10/19 11/11/21 22/22/22 21/21/20
f 12/12/4 13/13/3 24/24/23 23/23/24
f 13/13/3 14/14/6 25/25/25 24/24/23
f 14/14/6 15/15/8 26/26/26 25/25/25
f 15/15/8 16/16/10 27/27/27 26/26/26
f 16/16/10 17/17/12 28/28/28 27/27/27
f 17/17/12 18/18/14 29/29/29 28/28/28
f 18/18/14 19/19/16 30/30/30 29/29/29
f 19/19/16 20/20/18 31/31/31 30/30/30
f 20/20/18 21/21/20 32/32/32 31/31/31
f 21/21/20 22/22/22 33/33/33 32/32/32
f 23/23/24 24/24/23 35/35/34 34/34/35
f 24/24/23 25/25/25 36/36/36 35/35/34
f 25/25/25 26/26/26 37/37/37 36/36/36
f 26/26/26 27/27/27 38/38/38 37/37/37
f 27/27/27 28/28/28 39/39/39 38/38/38
f 28/28/28 29/29/29 40/40/40 39/39/39
f 29/29/29 30/30/30 41/41/41 40/40/40
f 30/30/30 31/31/31 42/42/42 41/41/41
f 31/31/31 32/32/32 43/43/43 42/42/42
f 32/32/32 33/33/33 44/44/44 43/43/43
f 34/34/35 35/35/34 46/46/45 45/45/46
f 35/35/34 36/36/36 47/47/47 46/46/45
f 36/36/36 37/37/37 48/48/48 47/47/47
f 37/37/37 38/38/38 49/49/49 48/48/48
f 38/38/38 39/39/39 50/50/50 49/49/49
f 39/39/39 40/40/40 51/51/51 50/50/50
f 40/40/40 41/41/41 52/52/52 51/51/51
f 41/41/41 42/42/42 53/53/53 52/52/52
f 42/42/42 43/43/43 54/54/54 53/53/53
f 43/43/43 44/44/44 55/55/55 54/54/54
f 45/45/46 46/46/45 57/57/56 56/56/57
f 46/46/45 47/47/47 58/58/58 57/57/56
f 47/47/47 48/48/48 59/59/59 58/58/58
f 48/48/48 49/49/49 60/60/60 59/59/59
f 49/49/49 50/50/50 61/61/61 60/60/60
f 50/50/50 51/51/51 62/62/62 61/61/61
f 51/51/51 52/52/52 63/63/63 62/62/62
f 52/52/52 53/53/53 64/64/64 63/63/63
f 53/53/53 54/54/54 65/65/65 64/64/64
f 54/54/54 55/55/55 66/66/66 65/65/65
f 56/56/57 57/57/56 68/68/67 67/67/68
f 57/57/56 58/58/58 69/69/69 68/68/67
f 58/58/58 59/59/59 70/70/70 69/69/69
f 59/59/59 60/60/60 71/71/71 70/70/70
f 60/60/60 61/61/61 72/72/72 71/71/71
f 61/61/61 62/62/62 73/73/73 72/72/72
f 62/62/62 63/63/63 74/74/74 73/73/73
f 63/63/63 64/64/64 75/75/75 74/74/74
f 64/64/64 65/65/65 76/76/76 75/75/75
f 65/65/65 66/66/66 77/77/77 76/76/76
f 67/67/68 68/68/67 79/79/78 78/78/79
f 68/68/67 69/69/69 80/80/80 79/79/78
f 69/69/69 70/70/70 81/81/81 80/80/80
f 70/70/70 71/71/71 82/82/82 81/81/81
f 71/71/71 72/72/72 83/83/83 82/82/82
f 72/72/72 73/73/73 84/84/84 83/83/83
f 73/73/73 74/74/74 85/85/85 84/84/84
f 74/74/74 75/75/75 86/86/86 85/85/85
f 75/75/75 76/76/76 87/87/87 86/86/86
f 76/76/76 77/77/77 88/88/88 87/87/87
f 78/78/79 79/79/78 90/90/89 89/89/90
f 79/79/78 80/80/80 91/91/91 90/90/89
f 80/80/80 81/81/81 92/92/92 91/91/91
f 81/81/81 82/82/82 93/93/93 92/92/92
f 82/82/82 83/83/83 94/94/94 93/93/93
f 83/83/83 84/84/84 95/95/95 94/94/94
f 84/84/84 85/85/85 96/96/96 95/95/95
f 85/85/85 86/86/86 97/97/97 96/96/96
f 86/86/86 87/87/87 98/98/98 97/97/97
f 87/87/87 88/88/88 99/99/99 98/98/98
f 89/89/90 90/90/89 101/101/100 100/100/101
f 90/90/89 91/91/91 102/102/102 101/101/100
f 91/91/91 92/92/92 103/103/103 102/102/102
f 92/92/92 93/93/93 104/104/104 103/103/103
f 93/93/93 94/94/94 105/105/105 104/104/104
f 94/94/94 95/95/95 106/106/106 105/105/105
f 95/95/95 96/96/96 107/107/107 106/106/106
f 96/96/96 97/97/97 108/108/108 107/107/107
f 97/97/97 98/98/98 109/109/109 108/108/108
f 98/98/98 99/99/99 110/110/110 109/109/109
f 100/100/101 101/101/100 112/112/111 111/111/112
f 101/101/100 102/102/102 113/113/113 112/112/111
f 102/102/102 103/103/103 114/114/114 113/113/113
f 103/103/103 104/104/104 115/115/115 114/114/114
f 104/104/104 105/105/105 116/116/116 115/115/115
f 105/105/105 106/106/106 117/117/117 116/116/116
f 106/106/106 107/107/107 118/118/118 117/117/117
f 107/107/107 108/108/108 119/119/119 118/118/118
f 108/108/108 109/109/109 120/120/120 119/119/119
f 109/109/109 110/110/110 121/121/121 120/120/120
