# This file uses centimeters as units for non-parametric coordinates.

mtllib fr8.mtl
g default
v 0.001425 0.001016 -0.025058
v 2.754217 0.001016 -0.025058
v 5.507009 0.001016 -0.025058
v 8.259802 0.001016 -0.025058
v 11.012594 0.001016 -0.025058
v 13.765385 0.001016 -0.025058
v 16.518178 0.001016 -0.025058
v 19.270969 0.001016 -0.025058
v 22.023762 0.001016 -0.025058
v 24.776555 0.001016 -0.025058
v 27.529346 0.001016 -0.025058
v 0.001425 0.001016 -2.777850
v 2.743681 0.095260 -2.758305
v 5.551877 1.208868 -2.529398
v 8.253912 0.367733 -2.547934
v 11.039837 0.142533 -2.728303
v 14.257696 0.821729 -2.424009
v 16.823249 2.022894 -2.253420
v 20.088813 1.554019 -1.835334
v 22.126698 0.768671 -2.655537
v 24.854554 0.964817 -2.814865
v 27.529346 0.004459 -2.777850
v 0.001425 0.001016 -5.530642
v 2.709130 0.319075 -5.441195
v 5.423233 0.726658 -5.284866
v 8.214236 1.221305 -5.465253
v 11.037311 1.362980 -5.531340
v 13.900994 1.922862 -5.449236
v 16.353964 2.657529 -5.513926
v 18.959147 2.478646 -5.405236
v 21.997756 1.792553 -5.570043
v 24.939089 1.165860 -5.644549
v 27.532751 0.050266 -5.530922
v 0.001425 0.001016 -8.283434
v 2.642200 1.178211 -8.215579
v 5.364734 3.141797 -8.780305
v 8.207427 5.546872 -8.549216
v 10.122381 7.143563 -7.641477
v 13.522865 4.541865 -7.982514
v 16.527828 2.551859 -8.323851
v 19.146856 2.267027 -8.388118
v 21.911386 2.204632 -8.486262
v 24.864217 1.132403 -8.187403
v 27.529346 0.019624 -8.283434
v 0.001425 0.001016 -11.036226
v 2.735120 0.798394 -11.021186
v 5.133272 7.586264 -11.244514
v 8.144617 7.415262 -10.739609
v 10.215051 8.558966 -9.742461
v 13.778627 2.716592 -11.052720
v 16.629692 2.899665 -10.987497
v 19.357956 2.020171 -10.994538
v 21.990430 1.481442 -10.965176
v 24.923640 0.696172 -10.131157
v 27.529346 0.001016 -11.036226
v 0.001425 0.002031 -13.789018
v 2.753753 0.601462 -13.788242
v 4.702197 6.537495 -13.888881
v 7.896664 4.444686 -13.462994
v 10.997871 2.560917 -13.978600
v 13.834161 3.282492 -13.672496
v 16.696708 3.460550 -13.641676
v 19.659818 3.031053 -13.504740
v 22.457062 2.122114 -13.425113
v 24.863657 0.624275 -12.843521
v 27.535965 0.066987 -13.789784
v 0.001425 0.001016 -16.541811
v 2.744175 0.026316 -16.539448
v 4.309855 6.217533 -16.222567
v 8.325723 3.993970 -16.536320
v 11.018858 2.957332 -16.752748
v 14.038729 2.423676 -16.290290
v 16.573728 3.290264 -16.455594
v 20.699034 6.527932 -16.150586
v 22.192497 2.311109 -16.510585
v 24.728360 0.451029 -15.457429
v 27.547689 0.075213 -16.546930
v 0.001425 0.001016 -19.294602
v 2.467757 1.025854 -19.189217
v 3.340930 6.620251 -18.611547
v 8.301031 3.993970 -19.322472
v 10.981776 3.114397 -19.603452
v 13.776361 3.311646 -19.557918
v 17.048676 7.488330 -19.853183
v 20.956831 6.490332 -19.740183
v 22.176906 1.765926 -19.276007
v 24.311656 0.751355 -19.009553
v 27.536590 0.075213 -19.296622
v 0.001425 0.001016 -22.047395
v 2.223918 1.647760 -21.904936
v 4.181493 4.291886 -22.411927
v 7.784075 4.263694 -22.647857
v 11.220164 1.835741 -22.220599
v 13.673488 2.536839 -22.401383
v 16.703956 4.812824 -22.841167
v 19.556528 3.633897 -22.439563
v 22.156085 1.245696 -22.146482
v 24.953331 1.339088 -22.064174
v 27.529346 0.001016 -22.047395
v 0.001425 0.001016 -24.800188
v 2.706132 0.152674 -24.801238
v 5.196959 1.247585 -24.929019
v 8.091391 1.692933 -25.914121
v 10.840784 1.685805 -25.734461
v 13.388517 1.209697 -25.468417
v 16.322473 2.112104 -25.730653
v 19.260691 1.279758 -25.213967
v 22.030136 0.056117 -24.807488
v 24.780525 0.026154 -24.803317
v 27.529346 0.001016 -24.800188
v 0.001425 0.001016 -27.552979
v 2.754217 0.001016 -27.552979
v 5.507009 0.001016 -27.552979
v 8.259802 0.001016 -27.552979
v 11.012594 0.001016 -27.552979
v 13.765385 0.001016 -27.552979
v 16.515688 0.018912 -27.562666
v 19.271008 0.003125 -27.553574
v 22.023762 0.001016 -27.552979
v 24.776555 0.001016 -27.552979
v 27.529346 0.001016 -27.552979
vt 0.000000 0.000000
vt 0.100000 0.000000
vt 0.200000 0.000000
vt 0.300000 0.000000
vt 0.400000 0.000000
vt 0.500000 0.000000
vt 0.600000 0.000000
vt 0.700000 0.000000
vt 0.800000 0.000000
vt 0.900000 0.000000
vt 1.000000 0.000000
vt 0.000000 0.100000
vt 0.100000 0.100000
vt 0.200000 0.100000
vt 0.300000 0.100000
vt 0.400000 0.100000
vt 0.500000 0.100000
vt 0.600000 0.100000
vt 0.700000 0.100000
vt 0.800000 0.100000
vt 0.900000 0.100000
vt 1.000000 0.100000
vt 0.000000 0.200000
vt 0.100000 0.200000
vt 0.200000 0.200000
vt 0.300000 0.200000
vt 0.400000 0.200000
vt 0.500000 0.200000
vt 0.600000 0.200000
vt 0.700000 0.200000
vt 0.800000 0.200000
vt 0.900000 0.200000
vt 1.000000 0.200000
vt 0.000000 0.300000
vt 0.100000 0.300000
vt 0.200000 0.300000
vt 0.300000 0.300000
vt 0.400000 0.300000
vt 0.500000 0.300000
vt 0.600000 0.300000
vt 0.700000 0.300000
vt 0.800000 0.300000
vt 0.900000 0.300000
vt 1.000000 0.300000
vt 0.000000 0.400000
vt 0.100000 0.400000
vt 0.200000 0.400000
vt 0.300000 0.400000
vt 0.400000 0.400000
vt 0.500000 0.400000
vt 0.600000 0.400000
vt 0.700000 0.400000
vt 0.800000 0.400000
vt 0.900000 0.400000
vt 1.000000 0.400000
vt 0.000000 0.500000
vt 0.100000 0.500000
vt 0.200000 0.500000
vt 0.300000 0.500000
vt 0.400000 0.500000
vt 0.500000 0.500000
vt 0.600000 0.500000
vt 0.700000 0.500000
vt 0.800000 0.500000
vt 0.900000 0.500000
vt 1.000000 0.500000
vt 0.000000 0.600000
vt 0.100000 0.600000
vt 0.200000 0.600000
vt 0.300000 0.600000
vt 0.400000 0.600000
vt 0.500000 0.600000
vt 0.600000 0.600000
vt 0.700000 0.600000
vt 0.800000 0.600000
vt 0.900000 0.600000
vt 1.000000 0.600000
vt 0.000000 0.700000
vt 0.100000 0.700000
vt 0.200000 0.700000
vt 0.300000 0.700000
vt 0.400000 0.700000
vt 0.500000 0.700000
vt 0.600000 0.700000
vt 0.700000 0.700000
vt 0.800000 0.700000
vt 0.900000 0.700000
vt 1.000000 0.700000
vt 0.000000 0.800000
vt 0.100000 0.800000
vt 0.200000 0.800000
vt 0.300000 0.800000
vt 0.400000 0.800000
vt 0.500000 0.800000
vt 0.600000 0.800000
vt 0.700000 0.800000
vt 0.800000 0.800000
vt 0.900000 0.800000
vt 1.000000 0.800000
vt 0.000000 0.900000
vt 0.100000 0.900000
vt 0.200000 0.900000
vt 0.300000 0.900000
vt 0.400000 0.900000
vt 0.500000 0.900000
vt 0.600000 0.900000
vt 0.700000 0.900000
vt 0.800000 0.900000
vt 0.900000 0.900000
vt 1.000000 0.900000
vt 0.000000 1.000000
vt 0.100000 1.000000
vt 0.200000 1.000000
vt 0.300000 1.000000
vt 0.400000 1.000000
vt 0.500000 1.000000
vt 0.600000 1.000000
vt 0.700000 1.000000
vt 0.800000 1.000000
vt 0.900000 1.000000
vt 1.000000 1.000000
vn -0.017207 0.999704 0.017207
vn -0.110777 0.985484 0.128644
vn -0.142472 0.987867 0.061808
vn -0.046652 0.998480 0.029340
vn -0.033682 0.962553 0.268993
vn -0.062430 0.988104 0.140545
vn 0.095571 0.975557 0.197877
vn 0.070309 0.976113 0.205570
vn -0.040845 0.989836 0.136219
vn -0.073202 0.961788 0.263829
vn -0.159198 0.937647 0.308988
vn -0.229519 0.911471 0.341381
vn -0.098764 0.807252 0.581885
vn -0.089610 0.914601 0.394304
vn 0.080657 0.785938 0.613021
vn 0.172567 0.901607 0.396642
vn 0.087092 0.916099 0.391379
vn 0.152277 0.946619 0.284119
vn 0.071239 0.968024 0.240531
vn 0.151865 0.971263 0.183260
vn 0.170510 0.970277 0.171724
vn 0.269671 0.956646 0.110031
vn -0.249480 0.951596 0.179510
vn -0.178562 0.978906 0.099287
vn -0.259500 0.893947 0.365401
vn -0.213081 0.753929 0.621439
vn -0.072743 0.696299 0.714056
vn -0.013396 0.816682 0.576932
vn 0.008577 0.972649 0.232122
vn 0.146476 0.982547 0.114656
vn 0.206461 0.969503 0.132050
vn 0.278898 0.957323 0.075821
vn 0.377207 0.925981 0.016542
vn -0.495186 0.817167 0.295005
vn -0.309797 0.950050 0.037834
vn -0.517730 0.629405 0.579487
vn -0.317077 0.523490 0.790835
vn 0.388654 0.693978 0.606088
vn 0.493367 0.766855 0.410515
vn 0.211652 0.977029 0.024854
vn 0.136874 0.990097 -0.031193
vn 0.209089 0.975188 -0.072734
vn 0.327252 0.943024 -0.060100
vn 0.351837 0.934691 -0.050634
vn -0.759951 0.642027 0.101368
vn -0.295532 0.953880 -0.052667
vn -0.572002 0.814821 0.094233
vn 0.092755 0.914121 -0.394688
vn 0.429371 0.875124 -0.223157
vn 0.543457 0.717241 -0.436141
vn 0.166613 0.983261 0.073747
vn 0.195180 0.972165 0.129613
vn 0.271915 0.961534 0.038918
vn 0.313201 0.947638 -0.062347
vn 0.258917 0.965290 -0.034296
vn -0.819601 0.572778 -0.013442
vn -0.180625 0.981124 -0.069074
vn -0.625121 0.756540 -0.192018
vn 0.358808 0.797873 -0.484413
vn 0.332214 0.862709 -0.381269
vn 0.158467 0.958782 -0.235850
vn -0.142248 0.959930 0.241453
vn 0.191828 0.875829 0.442861
vn 0.520530 0.822068 0.230765
vn 0.336692 0.941401 0.020076
vn 0.184486 0.982590 -0.021962
vn -0.799873 0.585258 0.132952
vn -0.155922 0.986975 0.039604
vn -0.512767 0.853870 0.089310
vn 0.453409 0.891001 -0.023201
vn 0.214683 0.975708 0.043650
vn -0.260575 0.949460 0.175005
vn -0.396111 0.832504 0.387342
vn 0.336803 0.837935 0.429452
vn 0.799779 0.591441 0.102716
vn 0.363259 0.931353 -0.024974
vn 0.171438 0.985115 0.012585
vn -0.852967 0.506464 0.126259
vn -0.356796 0.921254 0.154877
vn -0.518921 0.854822 -0.000519
vn 0.382643 0.915096 -0.127212
vn 0.219164 0.971511 -0.090192
vn -0.487149 0.872309 0.041996
vn -0.310585 0.948808 -0.057450
vn 0.549506 0.823459 -0.141274
vn 0.774556 0.612096 -0.159378
vn 0.321279 0.946719 0.022415
vn 0.256441 0.963451 0.077461
vn -0.725116 0.628682 -0.281008
vn -0.415215 0.905701 -0.085447
vn -0.378497 0.800121 -0.465346
vn 0.205844 0.887641 -0.411973
vn 0.189826 0.939674 -0.284569
vn -0.423556 0.827171 -0.369309
vn -0.188962 0.772603 -0.606117
vn 0.500827 0.615148 -0.608905
vn 0.488904 0.771724 -0.406712
vn 0.201144 0.972244 -0.119512
vn 0.294342 0.954635 -0.045101
vn -0.322374 0.881635 -0.344665
vn -0.180862 0.971675 -0.152110
vn -0.292457 0.742369 -0.602792
vn 0.039643 0.808696 -0.586889
vn 0.170079 0.878032 -0.447363
vn -0.175618 0.858810 -0.481252
vn -0.059184 0.784999 -0.616663
vn 0.348294 0.770437 -0.533965
vn 0.227442 0.915880 -0.330809
vn 0.060931 0.981851 -0.179601
vn 0.126652 0.984426 -0.121917
vn -0.117508 0.982304 -0.145843
vn -0.027773 0.999228 -0.027773
vn -0.184893 0.882900 -0.431627
vn -0.070576 0.765738 -0.639269
vn 0.064029 0.765057 -0.640772
vn -0.046517 0.777101 -0.627654
vn 0.020681 0.768668 -0.639313
vn 0.203220 0.873340 -0.442695
vn 0.117308 0.984327 -0.131679
vn 0.005014 0.999941 -0.009593
vn 0.004572 0.999979 -0.004572
vn -0.641710 0.611232 0.463254
vn -0.641710 0.611232 0.463254
vn -0.641710 0.611232 0.463254
vn -0.641710 0.611232 0.463254
s 1
g pisosrelievefuerte4 pisosrelievefuerte
usemtl initialShadingGroup
f 1/1/1 2/2/2 13/13/3 12/12/4
f 2/2/2 3/3/5 14/14/6 13/13/3
f 3/3/5 4/4/7 15/15/8 14/14/6
f 4/4/7 5/5/9 16/16/10 15/15/8
f 5/5/9 6/6/11 17/17/12 16/16/10
f 6/6/11 7/7/13 18/18/14 17/17/12
f 7/7/13 8/8/15 19/19/16 18/18/14
f 8/8/15 9/9/17 20/20/18 19/19/16
f 9/9/17 10/10/19 21/21/20 20/20/18
f 10/10/19 11/11/21 22/22/22 21/21/20
f 12/12/4 13/13/3 24/24/23 23/23/24
f 13/13/3 14/14/6 25/25/25 24/24/23
f 14/14/6 15/15/8 26/26/26 25/25/25
f 15/15/8 16/16/10 27/27/27 26/26/26
f 16/16/10 17/17/12 28/28/28 27/27/27
f 17/17/12 18/18/14 29/29/29 28/28/28
f 18/18/14 19/19/16 30/30/30 29/29/29
f 19/19/16 20/20/18 31/31/31 30/30/30
f 20/20/18 21/21/20 32/32/32 31/31/31
f 21/21/20 22/22/22 33/33/33 32/32/32
f 23/23/24 24/24/23 35/35/34 34/34/35
f 24/24/23 25/25/25 36/36/36 35/35/34
f 25/25/25 26/26/26 37/37/37 36/36/36
f 26/26/26 27/27/27 38/38/38 37/37/37
f 27/27/27 28/28/28 39/39/39 38/38/38
f 28/28/28 29/29/29 40/40/40 39/39/39
f 29/29/29 30/30/30 41/41/41 40/40/40
f 30/30/30 31/31/31 42/42/42 41/41/41
f 31/31/31 32/32/32 43/43/43 42/42/42
f 32/32/32 33/33/33 44/44/44 43/43/43
f 34/34/35 35/35/34 46/46/45 45/45/46
f 35/35/34 36/36/36 47/47/47 46/46/45
f 36/36/36 37/37/37 48/48/48 47/47/47
f 38/38/38 39/39/39 50/50/49 49/49/50
f 39/39/39 40/40/40 51/51/51 50/50/49
f 40/40/40 41/41/41 52/52/52 51/51/51
f 41/41/41 42/42/42 53/53/53 52/52/52
f 42/42/42 43/43/43 54/54/54 53/53/53
f 43/43/43 44/44/44 55/55/55 54/54/54
f 45/45/46 46/46/45 57/57/56 56/56/57
f 46/46/45 47/47/47 58/58/58 57/57/56
f 47/47/47 48/48/48 59/59/59 58/58/58
f 48/48/48 49/49/50 60/60/60 59/59/59
f 49/49/50 50/50/49 61/61/61 60/60/60
f 50/50/49 51/51/51 62/62/62 61/61/61
f 51/51/51 52/52/52 63/63/63 62/62/62
f 52/52/52 53/53/53 64/64/64 63/63/63
f 53/53/53 54/54/54 65/65/65 64/64/64
f 54/54/54 55/55/55 66/66/66 65/65/65
f 56/56/57 57/57/56 68/68/67 67/67/68
f 57/57/56 58/58/58 69/69/69 68/68/67
f 58/58/58 59/59/59 70/70/70 69/69/69
f 59/59/59 60/60/60 71/71/71 70/70/70
f 60/60/60 61/61/61 72/72/72 71/71/71
f 61/61/61 62/62/62 73/73/73 72/72/72
f 62/62/62 63/63/63 74/74/74 73/73/73
f 63/63/63 64/64/64 75/75/75 74/74/74
f 64/64/64 65/65/65 76/76/76 75/75/75
f 65/65/65 66/66/66 77/77/77 76/76/76
f 67/67/68 68/68/67 79/79/78 78/78/79
f 68/68/67 69/69/69 80/80/80 79/79/78
f 69/69/69 70/70/70 81/81/81 80/80/80
f 70/70/70 71/71/71 82/82/82 81/81/81
f 71/71/71 72/72/72 83/83/83 82/82/82
f 72/72/72 73/73/73 84/84/84 83/83/83
f 73/73/73 74/74/74 85/85/85 84/84/84
f 74/74/74 75/75/75 86/86/86 85/85/85
f 75/75/75 76/76/76 87/87/87 86/86/86
f 76/76/76 77/77/77 88/88/88 87/87/87
f 78/78/79 79/79/78 90/90/89 89/89/90
f 79/79/78 80/80/80 91/91/91 90/90/89
f 80/80/80 81/81/81 92/92/92 91/91/91
f 81/81/81 82/82/82 93/93/93 92/92/92
f 82/82/82 83/83/83 94/94/94 93/93/93
f 83/83/83 84/84/84 95/95/95 94/94/94
f 84/84/84 85/85/85 96/96/96 95/95/95
f 85/85/85 86/86/86 97/97/97 96/96/96
f 86/86/86 87/87/87 98/98/98 97/97/97
f 87/87/87 88/88/88 99/99/99 98/98/98
f 89/89/90 90/90/89 101/101/100 100/100/101
f 90/90/89 91/91/91 102/102/102 101/101/100
f 91/91/91 92/92/92 103/103/103 102/102/102
f 92/92/92 93/93/93 104/104/104 103/103/103
f 93/93/93 94/94/94 105/105/105 104/104/104
f 94/94/94 95/95/95 106/106/106 105/105/105
f 95/95/95 96/96/96 107/107/107 106/106/106
f 96/96/96 97/97/97 108/108/108 107/107/107
f 97/97/97 98/98/98 109/109/109 108/108/108
f 98/98/98 99/99/99 110/110/110 109/109/109
f 100/100/101 101/101/100 112/112/111 111/111/112
f 101/101/100 102/102/102 113/113/113 112/112/111
f 102/102/102 103/103/103 114/114/114 113/113/113
f 103/103/103 104/104/104 115/115/115 114/114/114
f 104/104/104 105/105/105 116/116/116 115/115/115
f 105/105/105 106/106/106 117/117/117 116/116/116
f 106/106/106 107/107/107 118/118/118 117/117/117
f 107/107/107 108/108/108 119/119/119 118/118/118
f 108/108/108 109/109/109 120/120/120 119/119/119
f 109/109/109 110/110/110 121/121/121 120/120/120
s off
f 38/38/122 49/49/123 48/48/124 37/37/125
