# This file uses centimeters as units for non-parametric coordinates.

mtllib fs3.mtl
g default
v -27.526497 0.001016 -0.025048
v -24.773705 0.000962 -0.025048
v -22.020864 -0.004221 -0.025423
v -19.268079 -0.024857 -0.028072
v -16.515308 -0.003597 -0.025656
v -13.747749 -0.000482 -0.058578
v -11.009747 0.000819 -0.025073
v -8.256972 -0.000482 -0.025203
v -5.504160 0.001016 -0.025048
v -2.751367 0.001016 -0.025048
v 0.001424 0.001016 -0.025048
v -27.526497 0.000916 -2.777840
v -24.772568 -0.014074 -2.778390
v -22.020503 0.046463 -2.775141
v -19.304972 -0.321979 -2.842545
v -16.520025 -0.084080 -2.778768
v -13.827123 0.486987 -2.874830
v -11.025543 0.474339 -2.760081
v -8.256630 0.023577 -2.775326
v -5.504160 0.164385 -2.777840
v -2.751758 0.701528 -2.778056
v 0.001424 0.004459 -2.777840
v -27.526495 0.000350 -5.530635
v -24.771574 -0.026137 -5.532688
v -21.994952 -0.307491 -5.553775
v -19.274831 0.321293 -5.671604
v -16.604252 0.705587 -5.588086
v -13.688329 0.374212 -5.572589
v -11.035806 0.504257 -5.484422
v -8.274888 0.803201 -5.504273
v -5.504355 0.757031 -5.531533
v -2.747561 0.620290 -5.529845
v 0.001424 0.043010 -5.530632
v -27.526497 0.001016 -8.283425
v -24.770856 0.036062 -8.285200
v -21.889844 -0.562529 -8.367070
v -19.270736 0.547515 -8.365319
v -16.560632 0.454561 -8.186914
v -13.783558 0.269622 -8.232085
v -11.133970 0.849132 -8.014569
v -8.176049 0.928709 -8.278488
v -5.483794 0.664874 -8.259172
v -2.756303 0.831402 -8.310133
v 0.001424 0.019624 -8.283425
v -27.526497 0.001016 -11.036217
v -24.764881 0.428252 -11.042041
v -21.909607 0.056738 -11.162292
v -19.346208 0.428103 -10.925577
v -16.534633 0.476341 -10.750076
v -14.362436 0.468242 -10.605325
v -11.696254 0.774828 -9.638413
v -8.202312 1.297929 -11.078874
v -5.548220 1.029645 -11.023199
v -2.747869 0.473523 -11.039017
v 0.001424 0.001016 -11.036217
v -27.526497 0.002031 -13.789009
v -24.773728 0.571282 -13.789025
v -21.932230 0.816813 -13.798862
v -19.293996 0.174309 -12.876722
v -17.115444 1.279845 -13.167379
v -13.950124 0.160249 -13.411811
v -10.600881 0.470777 -11.866052
v -6.931036 0.426522 -12.873999
v -5.256728 0.591212 -13.620853
v -2.699982 0.194870 -13.775600
v 0.001424 0.001016 -13.789009
v -27.526497 0.001016 -16.541801
v -24.778471 0.034667 -16.545433
v -21.698928 0.088213 -15.626844
v -19.077276 0.476762 -15.517237
v -15.897176 0.289648 -15.603253
v -13.747864 0.598813 -16.532997
v -10.837952 0.428455 -15.893428
v -7.244316 0.581449 -15.871162
v -5.403690 0.506335 -16.551576
v -2.728646 0.169682 -16.542131
v -0.000175 -0.012810 -16.541709
v -27.526497 0.001016 -19.294592
v -24.773705 0.001016 -19.294592
v -21.731392 -0.307617 -18.390642
v -19.289705 0.068061 -17.997365
v -16.281445 0.249755 -18.342758
v -13.275440 0.275722 -19.417871
v -10.690506 0.722631 -19.174223
v -8.350147 0.609911 -19.140295
v -5.517062 0.651297 -19.278205
v -2.731203 0.196651 -19.311995
v 0.001392 0.000733 -19.294590
v -27.526497 0.001016 -22.047385
v -24.773727 0.001170 -22.047386
v -21.925143 -0.389541 -21.875788
v -19.180148 0.493511 -21.225653
v -16.527860 0.393786 -21.947200
v -13.633029 -0.201762 -22.080919
v -10.984692 0.527175 -21.978415
v -8.370339 -1.323584 -21.732238
v -5.327968 -1.386978 -21.800195
v -2.751241 0.001633 -22.047438
v 0.001424 0.001016 -22.047385
v -27.526497 0.001016 -24.800178
v -24.773705 0.001016 -24.800178
v -22.020764 0.008850 -24.802339
v -19.065035 0.518446 -24.826886
v -16.485840 0.136979 -24.850233
v -13.762614 0.002489 -24.800284
v -11.028352 -0.295736 -24.779653
v -8.251212 0.076205 -24.808879
v -5.522799 -0.288112 -24.774464
v -2.751367 0.001016 -24.800178
v 0.001424 0.001016 -24.800178
v -27.526497 0.001016 -27.552969
v -24.773705 0.001016 -27.552969
v -22.020913 0.001016 -27.552969
v -19.268120 0.000996 -27.552964
v -16.515329 0.001016 -27.552969
v -13.762537 0.001016 -27.552969
v -11.009744 0.001016 -27.552969
v -8.256953 0.001016 -27.552969
v -5.504160 0.001016 -27.552969
v -2.751367 0.001016 -27.552969
v 0.001424 0.001016 -27.552969
vt 0.000000 0.000000
vt 0.100000 0.000000
vt 0.200000 0.000000
vt 0.300000 0.000000
vt 0.400000 0.000000
vt 0.500000 0.000000
vt 0.600000 0.000000
vt 0.700000 0.000000
vt 0.800000 0.000000
vt 0.900000 0.000000
vt 1.000000 0.000000
vt 0.000000 0.100000
vt 0.100000 0.100000
vt 0.200000 0.100000
vt 0.300000 0.100000
vt 0.400000 0.100000
vt 0.500000 0.100000
vt 0.600000 0.100000
vt 0.700000 0.100000
vt 0.800000 0.100000
vt 0.900000 0.100000
vt 1.000000 0.100000
vt 0.000000 0.200000
vt 0.100000 0.200000
vt 0.200000 0.200000
vt 0.300000 0.200000
vt 0.400000 0.200000
vt 0.500000 0.200000
vt 0.600000 0.200000
vt 0.700000 0.200000
vt 0.800000 0.200000
vt 0.900000 0.200000
vt 1.000000 0.200000
vt 0.000000 0.300000
vt 0.100000 0.300000
vt 0.200000 0.300000
vt 0.300000 0.300000
vt 0.400000 0.300000
vt 0.500000 0.300000
vt 0.600000 0.300000
vt 0.700000 0.300000
vt 0.800000 0.300000
vt 0.900000 0.300000
vt 1.000000 0.300000
vt 0.000000 0.400000
vt 0.100000 0.400000
vt 0.200000 0.400000
vt 0.300000 0.400000
vt 0.400000 0.400000
vt 0.500000 0.400000
vt 0.600000 0.400000
vt 0.700000 0.400000
vt 0.800000 0.400000
vt 0.900000 0.400000
vt 1.000000 0.400000
vt 0.000000 0.500000
vt 0.100000 0.500000
vt 0.200000 0.500000
vt 0.300000 0.500000
vt 0.400000 0.500000
vt 0.500000 0.500000
vt 0.600000 0.500000
vt 0.700000 0.500000
vt 0.800000 0.500000
vt 0.900000 0.500000
vt 1.000000 0.500000
vt 0.000000 0.600000
vt 0.100000 0.600000
vt 0.200000 0.600000
vt 0.300000 0.600000
vt 0.400000 0.600000
vt 0.500000 0.600000
vt 0.600000 0.600000
vt 0.700000 0.600000
vt 0.800000 0.600000
vt 0.900000 0.600000
vt 1.000000 0.600000
vt 0.000000 0.700000
vt 0.100000 0.700000
vt 0.200000 0.700000
vt 0.300000 0.700000
vt 0.400000 0.700000
vt 0.500000 0.700000
vt 0.600000 0.700000
vt 0.700000 0.700000
vt 0.800000 0.700000
vt 0.900000 0.700000
vt 1.000000 0.700000
vt 0.000000 0.800000
vt 0.100000 0.800000
vt 0.200000 0.800000
vt 0.300000 0.800000
vt 0.400000 0.800000
vt 0.500000 0.800000
vt 0.600000 0.800000
vt 0.700000 0.800000
vt 0.800000 0.800000
vt 0.900000 0.800000
vt 1.000000 0.800000
vt 0.000000 0.900000
vt 0.100000 0.900000
vt 0.200000 0.900000
vt 0.300000 0.900000
vt 0.400000 0.900000
vt 0.500000 0.900000
vt 0.600000 0.900000
vt 0.700000 0.900000
vt 0.800000 0.900000
vt 0.900000 0.900000
vt 1.000000 0.900000
vt 0.000000 1.000000
vt 0.100000 1.000000
vt 0.200000 1.000000
vt 0.300000 1.000000
vt 0.400000 1.000000
vt 0.500000 1.000000
vt 0.600000 1.000000
vt 0.700000 1.000000
vt 0.800000 1.000000
vt 0.900000 1.000000
vt 1.000000 1.000000
vn 0.002732 0.999992 -0.002748
vn -0.003659 0.999992 0.001860
vn 0.010058 0.999817 -0.016252
vn 0.005130 0.999984 -0.002520
vn 0.030315 0.999357 -0.019174
vn 0.014264 0.999800 -0.014016
vn 0.011412 0.998355 -0.056191
vn -0.036097 0.998116 0.049618
vn -0.074227 0.997237 0.002933
vn -0.077264 0.992592 0.093758
vn -0.051374 0.990966 0.123886
vn -0.041848 0.995152 0.089006
vn 0.039401 0.990654 0.130583
vn 0.021625 0.994673 0.100789
vn 0.028076 0.997673 0.062124
vn 0.016976 0.991452 0.129364
vn -0.061313 0.993598 0.094889
vn -0.052349 0.989769 0.132727
vn 0.014388 0.989913 0.140941
vn 0.046824 0.994718 0.091339
vn 0.124597 0.984197 0.125828
vn 0.175903 0.982626 0.059203
vn 0.050932 0.998453 -0.022327
vn 0.002993 0.999985 0.004560
vn -0.036229 0.999239 -0.014465
vn -0.137744 0.987727 0.073638
vn -0.032199 0.996331 0.079295
vn -0.026605 0.999391 0.022591
vn -0.044702 0.996648 0.068519
vn 0.000734 0.992370 0.123294
vn -0.009054 0.995670 0.092521
vn 0.101872 0.994187 0.034854
vn 0.235079 0.971894 0.012667
vn 0.063491 0.996280 0.058264
vn -0.042567 0.998244 0.041200
vn -0.060477 0.996381 0.059734
vn -0.160671 0.986909 0.013990
vn 0.021226 0.999643 -0.016248
vn -0.043052 0.998862 0.020513
vn -0.101071 0.992144 0.073726
vn 0.005741 0.997161 0.075078
vn 0.054128 0.997778 0.038843
vn 0.135824 0.990728 -0.002998
vn 0.236021 0.971609 -0.016448
vn -0.012510 0.993619 0.112094
vn -0.130773 0.990232 0.048365
vn -0.005896 0.989918 0.141517
vn -0.125804 0.988699 0.081531
vn 0.039469 0.997523 0.058232
vn 0.029357 0.999562 -0.003778
vn -0.107638 0.993172 -0.044992
vn -0.064879 0.989758 -0.127162
vn 0.086040 0.995155 -0.047578
vn 0.148748 0.987095 -0.059312
vn 0.175072 0.982843 -0.058040
vn -0.068528 0.996908 -0.038444
vn -0.143592 0.989015 -0.035092
vn 0.026518 0.999167 -0.031024
vn -0.078275 0.996909 0.006761
vn -0.035918 0.999169 -0.019285
vn 0.040759 0.999162 -0.003835
vn -0.072291 0.991151 -0.111328
vn -0.035987 0.993779 -0.105393
vn 0.087690 0.992963 -0.079594
vn 0.123852 0.991117 -0.048455
vn 0.095149 0.995059 -0.028350
vn -0.008944 0.994880 -0.100662
vn -0.057797 0.996988 -0.051720
vn -0.005839 0.988550 -0.150781
vn -0.064988 0.990025 -0.125011
vn -0.000774 0.995955 -0.089848
vn -0.031843 0.999392 -0.014173
vn -0.026915 0.999141 0.031501
vn -0.007767 0.999641 0.025635
vn 0.076489 0.996998 0.011980
vn 0.105172 0.994453 0.001104
vn 0.069115 0.997609 -0.000040
vn 0.052223 0.998362 -0.023357
vn -0.003072 0.999991 -0.003044
vn -0.054198 0.997844 -0.037005
vn -0.095241 0.995248 -0.020265
vn -0.003356 0.999659 -0.025909
vn -0.054286 0.996909 -0.056792
vn 0.036030 0.994435 -0.099004
vn 0.079844 0.968230 -0.236971
vn -0.009141 0.959221 -0.282508
vn 0.015930 0.994556 -0.102983
vn 0.052609 0.998517 -0.014019
vn 0.050149 0.998656 0.013056
vn -0.000028 1.000000 0.000000
vn -0.079341 0.996035 0.040251
vn -0.106107 0.993160 0.048721
vn 0.074494 0.997190 -0.007914
vn -0.003468 0.997707 -0.067599
vn 0.083406 0.989754 -0.115893
vn 0.157499 0.977317 -0.141583
vn -0.096712 0.988568 -0.115677
vn -0.116655 0.991792 -0.052355
vn 0.017961 0.999680 -0.017797
vn 0.016815 0.999705 0.017525
vn -0.000014 1.000000 -0.000014
vn -0.076335 0.996999 0.012920
vn -0.050745 0.997909 -0.040036
vn 0.078646 0.995807 -0.046717
vn 0.036624 0.999098 -0.021502
vn 0.047050 0.998640 0.022455
vn 0.083563 0.984562 0.153802
vn -0.045462 0.981346 0.186795
vn -0.088526 0.994059 0.063320
vn 0.000056 1.000000 -0.000056
vn -0.000712 0.999999 -0.000712
vn 0.000000 1.000000 0.000000
vn -0.046135 0.997800 -0.047615
vn -0.016054 0.994229 -0.106071
vn 0.047510 0.996152 -0.073652
vn 0.039545 0.999114 0.014428
vn -0.006887 0.998885 0.046707
vn -0.000764 0.999222 0.039419
vn 0.006528 0.998943 0.045505
vn -0.026135 0.999317 0.026135
vn 0.000000 1.000000 0.000000
s 1
g pisorelievesuave4 relievesuave
usemtl initialShadingGroup
f 1/1/1 2/2/2 13/13/3 12/12/4
f 2/2/2 3/3/5 14/14/6 13/13/3
f 3/3/5 4/4/7 15/15/8 14/14/6
f 4/4/7 5/5/9 16/16/10 15/15/8
f 5/5/9 6/6/11 17/17/12 16/16/10
f 6/6/11 7/7/13 18/18/14 17/17/12
f 7/7/13 8/8/15 19/19/16 18/18/14
f 8/8/15 9/9/17 20/20/18 19/19/16
f 9/9/17 10/10/19 21/21/20 20/20/18
f 10/10/19 11/11/21 22/22/22 21/21/20
f 12/12/4 13/13/3 24/24/23 23/23/24
f 13/13/3 14/14/6 25/25/25 24/24/23
f 14/14/6 15/15/8 26/26/26 25/25/25
f 15/15/8 16/16/10 27/27/27 26/26/26
f 16/16/10 17/17/12 28/28/28 27/27/27
f 17/17/12 18/18/14 29/29/29 28/28/28
f 18/18/14 19/19/16 30/30/30 29/29/29
f 19/19/16 20/20/18 31/31/31 30/30/30
f 20/20/18 21/21/20 32/32/32 31/31/31
f 21/21/20 22/22/22 33/33/33 32/32/32
f 23/23/24 24/24/23 35/35/34 34/34/35
f 24/24/23 25/25/25 36/36/36 35/35/34
f 25/25/25 26/26/26 37/37/37 36/36/36
f 26/26/26 27/27/27 38/38/38 37/37/37
f 27/27/27 28/28/28 39/39/39 38/38/38
f 28/28/28 29/29/29 40/40/40 39/39/39
f 29/29/29 30/30/30 41/41/41 40/40/40
f 30/30/30 31/31/31 42/42/42 41/41/41
f 31/31/31 32/32/32 43/43/43 42/42/42
f 32/32/32 33/33/33 44/44/44 43/43/43
f 34/34/35 35/35/34 46/46/45 45/45/46
f 35/35/34 36/36/36 47/47/47 46/46/45
f 36/36/36 37/37/37 48/48/48 47/47/47
f 37/37/37 38/38/38 49/49/49 48/48/48
f 38/38/38 39/39/39 50/50/50 49/49/49
f 39/39/39 40/40/40 51/51/51 50/50/50
f 40/40/40 41/41/41 52/52/52 51/51/51
f 41/41/41 42/42/42 53/53/53 52/52/52
f 42/42/42 43/43/43 54/54/54 53/53/53
f 43/43/43 44/44/44 55/55/55 54/54/54
f 45/45/46 46/46/45 57/57/56 56/56/57
f 46/46/45 47/47/47 58/58/58 57/57/56
f 47/47/47 48/48/48 59/59/59 58/58/58
f 48/48/48 49/49/49 60/60/60 59/59/59
f 49/49/49 50/50/50 61/61/61 60/60/60
f 50/50/50 51/51/51 62/62/62 61/61/61
f 51/51/51 52/52/52 63/63/63 62/62/62
f 52/52/52 53/53/53 64/64/64 63/63/63
f 53/53/53 54/54/54 65/65/65 64/64/64
f 54/54/54 55/55/55 66/66/66 65/65/65
f 56/56/57 57/57/56 68/68/67 67/67/68
f 57/57/56 58/58/58 69/69/69 68/68/67
f 58/58/58 59/59/59 70/70/70 69/69/69
f 59/59/59 60/60/60 71/71/71 70/70/70
f 60/60/60 61/61/61 72/72/72 71/71/71
f 61/61/61 62/62/62 73/73/73 72/72/72
f 62/62/62 63/63/63 74/74/74 73/73/73
f 63/63/63 64/64/64 75/75/75 74/74/74
f 64/64/64 65/65/65 76/76/76 75/75/75
f 65/65/65 66/66/66 77/77/77 76/76/76
f 67/67/68 68/68/67 79/79/78 78/78/79
f 68/68/67 69/69/69 80/80/80 79/79/78
f 69/69/69 70/70/70 81/81/81 80/80/80
f 70/70/70 71/71/71 82/82/82 81/81/81
f 71/71/71 72/72/72 83/83/83 82/82/82
f 72/72/72 73/73/73 84/84/84 83/83/83
f 73/73/73 74/74/74 85/85/85 84/84/84
f 74/74/74 75/75/75 86/86/86 85/85/85
f 75/75/75 76/76/76 87/87/87 86/86/86
f 76/76/76 77/77/77 88/88/88 87/87/87
f 78/78/79 79/79/78 90/90/89 89/89/90
f 79/79/78 80/80/80 91/91/91 90/90/89
f 80/80/80 81/81/81 92/92/92 91/91/91
f 81/81/81 82/82/82 93/93/93 92/92/92
f 82/82/82 83/83/83 94/94/94 93/93/93
f 83/83/83 84/84/84 95/95/95 94/94/94
f 84/84/84 85/85/85 96/96/96 95/95/95
f 85/85/85 86/86/86 97/97/97 96/96/96
f 86/86/86 87/87/87 98/98/98 97/97/97
f 87/87/87 88/88/88 99/99/99 98/98/98
f 89/89/90 90/90/89 101/101/100 100/100/101
f 90/90/89 91/91/91 102/102/102 101/101/100
f 91/91/91 92/92/92 103/103/103 102/102/102
f 92/92/92 93/93/93 104/104/104 103/103/103
f 93/93/93 94/94/94 105/105/105 104/104/104
f 94/94/94 95/95/95 106/106/106 105/105/105
f 95/95/95 96/96/96 107/107/107 106/106/106
f 96/96/96 97/97/97 108/108/108 107/107/107
f 97/97/97 98/98/98 109/109/109 108/108/108
f 98/98/98 99/99/99 110/110/110 109/109/109
f 100/100/101 101/101/100 112/112/111 111/111/112
f 101/101/100 102/102/102 113/113/113 112/112/111
f 102/102/102 103/103/103 114/114/114 113/113/113
f 103/103/103 104/104/104 115/115/115 114/114/114
f 104/104/104 105/105/105 116/116/116 115/115/115
f 105/105/105 106/106/106 117/117/117 116/116/116
f 106/106/106 107/107/107 118/118/118 117/117/117
f 107/107/107 108/108/108 119/119/119 118/118/118
f 108/108/108 109/109/109 120/120/120 119/119/119
f 109/109/109 110/110/110 121/121/121 120/120/120
