# This file uses centimeters as units for non-parametric coordinates.

mtllib llc3.mtl
g default
v 0.001419 0.001015 -0.025053
v 2.754211 0.000962 -0.025053
v 5.507052 -0.004222 -0.025428
v 8.259837 -0.024857 -0.028077
v 11.012608 -0.003598 -0.025661
v 13.780167 -0.485530 -0.058583
v 16.518172 0.001015 -0.025053
v 19.270964 0.001015 -0.025053
v 22.023756 0.001015 -0.025053
v 24.776549 0.001015 -0.025053
v 27.529340 0.001015 -0.025053
v 0.001419 0.000915 -2.777845
v 2.755348 -0.014074 -2.778395
v 5.507413 0.046463 -2.775146
v 8.227983 -0.469852 -2.856155
v 11.007892 -0.084080 -2.778773
v 13.697897 0.578082 -2.875105
v 16.502801 0.488188 -2.757042
v 19.271153 0.013976 -2.776386
v 22.023756 0.164384 -2.777845
v 24.776549 0.706425 -2.777845
v 27.529340 0.004459 -2.777845
v 0.001422 0.000349 -5.530640
v 2.754396 0.003061 -5.530737
v 5.502984 0.080717 -5.523800
v 8.199440 1.277824 -5.486990
v 10.927703 0.836728 -5.589226
v 13.850280 -0.118417 -5.556524
v 16.454960 0.763922 -5.510439
v 19.244696 0.999911 -5.520504
v 22.021032 0.938029 -5.547846
v 24.776556 0.572818 -5.532362
v 27.529340 0.043010 -5.530637
v 0.001419 0.001015 -8.283430
v 2.754211 0.060475 -8.283430
v 5.505485 0.566137 -8.287645
v 8.222039 1.133399 -8.356013
v 11.012296 0.731854 -8.214257
v 13.747479 0.124370 -8.256951
v 16.019458 1.065146 -8.170131
v 18.924960 0.995440 -8.527200
v 22.010775 0.256988 -8.325102
v 24.771043 0.820923 -8.311020
v 27.529340 0.019624 -8.283430
v 0.001419 0.001015 -11.036222
v 2.762824 0.430540 -11.041901
v 5.619559 0.244498 -11.125521
v 8.183265 0.558729 -10.701250
v 11.007195 0.128013 -10.783825
v 13.065638 0.683887 -10.654510
v 15.623829 0.726168 -9.880091
v 18.944222 0.639726 -11.171694
v 21.883408 -0.318180 -11.189555
v 24.780081 0.464614 -11.039847
v 27.529340 0.001015 -11.036222
v 0.001419 -0.280556 -13.692159
v 2.754188 0.111861 -14.104537
v 5.577281 0.252568 -14.284556
v 8.093133 -0.119381 -12.976016
v 9.984220 -1.002908 -12.782323
v 13.412251 -1.662438 -12.449512
v 16.874357 -0.070140 -11.612319
v 20.517107 0.201217 -12.456209
v 21.926214 -0.546355 -13.518676
v 24.804659 -0.252196 -13.781598
v 27.529340 -0.281256 -13.691424
v 0.001419 -2.163696 -15.534093
v 2.749445 -2.166591 -15.567817
v 5.720061 -1.400706 -15.872791
v 8.182696 -2.394031 -14.373114
v 11.400697 -2.702656 -13.087279
v 13.450959 -3.252558 -14.525272
v 16.773970 -3.640559 -13.777830
v 20.607714 -2.889140 -13.563375
v 22.231849 -3.239224 -15.135315
v 24.800355 -2.175232 -15.689355
v 27.527741 -2.163907 -15.520268
v 0.001419 -4.915828 -15.594408
v 2.754211 -4.915828 -15.594408
v 5.755243 -3.978965 -15.822258
v 8.228281 -3.665796 -15.694314
v 11.212113 -4.376741 -14.449472
v 14.251977 -5.043125 -15.851564
v 16.823032 -4.748625 -16.667517
v 19.193746 -5.196345 -15.608225
v 21.977702 -5.089879 -16.398325
v 24.796714 -4.928939 -15.790379
v 27.529308 -4.915831 -15.594127
v 0.001419 -7.667957 -15.654727
v 2.754190 -7.667954 -15.654881
v 5.601518 -7.504362 -15.270143
v 7.984416 -6.851797 -17.021435
v 10.943838 -7.534060 -16.226464
v 13.852138 -7.700357 -15.900603
v 16.476546 -7.643145 -17.133303
v 19.261628 -7.618192 -16.811289
v 22.238321 -7.811923 -17.171330
v 24.776625 -7.668048 -15.655661
v 27.529340 -7.667957 -15.654727
v 0.001419 -10.420090 -15.715045
v 2.754211 -10.420090 -15.715045
v 5.507152 -10.422082 -15.722918
v 8.462871 -10.435420 -16.233309
v 11.035543 -10.445845 -16.107448
v 13.751310 -10.417047 -15.875692
v 16.503413 -10.437822 -15.958675
v 19.279059 -10.436508 -15.906356
v 22.024121 -10.420403 -15.718196
v 24.776549 -10.420090 -15.715045
v 27.529340 -10.420090 -15.715045
v 0.001419 -13.172226 -15.775357
v 2.754211 -13.172226 -15.775357
v 5.507003 -13.172226 -15.775357
v 8.259796 -13.172218 -15.775337
v 11.012588 -13.172226 -15.775357
v 13.765380 -13.172226 -15.775357
v 16.518172 -13.172226 -15.775357
v 19.270964 -13.172226 -15.775357
v 22.023756 -13.172226 -15.775357
v 24.776549 -13.172226 -15.775357
v 27.529340 -13.172226 -15.775357
vt 0.000000 0.000000
vt 0.100000 0.000000
vt 0.200000 0.000000
vt 0.300000 0.000000
vt 0.400000 0.000000
vt 0.500000 0.000000
vt 0.600000 0.000000
vt 0.700000 0.000000
vt 0.800000 0.000000
vt 0.900000 0.000000
vt 1.000000 0.000000
vt 0.000000 0.100000
vt 0.100000 0.100000
vt 0.200000 0.100000
vt 0.300000 0.100000
vt 0.400000 0.100000
vt 0.500000 0.100000
vt 0.600000 0.100000
vt 0.700000 0.100000
vt 0.800000 0.100000
vt 0.900000 0.100000
vt 1.000000 0.100000
vt 0.000000 0.200000
vt 0.100000 0.200000
vt 0.200000 0.200000
vt 0.300000 0.200000
vt 0.400000 0.200000
vt 0.500000 0.200000
vt 0.600000 0.200000
vt 0.700000 0.200000
vt 0.800000 0.200000
vt 0.900000 0.200000
vt 1.000000 0.200000
vt 0.000000 0.300000
vt 0.100000 0.300000
vt 0.200000 0.300000
vt 0.300000 0.300000
vt 0.400000 0.300000
vt 0.500000 0.300000
vt 0.600000 0.300000
vt 0.700000 0.300000
vt 0.800000 0.300000
vt 0.900000 0.300000
vt 1.000000 0.300000
vt 0.000000 0.400000
vt 0.100000 0.400000
vt 0.200000 0.400000
vt 0.300000 0.400000
vt 0.400000 0.400000
vt 0.500000 0.400000
vt 0.600000 0.400000
vt 0.700000 0.400000
vt 0.800000 0.400000
vt 0.900000 0.400000
vt 1.000000 0.400000
vt 0.000000 0.500000
vt 0.100000 0.500000
vt 0.200000 0.500000
vt 0.300000 0.500000
vt 0.400000 0.500000
vt 0.500000 0.500000
vt 0.600000 0.500000
vt 0.700000 0.500000
vt 0.800000 0.500000
vt 0.900000 0.500000
vt 1.000000 0.500000
vt 0.000000 0.600000
vt 0.100000 0.600000
vt 0.200000 0.600000
vt 0.300000 0.600000
vt 0.400000 0.600000
vt 0.500000 0.600000
vt 0.600000 0.600000
vt 0.700000 0.600000
vt 0.800000 0.600000
vt 0.900000 0.600000
vt 1.000000 0.600000
vt 0.000000 0.700000
vt 0.100000 0.700000
vt 0.200000 0.700000
vt 0.300000 0.700000
vt 0.400000 0.700000
vt 0.500000 0.700000
vt 0.600000 0.700000
vt 0.700000 0.700000
vt 0.800000 0.700000
vt 0.900000 0.700000
vt 1.000000 0.700000
vt 0.000000 0.800000
vt 0.100000 0.800000
vt 0.200000 0.800000
vt 0.300000 0.800000
vt 0.400000 0.800000
vt 0.500000 0.800000
vt 0.600000 0.800000
vt 0.700000 0.800000
vt 0.800000 0.800000
vt 0.900000 0.800000
vt 1.000000 0.800000
vt 0.000000 0.900000
vt 0.100000 0.900000
vt 0.200000 0.900000
vt 0.300000 0.900000
vt 0.400000 0.900000
vt 0.500000 0.900000
vt 0.600000 0.900000
vt 0.700000 0.900000
vt 0.800000 0.900000
vt 0.900000 0.900000
vt 1.000000 0.900000
vt 0.000000 1.000000
vt 0.100000 1.000000
vt 0.200000 1.000000
vt 0.300000 1.000000
vt 0.400000 1.000000
vt 0.500000 1.000000
vt 0.600000 1.000000
vt 0.700000 1.000000
vt 0.800000 1.000000
vt 0.900000 1.000000
vt 1.000000 1.000000
vn 0.002732 0.999992 -0.002748
vn -0.003659 0.999992 0.001860
vn -0.007555 0.999963 0.004024
vn 0.002481 0.999997 0.000130
vn 0.043602 0.998521 -0.032472
vn -0.013107 0.997823 0.064632
vn 0.011288 0.996542 -0.082316
vn -0.019564 0.987296 0.157682
vn -0.050670 0.997914 0.039997
vn -0.010290 0.988752 0.149210
vn -0.053147 0.973153 0.223938
vn -0.047634 0.993542 0.102984
vn 0.002601 0.982977 0.183710
vn -0.021760 0.990595 0.135086
vn 0.029357 0.997685 0.061348
vn 0.021602 0.986050 0.165045
vn -0.062484 0.993579 0.094317
vn -0.042653 0.986968 0.155160
vn 0.014376 0.989789 0.141813
vn 0.054960 0.993948 0.095110
vn 0.125458 0.983977 0.126689
vn 0.172663 0.983450 0.054898
vn -0.035085 0.998924 0.030341
vn -0.004530 0.999967 0.006779
vn -0.141191 0.982593 0.120730
vn -0.069381 0.977651 0.198457
vn 0.121755 0.984271 0.128009
vn -0.041684 0.998700 0.029337
vn -0.106424 0.990902 0.082381
vn 0.040357 0.993378 0.107570
vn 0.018545 0.998472 0.052054
vn 0.099496 0.994919 0.015398
vn 0.226487 0.973948 0.011317
vn -0.065558 0.996805 0.045621
vn -0.049900 0.998003 0.038738
vn -0.159890 0.987131 0.002894
vn -0.044736 0.994473 -0.094990
vn 0.155608 0.985703 -0.064617
vn -0.057813 0.996081 0.066935
vn -0.145627 0.988994 0.026131
vn 0.098721 0.990142 -0.099367
vn 0.039148 0.990073 -0.134995
vn 0.046712 0.996619 -0.067599
vn 0.229430 0.973239 -0.012939
vn -0.071637 0.997198 -0.021563
vn -0.122610 0.992241 -0.020619
vn -0.030779 0.996304 -0.080188
vn 0.061030 0.969696 -0.236568
vn 0.114122 0.908650 -0.401661
vn -0.014510 0.906188 -0.422627
vn -0.086525 0.940518 -0.328542
vn 0.066981 0.958083 -0.278549
vn 0.023359 0.988255 -0.151017
vn -0.026686 0.988671 -0.147704
vn 0.158691 0.979580 -0.123449
vn -0.106701 0.890314 -0.442670
vn -0.143561 0.883369 -0.446150
vn 0.127672 0.866833 -0.481975
vn 0.293741 0.820328 -0.490691
vn 0.230399 0.675244 -0.700686
vn 0.033946 0.666189 -0.745010
vn -0.077848 0.634313 -0.769147
vn -0.068020 0.682935 -0.727306
vn -0.313273 0.734535 -0.601929
vn -0.089191 0.857544 -0.506619
vn 0.067782 0.885566 -0.459540
vn -0.092513 0.294407 -0.951192
vn -0.059177 0.331770 -0.941502
vn 0.138756 0.408290 -0.902245
vn 0.409908 0.505543 -0.759211
vn 0.094710 0.586354 -0.804500
vn -0.068181 0.658142 -0.749800
vn -0.000823 0.665755 -0.746170
vn -0.228919 0.536886 -0.812004
vn -0.269284 0.508862 -0.817647
vn -0.067964 0.435025 -0.897850
vn 0.055183 0.392266 -0.918195
vn -0.004876 -0.018815 -0.999811
vn -0.003073 0.018867 -0.999817
vn -0.069541 0.069833 -0.995132
vn 0.211469 0.376328 -0.902030
vn 0.130806 0.478862 -0.868090
vn -0.185273 0.470615 -0.862668
vn 0.002240 0.554403 -0.832245
vn -0.008155 0.593020 -0.805146
vn -0.043923 0.371748 -0.927294
vn 0.109461 0.103791 -0.988557
vn 0.051351 0.009110 -0.998639
vn 0.027943 0.011528 -0.999543
vn -0.000028 0.021912 -0.999760
vn -0.161225 0.000992 -0.986917
vn -0.019764 0.128700 -0.991487
vn 0.150049 0.153232 -0.976732
vn -0.154988 0.067878 -0.985582
vn -0.080360 -0.045011 -0.995749
vn 0.023272 -0.037667 -0.999019
vn 0.108049 -0.058928 -0.992398
vn 0.173774 -0.026423 -0.984431
vn 0.018018 0.004112 -0.999829
vn 0.016383 0.038993 -0.999105
vn -0.000014 0.021897 -0.999760
vn -0.117381 -0.010365 -0.993033
vn -0.073241 -0.104867 -0.991786
vn 0.081539 -0.093118 -0.992311
vn -0.024862 -0.089955 -0.995635
vn -0.041997 -0.172373 -0.984136
vn 0.016624 -0.216319 -0.976181
vn 0.062792 -0.172499 -0.983006
vn 0.069909 -0.047886 -0.996403
vn 0.000085 0.021826 -0.999762
vn -0.000711 0.021199 -0.999775
vn 0.000000 0.021909 -0.999760
vn -0.046167 -0.025774 -0.998601
vn -0.037579 -0.104318 -0.993834
vn 0.032939 -0.111195 -0.993253
vn 0.013521 -0.065111 -0.997787
vn -0.002845 -0.054530 -0.998508
vn 0.021814 -0.035515 -0.999131
vn 0.017380 0.003953 -0.999841
vn 0.000285 0.021624 -0.999766
vn 0.000000 0.021909 -0.999760
s 1
g pPlane35 pisoespecial
usemtl initialShadingGroup
f 1/1/1 2/2/2 13/13/3 12/12/4
f 2/2/2 3/3/5 14/14/6 13/13/3
f 3/3/5 4/4/7 15/15/8 14/14/6
f 4/4/7 5/5/9 16/16/10 15/15/8
f 5/5/9 6/6/11 17/17/12 16/16/10
f 6/6/11 7/7/13 18/18/14 17/17/12
f 7/7/13 8/8/15 19/19/16 18/18/14
f 8/8/15 9/9/17 20/20/18 19/19/16
f 9/9/17 10/10/19 21/21/20 20/20/18
f 10/10/19 11/11/21 22/22/22 21/21/20
f 12/12/4 13/13/3 24/24/23 23/23/24
f 13/13/3 14/14/6 25/25/25 24/24/23
f 14/14/6 15/15/8 26/26/26 25/25/25
f 15/15/8 16/16/10 27/27/27 26/26/26
f 16/16/10 17/17/12 28/28/28 27/27/27
f 17/17/12 18/18/14 29/29/29 28/28/28
f 18/18/14 19/19/16 30/30/30 29/29/29
f 19/19/16 20/20/18 31/31/31 30/30/30
f 20/20/18 21/21/20 32/32/32 31/31/31
f 21/21/20 22/22/22 33/33/33 32/32/32
f 23/23/24 24/24/23 35/35/34 34/34/35
f 24/24/23 25/25/25 36/36/36 35/35/34
f 25/25/25 26/26/26 37/37/37 36/36/36
f 26/26/26 27/27/27 38/38/38 37/37/37
f 27/27/27 28/28/28 39/39/39 38/38/38
f 28/28/28 29/29/29 40/40/40 39/39/39
f 29/29/29 30/30/30 41/41/41 40/40/40
f 30/30/30 31/31/31 42/42/42 41/41/41
f 31/31/31 32/32/32 43/43/43 42/42/42
f 32/32/32 33/33/33 44/44/44 43/43/43
f 34/34/35 35/35/34 46/46/45 45/45/46
f 35/35/34 36/36/36 47/47/47 46/46/45
f 36/36/36 37/37/37 48/48/48 47/47/47
f 37/37/37 38/38/38 49/49/49 48/48/48
f 38/38/38 39/39/39 50/50/50 49/49/49
f 39/39/39 40/40/40 51/51/51 50/50/50
f 40/40/40 41/41/41 52/52/52 51/51/51
f 41/41/41 42/42/42 53/53/53 52/52/52
f 42/42/42 43/43/43 54/54/54 53/53/53
f 43/43/43 44/44/44 55/55/55 54/54/54
f 45/45/46 46/46/45 57/57/56 56/56/57
f 46/46/45 47/47/47 58/58/58 57/57/56
f 47/47/47 48/48/48 59/59/59 58/58/58
f 48/48/48 49/49/49 60/60/60 59/59/59
f 49/49/49 50/50/50 61/61/61 60/60/60
f 50/50/50 51/51/51 62/62/62 61/61/61
f 51/51/51 52/52/52 63/63/63 62/62/62
f 52/52/52 53/53/53 64/64/64 63/63/63
f 53/53/53 54/54/54 65/65/65 64/64/64
f 54/54/54 55/55/55 66/66/66 65/65/65
f 56/56/57 57/57/56 68/68/67 67/67/68
f 57/57/56 58/58/58 69/69/69 68/68/67
f 58/58/58 59/59/59 70/70/70 69/69/69
f 59/59/59 60/60/60 71/71/71 70/70/70
f 60/60/60 61/61/61 72/72/72 71/71/71
f 61/61/61 62/62/62 73/73/73 72/72/72
f 62/62/62 63/63/63 74/74/74 73/73/73
f 63/63/63 64/64/64 75/75/75 74/74/74
f 64/64/64 65/65/65 76/76/76 75/75/75
f 65/65/65 66/66/66 77/77/77 76/76/76
f 67/67/68 68/68/67 79/79/78 78/78/79
f 68/68/67 69/69/69 80/80/80 79/79/78
f 69/69/69 70/70/70 81/81/81 80/80/80
f 70/70/70 71/71/71 82/82/82 81/81/81
f 71/71/71 72/72/72 83/83/83 82/82/82
f 72/72/72 73/73/73 84/84/84 83/83/83
f 73/73/73 74/74/74 85/85/85 84/84/84
f 74/74/74 75/75/75 86/86/86 85/85/85
f 75/75/75 76/76/76 87/87/87 86/86/86
f 76/76/76 77/77/77 88/88/88 87/87/87
f 78/78/79 79/79/78 90/90/89 89/89/90
f 79/79/78 80/80/80 91/91/91 90/90/89
f 80/80/80 81/81/81 92/92/92 91/91/91
f 81/81/81 82/82/82 93/93/93 92/92/92
f 82/82/82 83/83/83 94/94/94 93/93/93
f 83/83/83 84/84/84 95/95/95 94/94/94
f 84/84/84 85/85/85 96/96/96 95/95/95
f 85/85/85 86/86/86 97/97/97 96/96/96
f 86/86/86 87/87/87 98/98/98 97/97/97
f 87/87/87 88/88/88 99/99/99 98/98/98
f 89/89/90 90/90/89 101/101/100 100/100/101
f 90/90/89 91/91/91 102/102/102 101/101/100
f 91/91/91 92/92/92 103/103/103 102/102/102
f 92/92/92 93/93/93 104/104/104 103/103/103
f 93/93/93 94/94/94 105/105/105 104/104/104
f 94/94/94 95/95/95 106/106/106 105/105/105
f 95/95/95 96/96/96 107/107/107 106/106/106
f 96/96/96 97/97/97 108/108/108 107/107/107
f 97/97/97 98/98/98 109/109/109 108/108/108
f 98/98/98 99/99/99 110/110/110 109/109/109
f 100/100/101 101/101/100 112/112/111 111/111/112
f 101/101/100 102/102/102 113/113/113 112/112/111
f 102/102/102 103/103/103 114/114/114 113/113/113
f 103/103/103 104/104/104 115/115/115 114/114/114
f 104/104/104 105/105/105 116/116/116 115/115/115
f 105/105/105 106/106/106 117/117/117 116/116/116
f 106/106/106 107/107/107 118/118/118 117/117/117
f 107/107/107 108/108/108 119/119/119 118/118/118
f 108/108/108 109/109/109 120/120/120 119/119/119
f 109/109/109 110/110/110 121/121/121 120/120/120
