# This file uses centimeters as units for non-parametric coordinates.

mtllib rlg1.mtl
g default
v 0.001421 -15.749289 13.148188
v 2.754213 -15.749289 13.148135
v 5.507055 -15.748914 13.142951
v 8.259840 -15.746265 13.122316
v 11.012611 -15.748681 13.143575
v 13.780169 -15.715758 12.661643
v 16.518175 -15.749289 13.148188
v 19.270966 -15.749289 13.148188
v 22.023759 -15.749289 13.148188
v 24.776552 -15.749289 13.148188
v 27.529343 -15.749289 13.148188
v 0.001421 -12.996497 13.148088
v 2.755350 -12.995947 13.133099
v 5.507416 -12.999196 13.193636
v 8.227985 -12.918187 12.677321
v 11.007894 -12.995569 13.063093
v 13.697899 -12.899236 13.725255
v 16.502803 -13.017300 13.635361
v 19.271155 -12.997955 13.161149
v 22.023759 -12.996497 13.311558
v 24.776552 -12.996497 13.853598
v 27.529343 -12.996497 13.151632
v 0.001424 -10.243702 13.147522
v 2.754399 -10.243605 13.150234
v 5.504314 -10.245602 13.196809
v 8.272431 -10.043563 13.024778
v 10.927868 -10.184451 13.980155
v 13.849124 -10.219000 12.957024
v 16.484208 -10.259217 13.827797
v 19.244698 -10.253838 14.147084
v 22.021034 -10.226496 14.085202
v 24.776558 -10.241980 13.719991
v 27.529343 -10.243705 13.190183
v 0.001421 -7.490912 13.148188
v 2.754213 -7.490912 13.207648
v 5.505488 -7.486697 13.713311
v 8.223168 -7.417768 14.095407
v 10.972320 -7.585158 13.582022
v 13.745688 -7.516798 13.083478
v 16.451655 -7.543432 12.834842
v 19.267124 -7.482418 13.320198
v 22.016437 -7.470050 13.285558
v 24.771045 -7.463321 13.968096
v 27.529343 -7.490912 13.166797
v 0.001421 -4.738120 13.148188
v 2.762827 -4.732440 13.577713
v 5.619561 -4.648820 13.391671
v 8.200847 -4.852534 14.057536
v 10.978475 -5.007001 12.978944
v 13.039397 -5.123372 13.080396
v 15.708385 -5.726494 12.782539
v 19.106714 -4.664003 12.525492
v 21.883583 -4.596174 12.762073
v 24.780083 -4.734495 13.611787
v 27.529343 -4.738120 13.148188
v 0.001421 -2.082182 12.866617
v 2.754190 -1.669804 13.259034
v 5.597984 -1.381429 13.498292
v 8.275797 -2.275575 13.918715
v 10.388122 -2.253695 13.536955
v 13.578016 -2.218084 13.259010
v 16.755586 -3.717055 13.848697
v 20.620217 -3.043448 12.833674
v 22.219219 -1.958571 13.051897
v 24.827937 -1.951734 13.009269
v 27.529343 -2.082918 12.865917
v 0.001421 -0.240249 10.983477
v 2.749448 -0.206524 10.980582
v 5.827843 -0.271207 11.911363
v 8.450556 0.340016 11.998946
v 11.631934 0.083537 11.922907
v 13.780542 -0.068473 10.998726
v 16.704116 -0.027547 11.629948
v 20.246389 -0.899795 11.390117
v 22.121807 0.297787 10.990326
v 24.799273 -0.071615 10.986844
v 27.527744 -0.254074 10.983266
v 0.001421 -0.179934 8.231345
v 2.754213 -0.179934 8.231345
v 5.796531 -0.508713 9.128383
v 8.237585 -0.087748 9.520413
v 11.273785 -0.829182 9.201452
v 14.253564 0.096652 8.112279
v 16.820300 0.778785 8.382018
v 19.187185 0.263386 8.340912
v 22.003121 0.698318 8.249821
v 24.796716 0.016038 8.218234
v 27.529311 -0.180215 8.231342
v 0.001421 -0.119615 5.479216
v 2.754192 -0.119461 5.479219
v 5.602776 -0.513836 5.642215
v 8.370384 -1.151358 6.164757
v 10.959598 -0.267185 5.553154
v 13.893380 -0.339302 5.440103
v 16.544788 0.407996 5.557686
v 19.214769 0.507498 5.584629
v 22.043826 0.346712 5.464032
v 24.776628 -0.118681 5.479125
v 27.529343 -0.119615 5.479216
v 0.001421 -0.059297 2.727083
v 2.754213 -0.059297 2.727083
v 5.507155 -0.051423 2.725091
v 8.462883 0.458594 2.711720
v 11.042079 0.077728 2.680023
v 13.765304 -0.057825 2.727008
v 16.509082 0.115781 2.712943
v 19.279062 0.132006 2.710666
v 22.024123 -0.056146 2.726770
v 24.776552 -0.059297 2.727083
v 27.529343 -0.059297 2.727083
v 0.001421 0.001015 -0.025053
v 2.754213 0.001015 -0.025053
v 5.507005 0.001015 -0.025053
v 8.259799 0.000995 -0.025045
v 11.012590 0.001015 -0.025053
v 13.765382 0.001015 -0.025053
v 16.518175 0.001015 -0.025053
v 19.270966 0.001015 -0.025053
v 22.023759 0.001015 -0.025053
v 24.776552 0.001015 -0.025053
v 27.529343 0.001015 -0.025053
vt 0.000000 0.000000
vt 0.100000 0.000000
vt 0.200000 0.000000
vt 0.300000 0.000000
vt 0.400000 0.000000
vt 0.500000 0.000000
vt 0.600000 0.000000
vt 0.700000 0.000000
vt 0.800000 0.000000
vt 0.900000 0.000000
vt 1.000000 0.000000
vt 0.000000 0.100000
vt 0.100000 0.100000
vt 0.200000 0.100000
vt 0.300000 0.100000
vt 0.400000 0.100000
vt 0.500000 0.100000
vt 0.600000 0.100000
vt 0.700000 0.100000
vt 0.800000 0.100000
vt 0.900000 0.100000
vt 1.000000 0.100000
vt 0.000000 0.200000
vt 0.100000 0.200000
vt 0.200000 0.200000
vt 0.300000 0.200000
vt 0.400000 0.200000
vt 0.500000 0.200000
vt 0.600000 0.200000
vt 0.700000 0.200000
vt 0.800000 0.200000
vt 0.900000 0.200000
vt 1.000000 0.200000
vt 0.000000 0.300000
vt 0.100000 0.300000
vt 0.200000 0.300000
vt 0.300000 0.300000
vt 0.400000 0.300000
vt 0.500000 0.300000
vt 0.600000 0.300000
vt 0.700000 0.300000
vt 0.800000 0.300000
vt 0.900000 0.300000
vt 1.000000 0.300000
vt 0.000000 0.400000
vt 0.100000 0.400000
vt 0.200000 0.400000
vt 0.300000 0.400000
vt 0.400000 0.400000
vt 0.500000 0.400000
vt 0.600000 0.400000
vt 0.700000 0.400000
vt 0.800000 0.400000
vt 0.900000 0.400000
vt 1.000000 0.400000
vt 0.000000 0.500000
vt 0.100000 0.500000
vt 0.200000 0.500000
vt 0.300000 0.500000
vt 0.400000 0.500000
vt 0.500000 0.500000
vt 0.600000 0.500000
vt 0.700000 0.500000
vt 0.800000 0.500000
vt 0.900000 0.500000
vt 1.000000 0.500000
vt 0.000000 0.600000
vt 0.100000 0.600000
vt 0.200000 0.600000
vt 0.300000 0.600000
vt 0.400000 0.600000
vt 0.500000 0.600000
vt 0.600000 0.600000
vt 0.700000 0.600000
vt 0.800000 0.600000
vt 0.900000 0.600000
vt 1.000000 0.600000
vt 0.000000 0.700000
vt 0.100000 0.700000
vt 0.200000 0.700000
vt 0.300000 0.700000
vt 0.400000 0.700000
vt 0.500000 0.700000
vt 0.600000 0.700000
vt 0.700000 0.700000
vt 0.800000 0.700000
vt 0.900000 0.700000
vt 1.000000 0.700000
vt 0.000000 0.800000
vt 0.100000 0.800000
vt 0.200000 0.800000
vt 0.300000 0.800000
vt 0.400000 0.800000
vt 0.500000 0.800000
vt 0.600000 0.800000
vt 0.700000 0.800000
vt 0.800000 0.800000
vt 0.900000 0.800000
vt 1.000000 0.800000
vt 0.000000 0.900000
vt 0.100000 0.900000
vt 0.200000 0.900000
vt 0.300000 0.900000
vt 0.400000 0.900000
vt 0.500000 0.900000
vt 0.600000 0.900000
vt 0.700000 0.900000
vt 0.800000 0.900000
vt 0.900000 0.900000
vt 1.000000 0.900000
vt 0.000000 1.000000
vt 0.100000 1.000000
vt 0.200000 1.000000
vt 0.300000 1.000000
vt 0.400000 1.000000
vt 0.500000 1.000000
vt 0.600000 1.000000
vt 0.700000 1.000000
vt 0.800000 1.000000
vt 0.900000 1.000000
vt 1.000000 1.000000
vn 0.002732 0.002748 0.999992
vn -0.003659 -0.001860 0.999992
vn -0.006142 -0.002609 0.999978
vn 0.002481 -0.000130 0.999997
vn 0.043602 0.032472 0.998521
vn 0.049314 -0.000127 0.998783
vn 0.011288 0.082316 0.996542
vn -0.025693 -0.032819 0.999131
vn -0.050670 -0.039997 0.997914
vn -0.074144 -0.082914 0.993795
vn -0.053147 -0.223938 0.973153
vn -0.043912 -0.092193 0.994772
vn 0.002601 -0.183710 0.982977
vn -0.025356 -0.123624 0.992005
vn 0.029357 -0.061348 0.997685
vn 0.017961 -0.161486 0.986711
vn -0.062484 -0.094317 0.993579
vn -0.042653 -0.155160 0.986968
vn 0.014376 -0.141813 0.989789
vn 0.054960 -0.095110 0.993948
vn 0.125458 -0.126689 0.983977
vn 0.172663 -0.054898 0.983450
vn -0.032198 -0.030330 0.999021
vn -0.004530 -0.006779 0.999967
vn -0.001295 -0.112116 0.993694
vn -0.060929 -0.176916 0.982338
vn -0.004629 -0.082255 0.996601
vn 0.018524 0.073954 0.997090
vn -0.092147 0.095060 0.991198
vn -0.029705 0.023055 0.999293
vn -0.021870 -0.009129 0.999719
vn 0.094343 -0.010173 0.995488
vn 0.226487 -0.011317 0.973949
vn -0.064121 -0.047043 0.996833
vn -0.049900 -0.038738 0.998003
vn -0.090733 -0.086054 0.992150
vn 0.001025 -0.052857 0.998602
vn 0.143248 0.041329 0.988824
vn 0.089382 0.095201 0.991437
vn -0.073942 0.187994 0.979383
vn -0.057752 0.249141 0.966744
vn -0.089814 0.189291 0.977805
vn 0.032588 0.070347 0.996990
vn 0.229430 0.012939 0.973239
vn -0.075900 0.017180 0.996967
vn -0.122610 0.020619 0.992241
vn -0.111162 0.024876 0.993491
vn 0.034014 0.039422 0.998644
vn 0.161832 0.009814 0.986770
vn 0.007993 -0.059827 0.998177
vn 0.008393 -0.084475 0.996390
vn 0.079467 -0.113935 0.990305
vn -0.132640 0.107550 0.985312
vn -0.021587 0.112376 0.993431
vn 0.169324 0.112275 0.979144
vn -0.106279 0.444319 0.889543
vn -0.143561 0.446150 0.883369
vn -0.097624 0.435118 0.895065
vn 0.023125 0.281858 0.959177
vn 0.157011 0.285043 0.945568
vn 0.022927 0.343741 0.938785
vn 0.094832 0.156590 0.983100
vn 0.036611 0.287868 0.956970
vn -0.133865 0.411405 0.901568
vn 0.022752 0.441754 0.896847
vn 0.092354 0.457386 0.884460
vn -0.030190 0.966385 0.255321
vn -0.059177 0.941502 0.331770
vn -0.078808 0.942860 0.323736
vn 0.025866 0.944768 0.326718
vn 0.096240 0.910891 0.401266
vn -0.072755 0.905738 0.417548
vn 0.071105 0.797410 0.599233
vn -0.003217 0.760775 0.649008
vn -0.071031 0.896942 0.436404
vn 0.099730 0.909280 0.404060
vn 0.069311 0.921208 0.382847
vn 0.054537 0.998509 0.002253
vn -0.003073 0.999817 0.018867
vn 0.036019 0.996236 -0.078843
vn -0.001663 0.988204 -0.153134
vn -0.055971 0.992472 -0.108932
vn -0.181848 0.983327 0.000445
vn -0.000755 0.995686 0.092782
vn 0.037510 0.988176 0.148668
vn 0.012646 0.997370 0.071365
vn 0.125757 0.992058 0.002565
vn 0.052638 0.998582 0.007891
vn 0.050165 0.998129 0.034952
vn -0.000028 0.999760 0.021912
vn 0.060190 0.994674 0.083672
vn -0.005310 0.997866 0.065081
vn -0.052922 0.993667 0.099121
vn -0.125960 0.991894 0.016733
vn -0.098833 0.992837 -0.067130
vn 0.015350 0.997045 -0.075269
vn 0.076371 0.994040 -0.077791
vn 0.082395 0.995968 -0.035469
vn 0.018018 0.999829 0.004112
vn 0.016815 0.999081 0.039424
vn -0.000014 0.999760 0.021897
vn -0.007079 0.994864 0.100977
vn -0.020990 0.991852 0.125656
vn 0.017151 0.996341 0.083727
vn -0.032511 0.999089 0.027642
vn -0.056211 0.997514 -0.042493
vn 0.017992 0.996713 -0.078994
vn 0.045049 0.997782 -0.049009
vn 0.021479 0.999769 0.000630
vn 0.000085 0.999762 0.021826
vn -0.000711 0.999775 0.021199
vn 0.000000 0.999760 0.021909
vn -0.046134 0.998603 -0.025741
vn -0.016055 0.996314 -0.084261
vn 0.047510 0.997526 -0.051808
vn -0.003552 0.999970 -0.006841
vn -0.017231 0.999470 -0.027606
vn 0.015591 0.999451 -0.029232
vn 0.017379 0.999841 0.003954
vn 0.000285 0.999766 0.021624
vn 0.000000 0.999760 0.021909
s 1
g pPlane53 pisoespecial
usemtl initialShadingGroup
f 1/1/1 2/2/2 13/13/3 12/12/4
f 2/2/2 3/3/5 14/14/6 13/13/3
f 3/3/5 4/4/7 15/15/8 14/14/6
f 4/4/7 5/5/9 16/16/10 15/15/8
f 5/5/9 6/6/11 17/17/12 16/16/10
f 6/6/11 7/7/13 18/18/14 17/17/12
f 7/7/13 8/8/15 19/19/16 18/18/14
f 8/8/15 9/9/17 20/20/18 19/19/16
f 9/9/17 10/10/19 21/21/20 20/20/18
f 10/10/19 11/11/21 22/22/22 21/21/20
f 12/12/4 13/13/3 24/24/23 23/23/24
f 13/13/3 14/14/6 25/25/25 24/24/23
f 14/14/6 15/15/8 26/26/26 25/25/25
f 15/15/8 16/16/10 27/27/27 26/26/26
f 16/16/10 17/17/12 28/28/28 27/27/27
f 17/17/12 18/18/14 29/29/29 28/28/28
f 18/18/14 19/19/16 30/30/30 29/29/29
f 19/19/16 20/20/18 31/31/31 30/30/30
f 20/20/18 21/21/20 32/32/32 31/31/31
f 21/21/20 22/22/22 33/33/33 32/32/32
f 23/23/24 24/24/23 35/35/34 34/34/35
f 24/24/23 25/25/25 36/36/36 35/35/34
f 25/25/25 26/26/26 37/37/37 36/36/36
f 26/26/26 27/27/27 38/38/38 37/37/37
f 27/27/27 28/28/28 39/39/39 38/38/38
f 28/28/28 29/29/29 40/40/40 39/39/39
f 29/29/29 30/30/30 41/41/41 40/40/40
f 30/30/30 31/31/31 42/42/42 41/41/41
f 31/31/31 32/32/32 43/43/43 42/42/42
f 32/32/32 33/33/33 44/44/44 43/43/43
f 34/34/35 35/35/34 46/46/45 45/45/46
f 35/35/34 36/36/36 47/47/47 46/46/45
f 36/36/36 37/37/37 48/48/48 47/47/47
f 37/37/37 38/38/38 49/49/49 48/48/48
f 38/38/38 39/39/39 50/50/50 49/49/49
f 39/39/39 40/40/40 51/51/51 50/50/50
f 40/40/40 41/41/41 52/52/52 51/51/51
f 41/41/41 42/42/42 53/53/53 52/52/52
f 42/42/42 43/43/43 54/54/54 53/53/53
f 43/43/43 44/44/44 55/55/55 54/54/54
f 45/45/46 46/46/45 57/57/56 56/56/57
f 46/46/45 47/47/47 58/58/58 57/57/56
f 47/47/47 48/48/48 59/59/59 58/58/58
f 48/48/48 49/49/49 60/60/60 59/59/59
f 49/49/49 50/50/50 61/61/61 60/60/60
f 50/50/50 51/51/51 62/62/62 61/61/61
f 51/51/51 52/52/52 63/63/63 62/62/62
f 52/52/52 53/53/53 64/64/64 63/63/63
f 53/53/53 54/54/54 65/65/65 64/64/64
f 54/54/54 55/55/55 66/66/66 65/65/65
f 56/56/57 57/57/56 68/68/67 67/67/68
f 57/57/56 58/58/58 69/69/69 68/68/67
f 58/58/58 59/59/59 70/70/70 69/69/69
f 59/59/59 60/60/60 71/71/71 70/70/70
f 60/60/60 61/61/61 72/72/72 71/71/71
f 61/61/61 62/62/62 73/73/73 72/72/72
f 62/62/62 63/63/63 74/74/74 73/73/73
f 63/63/63 64/64/64 75/75/75 74/74/74
f 64/64/64 65/65/65 76/76/76 75/75/75
f 65/65/65 66/66/66 77/77/77 76/76/76
f 67/67/68 68/68/67 79/79/78 78/78/79
f 68/68/67 69/69/69 80/80/80 79/79/78
f 69/69/69 70/70/70 81/81/81 80/80/80
f 70/70/70 71/71/71 82/82/82 81/81/81
f 71/71/71 72/72/72 83/83/83 82/82/82
f 72/72/72 73/73/73 84/84/84 83/83/83
f 73/73/73 74/74/74 85/85/85 84/84/84
f 74/74/74 75/75/75 86/86/86 85/85/85
f 75/75/75 76/76/76 87/87/87 86/86/86
f 76/76/76 77/77/77 88/88/88 87/87/87
f 78/78/79 79/79/78 90/90/89 89/89/90
f 79/79/78 80/80/80 91/91/91 90/90/89
f 80/80/80 81/81/81 92/92/92 91/91/91
f 81/81/81 82/82/82 93/93/93 92/92/92
f 82/82/82 83/83/83 94/94/94 93/93/93
f 83/83/83 84/84/84 95/95/95 94/94/94
f 84/84/84 85/85/85 96/96/96 95/95/95
f 85/85/85 86/86/86 97/97/97 96/96/96
f 86/86/86 87/87/87 98/98/98 97/97/97
f 87/87/87 88/88/88 99/99/99 98/98/98
f 89/89/90 90/90/89 101/101/100 100/100/101
f 90/90/89 91/91/91 102/102/102 101/101/100
f 91/91/91 92/92/92 103/103/103 102/102/102
f 92/92/92 93/93/93 104/104/104 103/103/103
f 93/93/93 94/94/94 105/105/105 104/104/104
f 94/94/94 95/95/95 106/106/106 105/105/105
f 95/95/95 96/96/96 107/107/107 106/106/106
f 96/96/96 97/97/97 108/108/108 107/107/107
f 97/97/97 98/98/98 109/109/109 108/108/108
f 98/98/98 99/99/99 110/110/110 109/109/109
f 100/100/101 101/101/100 112/112/111 111/111/112
f 101/101/100 102/102/102 113/113/113 112/112/111
f 102/102/102 103/103/103 114/114/114 113/113/113
f 103/103/103 104/104/104 115/115/115 114/114/114
f 104/104/104 105/105/105 116/116/116 115/115/115
f 105/105/105 106/106/106 117/117/117 116/116/116
f 106/106/106 107/107/107 118/118/118 117/117/117
f 107/107/107 108/108/108 119/119/119 118/118/118
f 108/108/108 109/109/109 120/120/120 119/119/119
f 109/109/109 110/110/110 121/121/121 120/120/120
