# This file uses centimeters as units for non-parametric coordinates.

mtllib LibroOBJ.mtl
g default
v -2.579240 -3.348563 0.931560
v 2.579240 -3.348563 0.931560
v -2.579240 3.348563 0.931560
v 2.579240 3.348563 0.931560
v -2.579240 3.348563 -0.931560
v 2.579240 3.348563 -0.931560
v -2.579240 -3.348563 -0.931560
v 2.579240 -3.348563 -0.931560
v 2.579240 3.348563 0.000000
v 2.579240 -3.348563 -0.000000
v 2.579240 3.348563 0.838404
v -2.579240 3.348563 0.838404
v -2.579240 -3.348563 0.838404
v 2.579240 -3.348563 0.838404
v -2.579240 -3.348563 -0.838404
v 2.579240 -3.348563 -0.838404
v 2.579240 3.348563 -0.838404
v -2.579240 3.348563 -0.838404
v -2.579240 -3.348563 0.754564
v 2.579240 -3.348563 0.754564
v 2.579240 3.348563 0.754564
v -2.579240 3.348563 0.754564
v -2.579240 -3.348563 -0.754564
v 2.579240 -3.348563 -0.762218
v 2.579240 3.348563 -0.754564
v -2.579240 3.348563 -0.754564
v 1.830341 -3.348563 0.931560
v 1.830341 -3.348563 0.838404
v 1.830341 -3.348563 0.754564
v 1.830341 -3.348563 0.000000
v 1.830341 -3.348563 -0.760688
v 1.830341 -3.348563 -0.838404
v 1.830341 -3.348563 -0.931560
v 1.830341 3.348563 -0.931560
v 1.830341 3.348563 -0.838404
v 1.830341 3.348563 -0.754564
v 1.830341 3.348563 0.000000
v 1.830341 3.348563 0.754564
v 1.830341 3.348563 0.838404
v 1.830341 3.348563 0.931560
v -2.462082 3.158434 -0.711894
v -2.462082 -3.158434 -0.711894
v -2.462082 -3.158434 0.711546
v -2.462082 3.158434 0.711546
v 1.713183 -3.158434 -0.000174
v 1.713183 -3.158434 0.711546
v 1.713183 -3.158434 -0.717670
v 1.713183 3.158434 -0.000174
v 1.713183 3.158434 -0.711894
v 1.713183 3.158434 0.711546
vt 0.690185 0.541746
vt 0.690185 0.518076
vt 0.694918 0.518076
vt 0.694918 0.541746
vt 0.690185 0.542929
vt 0.694918 0.542929
vt 0.690185 0.589084
vt 0.690185 0.565415
vt 0.694918 0.565415
vt 0.694918 0.589084
vt 0.690185 0.612753
vt 0.690185 0.611570
vt 0.694918 0.611570
vt 0.694918 0.612753
vt 0.696102 0.518076
vt 0.696102 0.541746
vt 0.670066 0.541746
vt 0.670066 0.518076
vt 0.671249 0.518076
vt 0.671249 0.541746
vt 0.690185 0.563166
vt 0.690185 0.553580
vt 0.694918 0.553580
vt 0.694918 0.563166
vt 0.690185 0.600919
vt 0.690185 0.591255
vt 0.694918 0.591236
vt 0.694918 0.600919
vt 0.706753 0.541746
vt 0.706753 0.518076
vt 0.716436 0.518076
vt 0.716339 0.541746
vt 0.690185 0.543994
vt 0.694918 0.543994
vt 0.669001 0.541746
vt 0.669001 0.518076
vt 0.690185 0.610505
vt 0.694918 0.610505
vt 0.697167 0.518076
vt 0.697167 0.541746
vt 0.690185 0.590268
vt 0.694918 0.590268
vt 0.717404 0.541746
vt 0.717404 0.518076
vt 0.718588 0.518076
vt 0.718588 0.541746
vt 0.690185 0.564231
vt 0.694918 0.564231
vt 0.647580 0.518076
vt 0.648763 0.518076
vt 0.648763 0.541746
vt 0.647580 0.541746
vt 0.649828 0.518076
vt 0.649828 0.541746
vt 0.671249 0.611570
vt 0.671249 0.612753
vt 0.671249 0.610505
vt 0.671249 0.590268
vt 0.671249 0.591333
vt 0.671249 0.589084
vt 0.671249 0.565415
vt 0.671249 0.564231
vt 0.671249 0.563166
vt 0.671249 0.542929
vt 0.671249 0.543994
vt 0.649828 0.518076
vt 0.649828 0.541746
vt 0.669001 0.541746
vt 0.669001 0.518076
vt 0.690185 0.610505
vt 0.690185 0.600919
vt 0.671249 0.610505
vt 0.690185 0.591255
vt 0.671249 0.591333
vt 0.690185 0.563166
vt 0.690185 0.553580
vt 0.671249 0.563166
vt 0.690185 0.543994
vt 0.671249 0.543994
vt 0.690185 0.553580
vt 0.690185 0.543994
vt 0.690185 0.543994
vt 0.690185 0.543994
vt 0.690185 0.543994
vt 0.690185 0.543994
vt 0.690185 0.563166
vt 0.690185 0.563166
vt 0.690185 0.563166
vt 0.690185 0.563166
vt 0.690185 0.563166
vt 0.690185 0.553580
vt 0.690185 0.553580
vt 0.690185 0.553580
vt 0.690185 0.600919
vt 0.690185 0.591255
vt 0.690185 0.591255
vt 0.690185 0.591255
vt 0.690185 0.591255
vt 0.690185 0.591255
vt 0.690185 0.610505
vt 0.690185 0.610505
vt 0.690185 0.610505
vt 0.690185 0.610505
vt 0.690185 0.610505
vt 0.690185 0.600919
vt 0.690185 0.600919
vt 0.690185 0.600919
vt 0.671249 0.543994
vt 0.669001 0.541746
vt 0.669001 0.518076
vt 0.671249 0.610505
vt 0.671249 0.591333
vt 0.649828 0.518076
vt 0.649828 0.541746
vt 0.671249 0.563166
vt 0.690185 0.541746
vt 0.690185 0.541746
vt 0.690185 0.541746
vt 0.690185 0.612753
vt 0.690185 0.518076
vt 0.690185 0.542929
vt 0.690185 0.542929
vt 0.690185 0.542929
vt 0.690185 0.564231
vt 0.690185 0.564231
vt 0.690185 0.564231
vt 0.690185 0.565415
vt 0.690185 0.565415
vt 0.690185 0.565415
vt 0.690185 0.589084
vt 0.690185 0.589084
vt 0.690185 0.589084
vt 0.690185 0.590268
vt 0.690185 0.590268
vt 0.690185 0.590268
vt 0.690185 0.611570
vt 0.690185 0.611570
vt 0.690185 0.611570
vt 0.694918 0.541746
vt 0.694918 0.541746
vt 0.670066 0.541746
vt 0.671249 0.542929
vt 0.648763 0.541746
vt 0.671249 0.564231
vt 0.694918 0.565415
vt 0.694918 0.589084
vt 0.717404 0.518076
vt 0.694918 0.590268
vt 0.716436 0.518076
vt 0.694918 0.591236
vt 0.706753 0.518076
vt 0.694918 0.600919
vt 0.697167 0.518076
vt 0.694918 0.610505
vt 0.696102 0.518076
vt 0.694918 0.611570
vt 0.694918 0.518076
vt 0.716339 0.541746
vt 0.694918 0.563166
vt 0.694918 0.564231
vt 0.717404 0.541746
vt 0.697167 0.541746
vt 0.694918 0.543994
vt 0.694918 0.553580
vt 0.706753 0.541746
vt 0.670066 0.518076
vt 0.671249 0.611570
vt 0.671249 0.590268
vt 0.648763 0.518076
vt 0.671249 0.565415
vt 0.694918 0.542929
vt 0.696102 0.541746
vt 0.671249 0.518076
vt 0.671249 0.589084
vt 0.671249 0.541746
vt 0.671249 0.541746
vn 0.000000 0.000000 1.000000
vn 0.000000 0.000000 1.000000
vn 0.000000 0.000000 1.000000
vn 0.000000 0.000000 1.000000
vn 0.000000 1.000000 0.000000
vn 0.000000 1.000000 0.000000
vn 0.000000 1.000000 0.000000
vn 0.000000 1.000000 0.000000
vn 0.000000 0.000000 -1.000000
vn 0.000000 0.000000 -1.000000
vn 0.000000 0.000000 -1.000000
vn 0.000000 0.000000 -1.000000
vn 0.000000 -1.000000 0.000000
vn 0.000000 -1.000000 0.000000
vn 0.000000 -1.000000 0.000000
vn 0.000000 -1.000000 0.000000
vn 1.000000 0.000000 0.000000
vn 1.000000 0.000000 0.000000
vn 1.000000 0.000000 0.000000
vn 1.000000 0.000000 0.000000
vn -1.000000 0.000000 0.000000
vn -1.000000 0.000000 0.000000
vn -1.000000 0.000000 0.000000
vn -1.000000 0.000000 0.000000
vn 0.000000 1.000000 0.000000
vn 0.000000 1.000000 0.000000
vn 0.000000 1.000000 0.000000
vn 0.000000 1.000000 0.000000
vn 0.000000 -1.000000 0.000000
vn 0.000000 -1.000000 0.000000
vn 0.000000 -1.000000 0.000000
vn 0.000000 -1.000000 0.000000
vn 1.000000 0.000000 0.000000
vn 1.000000 0.000000 0.000000
vn 1.000000 0.000000 0.000000
vn 1.000000 0.000000 0.000000
vn 0.000000 1.000000 0.000000
vn 0.000000 1.000000 0.000000
vn -1.000000 0.000000 0.000000
vn -1.000000 0.000000 0.000000
vn 0.000000 -1.000000 0.000000
vn 0.000000 -1.000000 0.000000
vn 1.000000 0.000000 0.000000
vn 1.000000 0.000000 0.000000
vn 0.000000 -1.000000 0.000000
vn 0.000000 -1.000000 0.000000
vn 0.000000 -1.000000 0.000000
vn 0.000000 -1.000000 0.000000
vn 1.000000 0.000000 0.000000
vn 1.000000 0.000000 0.000000
vn 1.000000 0.000000 0.000000
vn 1.000000 0.000000 0.000000
vn 0.000000 1.000000 0.000000
vn 0.000000 1.000000 0.000000
vn 0.000000 1.000000 0.000000
vn 0.000000 1.000000 0.000000
vn -1.000000 0.000000 0.000000
vn -1.000000 0.000000 0.000000
vn -1.000000 0.000000 0.000000
vn -1.000000 0.000000 0.000000
vn -1.000000 0.000000 0.000000
vn -1.000000 0.000000 0.000000
vn 0.000000 -1.000000 0.000000
vn 0.000000 -1.000000 0.000000
vn 0.000000 -1.000000 0.000000
vn 0.000000 -1.000000 0.000000
vn 0.000000 -1.000000 0.000000
vn 0.000000 -1.000000 0.000000
vn 0.000000 0.000000 -1.000000
vn 0.000000 0.000000 -1.000000
vn 0.000000 1.000000 0.000000
vn 0.000000 1.000000 0.000000
vn 0.000000 1.000000 0.000000
vn 0.000000 1.000000 0.000000
vn 0.000000 1.000000 0.000000
vn 0.000000 1.000000 0.000000
vn 0.000000 0.000000 1.000000
vn 0.000000 0.000000 1.000000
vn -0.342217 0.000000 0.939621
vn -0.342217 0.000000 0.939621
vn -0.342217 0.000000 0.939621
vn -0.342217 0.000000 0.939621
vn -0.344675 0.000000 -0.938722
vn -0.344675 0.000000 -0.938722
vn -0.344675 0.000000 -0.938722
vn -0.344675 0.000000 -0.938722
vn -0.851347 -0.524602 0.000000
vn -0.851347 -0.524602 0.000000
vn -0.851347 -0.524602 0.000000
vn -0.851347 -0.524602 0.000000
vn 0.000000 -0.220676 -0.975347
vn 0.000000 -0.220676 -0.975347
vn 0.000000 -0.220676 -0.975347
vn 0.000000 -0.220676 -0.975347
vn 0.001352 -0.219828 0.975538
vn 0.001352 -0.219828 0.975538
vn 0.001352 -0.219828 0.975538
vn 0.001352 -0.219828 0.975538
vn -0.851348 -0.524602 0.000000
vn -0.851348 -0.524602 0.000000
vn -0.851348 -0.524602 0.000000
vn -0.851348 -0.524602 0.000000
vn -0.851347 0.524602 0.000000
vn -0.851347 0.524602 0.000000
vn -0.851347 0.524602 0.000000
vn -0.851347 0.524602 0.000000
vn 0.000000 0.218978 0.975730
vn 0.000000 0.218978 0.975730
vn 0.000000 0.218978 0.975730
vn 0.000000 0.218978 0.975730
vn 0.000000 0.220676 -0.975347
vn 0.000000 0.220676 -0.975347
vn 0.000000 0.220676 -0.975347
vn 0.000000 0.220676 -0.975347
vn -0.851347 0.524602 0.000000
vn -0.851347 0.524602 0.000000
vn -0.851347 0.524602 0.000000
vn -0.851347 0.524602 0.000000
s 1
g polySurface1 Libro
usemtl initialShadingGroup
f 40/118/1 27/2/2 2/3/3 4/140/4
s 2
f 39/123/5 40/117/6 4/4/7 11/6/8
s 3
f 33/132/9 34/128/10 6/9/11 8/146/12
s 4
f 27/11/13 28/137/14 14/13/15 2/14/16
s 5
f 2/157/17 14/15/18 11/16/19 4/139/20
s 6
f 12/17/21 13/166/22 1/19/23 3/176/24
s 2
f 36/89/25 37/91/26 9/164/27 25/159/28
s 4
f 30/106/29 31/96/30 24/27/31 10/152/32
s 5
f 9/29/33 10/151/34 24/31/35 25/158/36
s 2
f 38/83/37 39/122/5 11/171/8 21/163/38
s 6
f 22/35/39 19/110/40 13/18/22 12/141/21
s 4
f 28/138/14 29/102/41 20/38/42 14/156/15
s 5
f 11/172/19 14/155/18 20/39/43 21/162/44
s 4
f 32/135/45 33/131/46 8/10/47 16/148/48
s 5
f 17/43/49 16/147/50 8/45/51 6/46/52
s 2
f 34/129/53 35/125/54 17/160/55 6/145/56
s 12
f 7/49/57 15/169/58 18/143/59 5/52/60
s 4
f 29/103/41 30/105/29 10/28/32 20/154/42
s 5
f 21/40/44 20/153/43 10/30/34 9/165/33
s 2
f 37/92/26 38/82/37 21/34/38 9/23/27
s 4
f 31/97/30 32/134/45 16/42/48 24/150/31
s 5
f 25/32/36 24/149/35 16/44/50 17/161/49
s 2
f 35/126/54 36/88/25 25/24/28 17/48/55
s 12
f 18/51/59 15/50/58 23/53/61 26/114/62
s 4
f 13/55/63 28/136/14 27/119/13 1/56/64
f 19/57/65 29/101/41 28/12/14 13/167/63
f 15/58/66 32/133/45 31/98/30 23/112/67
f 7/60/68 33/130/46 32/41/45 15/168/66
s 3
f 5/61/69 34/127/10 33/7/9 7/174/70
s 2
f 18/144/71 35/124/54 34/8/53 5/170/72
f 26/63/73 36/87/25 35/47/54 18/62/71
f 12/142/74 39/121/5 38/84/37 22/108/75
f 3/20/76 40/116/6 39/5/5 12/64/74
s 1
f 1/173/77 27/120/2 40/1/1 3/175/78
s off
f 26/54/79 23/113/80 42/66/81 41/67/82
f 19/36/83 22/109/84 44/68/85 43/69/86
f 30/25/87 29/104/88 46/100/89 45/71/90
f 29/37/91 19/111/92 43/72/93 46/70/94
f 23/59/95 31/99/96 47/95/97 42/74/98
f 31/26/99 30/107/100 45/94/101 47/73/102
f 37/22/103 36/90/104 49/86/105 48/76/106
f 36/21/107 26/115/108 41/77/109 49/75/110
f 22/65/111 38/85/112 50/81/113 44/79/114
f 38/33/115 37/93/116 48/80/117 50/78/118
g default
v -2.462082 -3.158434 -0.000174
v -2.462082 3.158434 -0.000174
v -2.462082 3.158434 -0.711894
v -2.462082 -3.158434 -0.711894
v -2.462082 -3.158434 0.711546
v -2.462082 3.158434 0.711546
v 1.713183 -3.158434 -0.000174
v 1.713183 -3.158434 0.711546
v 1.713183 -3.158434 -0.717670
v 1.713183 3.158434 -0.000174
v 1.713183 3.158434 -0.711894
v 1.713183 3.158434 0.711546
v 1.713183 3.158434 -0.569550
v -2.462082 3.158434 -0.569550
v -2.462082 -3.158434 -0.569550
v 1.713183 -3.158434 -0.574171
v 1.713183 3.158434 0.569202
v -2.462082 3.158434 0.569202
v -2.462082 -3.158434 0.569202
v 1.713183 -3.158434 0.569202
v 1.713183 3.158434 0.398389
v -2.462082 3.158434 0.398389
v -2.462082 -3.158434 0.398389
v 1.713183 -3.158434 0.398389
v 1.713183 3.158434 0.199108
v -2.462082 3.158434 0.199108
v -2.462082 -3.158434 0.199108
v 1.713183 -3.158434 0.199108
v 1.713183 -3.158434 -0.401972
v -2.462082 -3.158434 -0.398737
v -2.462082 3.158434 -0.398737
v 1.713183 3.158434 -0.398737
v 1.713183 -3.158434 -0.201073
v -2.462082 -3.158434 -0.199455
v -2.462082 3.158434 -0.199455
v 1.713183 3.158434 -0.199455
v 1.713183 3.158434 -0.640722
v -2.462082 3.158434 -0.640722
v -2.462082 -3.158434 -0.640722
v 1.713183 -3.158434 -0.645920
v 1.713183 3.158434 -0.484143
v -2.462082 3.158434 -0.484143
v -2.462082 -3.158434 -0.484143
v 1.713183 -3.158434 -0.488071
v 1.713183 3.158434 -0.299096
v -2.462082 3.158434 -0.299096
v -2.462082 -3.158434 -0.299096
v 1.713183 -3.158434 -0.301522
v 1.713183 -3.158434 -0.100623
v -2.462082 -3.158434 -0.099815
v -2.462082 3.158434 -0.099815
v 1.713183 3.158434 -0.099815
v 1.713183 3.158434 0.099467
v -2.462082 3.158434 0.099467
v -2.462082 -3.158434 0.099467
v 1.713183 -3.158434 0.099467
v 1.713183 -3.158434 0.298749
v -2.462082 -3.158434 0.298749
v -2.462082 3.158434 0.298749
v 1.713183 3.158434 0.298749
v 1.713183 -3.158434 0.483796
v -2.462082 -3.158434 0.483796
v -2.462082 3.158434 0.483796
v 1.713183 3.158434 0.483796
v 1.713183 -3.158434 0.640374
v -2.462082 -3.158434 0.640374
v -2.462082 3.158434 0.640374
v 1.713183 3.158434 0.640374
vt 0.401034 0.943562
vt 0.401034 0.891686
vt 0.422043 0.891686
vt 0.422043 0.943562
vt 0.443053 0.891686
vt 0.443053 0.943562
vt 0.401412 0.968737
vt 0.442912 0.968737
vt 0.442912 0.989746
vt 0.401412 0.989746
vt 0.401412 0.947727
vt 0.442912 0.947557
vt 0.445493 0.917954
vt 0.486994 0.917954
vt 0.486994 0.938963
vt 0.445493 0.938963
vt 0.445493 0.896944
vt 0.486994 0.896944
vt 0.486994 0.934762
vt 0.405236 0.943562
vt 0.445493 0.934761
vt 0.405236 0.891686
vt 0.401412 0.951929
vt 0.442912 0.951793
vt 0.486994 0.901146
vt 0.438851 0.943562
vt 0.445493 0.901146
vt 0.438851 0.891686
vt 0.401412 0.985544
vt 0.442912 0.985544
vt 0.486994 0.906188
vt 0.433809 0.943562
vt 0.445493 0.906188
vt 0.433809 0.891686
vt 0.401412 0.980502
vt 0.442912 0.980502
vt 0.486994 0.912071
vt 0.427926 0.943562
vt 0.445493 0.912071
vt 0.427926 0.891686
vt 0.401412 0.974620
vt 0.442912 0.974620
vt 0.442912 0.956876
vt 0.410278 0.891686
vt 0.401412 0.956971
vt 0.410278 0.943562
vt 0.445493 0.929719
vt 0.486994 0.929719
vt 0.442912 0.962806
vt 0.416161 0.891686
vt 0.401412 0.962854
vt 0.416161 0.943562
vt 0.445493 0.923836
vt 0.486994 0.923836
vt 0.486994 0.936862
vt 0.403135 0.943562
vt 0.445493 0.936862
vt 0.403135 0.891686
vt 0.401412 0.949828
vt 0.442912 0.949675
vt 0.486994 0.932240
vt 0.407757 0.943562
vt 0.445493 0.932240
vt 0.407757 0.891686
vt 0.401412 0.954450
vt 0.442912 0.954334
vt 0.486994 0.926778
vt 0.413219 0.943562
vt 0.445493 0.926778
vt 0.413219 0.891686
vt 0.401412 0.959913
vt 0.442912 0.959841
vt 0.442912 0.965771
vt 0.419102 0.891686
vt 0.401412 0.965795
vt 0.419102 0.943562
vt 0.445493 0.920895
vt 0.486994 0.920895
vt 0.486994 0.915012
vt 0.424985 0.943562
vt 0.445493 0.915012
vt 0.424985 0.891686
vt 0.401412 0.971678
vt 0.442912 0.971678
vt 0.442912 0.977561
vt 0.430867 0.891686
vt 0.401412 0.977561
vt 0.430867 0.943562
vt 0.445493 0.909130
vt 0.486994 0.909130
vt 0.442912 0.983023
vt 0.436330 0.891686
vt 0.401412 0.983023
vt 0.436330 0.943562
vt 0.445493 0.903667
vt 0.486994 0.903667
vt 0.442912 0.987645
vt 0.440952 0.891686
vt 0.401412 0.987645
vt 0.440952 0.943562
vt 0.445493 0.899045
vt 0.486994 0.899045
vt 0.440952 0.943562
vt 0.445493 0.899045
vt 0.486994 0.899045
vt 0.401412 0.987645
vt 0.440952 0.891686
vt 0.442912 0.987645
vt 0.438851 0.943562
vt 0.445493 0.901146
vt 0.442912 0.985544
vt 0.436330 0.943562
vt 0.445493 0.903667
vt 0.486994 0.903667
vt 0.401412 0.983023
vt 0.436330 0.891686
vt 0.442912 0.983023
vt 0.486994 0.901146
vt 0.433809 0.943562
vt 0.445493 0.906188
vt 0.438851 0.891686
vt 0.401412 0.985544
vt 0.442912 0.980502
vt 0.430867 0.943562
vt 0.445493 0.909130
vt 0.486994 0.909130
vt 0.401412 0.977561
vt 0.430867 0.891686
vt 0.442912 0.977561
vt 0.486994 0.906188
vt 0.427926 0.943562
vt 0.445493 0.912071
vt 0.433809 0.891686
vt 0.401412 0.980502
vt 0.442912 0.974620
vt 0.424985 0.891686
vt 0.401412 0.971678
vt 0.442912 0.971678
vt 0.445493 0.915012
vt 0.424985 0.943562
vt 0.486994 0.915012
vt 0.442912 0.968737
vt 0.427926 0.891686
vt 0.401412 0.974620
vt 0.422043 0.943562
vt 0.445493 0.917954
vt 0.486994 0.912071
vt 0.419102 0.943562
vt 0.445493 0.920895
vt 0.486994 0.920895
vt 0.401412 0.965795
vt 0.419102 0.891686
vt 0.442912 0.965771
vt 0.486994 0.917954
vt 0.416161 0.943562
vt 0.445493 0.923836
vt 0.422043 0.891686
vt 0.401412 0.968737
vt 0.442912 0.962806
vt 0.413219 0.891686
vt 0.401412 0.959913
vt 0.442912 0.959841
vt 0.445493 0.926778
vt 0.413219 0.943562
vt 0.486994 0.926778
vt 0.442912 0.956876
vt 0.416161 0.891686
vt 0.401412 0.962854
vt 0.410278 0.943562
vt 0.445493 0.929719
vt 0.486994 0.923836
vt 0.407757 0.891686
vt 0.401412 0.954450
vt 0.442912 0.954334
vt 0.445493 0.932240
vt 0.407757 0.943562
vt 0.486994 0.932240
vt 0.442912 0.951793
vt 0.410278 0.891686
vt 0.401412 0.956971
vt 0.405236 0.943562
vt 0.445493 0.934761
vt 0.486994 0.929719
vt 0.403135 0.891686
vt 0.401412 0.949828
vt 0.442912 0.949675
vt 0.445493 0.936862
vt 0.403135 0.943562
vt 0.486994 0.936862
vt 0.405236 0.891686
vt 0.401412 0.951929
vt 0.486994 0.934762
vn -1.000000 0.000000 0.000000
vn -1.000000 0.000000 0.000000
vn -1.000000 0.000000 0.000000
vn -1.000000 0.000000 0.000000
vn -1.000000 0.000000 0.000000
vn -1.000000 0.000000 0.000000
vn -1.000000 0.000000 0.000000
vn -1.000000 0.000000 0.000000
vn -0.000000 -1.000000 0.000000
vn -0.000000 -1.000000 0.000000
vn -0.000000 -1.000000 0.000002
vn -0.000000 -1.000000 0.000002
vn 0.000000 -1.000000 0.000000
vn 0.000000 -1.000000 0.000000
vn 0.000000 -1.000000 0.000000
vn 0.000000 -1.000000 0.000000
vn 0.000000 1.000000 0.000000
vn 0.000000 1.000000 0.000000
vn -0.000000 1.000000 0.000000
vn -0.000000 1.000000 0.000000
vn 0.000000 1.000000 0.000002
vn 0.000000 1.000000 0.000002
vn 0.000000 1.000000 0.000000
vn 0.000000 1.000000 0.000000
vn -0.000000 1.000000 0.000000
vn -0.000000 1.000000 0.000000
vn -0.000000 1.000000 -0.000002
vn -0.000000 1.000000 -0.000002
vn -1.000000 0.000000 0.000000
vn -1.000000 0.000000 0.000000
vn -1.000000 0.000000 0.000000
vn -1.000000 0.000000 0.000000
vn 0.000000 -1.000000 -0.000002
vn 0.000000 -1.000000 -0.000002
vn 0.000000 -1.000000 0.000000
vn 0.000000 -1.000000 0.000000
vn 0.000000 1.000000 0.000000
vn 0.000000 1.000000 0.000000
vn 0.000000 1.000000 0.000000
vn 0.000000 1.000000 0.000000
vn -1.000000 0.000000 0.000000
vn -1.000000 0.000000 0.000000
vn -1.000000 0.000000 0.000000
vn -1.000000 0.000000 0.000000
vn 0.000000 -1.000000 0.000000
vn 0.000000 -1.000000 0.000000
vn -0.000000 -1.000000 0.000000
vn -0.000000 -1.000000 0.000000
vn 0.000000 1.000000 0.000000
vn 0.000000 1.000000 0.000000
vn 0.000000 1.000000 0.000000
vn 0.000000 1.000000 0.000000
vn -1.000000 0.000000 0.000000
vn -1.000000 0.000000 0.000000
vn -1.000000 0.000000 0.000000
vn -1.000000 0.000000 0.000000
vn 0.000000 -1.000000 0.000000
vn 0.000000 -1.000000 0.000000
vn 0.000000 -1.000000 0.000000
vn 0.000000 -1.000000 0.000000
vn 0.000000 1.000000 -0.000001
vn 0.000000 1.000000 -0.000001
vn -1.000000 0.000000 0.000000
vn -1.000000 0.000000 0.000000
vn 0.000000 -1.000000 -0.000001
vn 0.000000 -1.000000 -0.000001
vn 0.000000 -1.000000 0.000000
vn 0.000000 -1.000000 0.000000
vn 0.000000 -1.000000 0.000000
vn 0.000000 -1.000000 0.000000
vn -1.000000 0.000000 0.000000
vn -1.000000 0.000000 0.000000
vn -1.000000 0.000000 0.000000
vn -1.000000 0.000000 0.000000
vn 0.000000 1.000000 0.000000
vn 0.000000 1.000000 0.000000
vn 0.000000 1.000000 0.000000
vn 0.000000 1.000000 0.000000
vn 0.000000 -1.000000 0.000001
vn 0.000000 -1.000000 0.000001
vn -1.000000 0.000000 0.000000
vn -1.000000 0.000000 0.000000
vn 0.000000 1.000000 0.000001
vn 0.000000 1.000000 0.000001
vn -0.000000 1.000000 -0.000003
vn -0.000000 1.000000 -0.000003
vn -1.000000 0.000000 0.000000
vn -1.000000 0.000000 0.000000
vn 0.000000 -1.000000 -0.000003
vn 0.000000 -1.000000 -0.000003
vn 0.000000 -1.000000 0.000000
vn 0.000000 -1.000000 0.000000
vn -1.000000 0.000000 0.000000
vn -1.000000 0.000000 0.000000
vn 0.000000 1.000000 0.000000
vn 0.000000 1.000000 0.000000
vn -0.000000 -1.000000 0.000003
vn -0.000000 -1.000000 0.000003
vn -1.000000 0.000000 0.000000
vn -1.000000 0.000000 0.000000
vn 0.000000 1.000000 0.000003
vn 0.000000 1.000000 0.000003
s 1
g Libro polySurface2
usemtl initialShadingGroup
f 92/352/119 93/348/120 80/220/121 81/345/122
f 68/202/123 69/297/124 116/283/125 117/279/126
s 3
f 69/205/127 70/287/128 115/273/129 116/282/130
f 93/349/131 94/350/132 79/219/133 80/356/134
s 5
f 81/223/135 82/359/136 91/237/137 92/351/138
f 117/280/139 118/281/140 67/201/141 68/286/142
f 64/197/143 63/368/144 87/231/145 88/363/146
s 1
f 88/364/147 89/360/148 65/198/149 64/357/150
s 3
f 89/361/151 90/362/152 66/200/153 65/367/154
s 5
f 113/289/155 114/290/156 71/207/157 72/296/158
s 1
f 72/208/159 73/309/160 112/292/161 113/288/162
s 3
f 73/211/163 74/299/164 111/267/165 112/291/166
s 5
f 109/301/167 110/302/168 75/213/169 76/308/170
s 1
f 76/214/171 77/319/172 108/304/173 109/300/174
s 3
f 77/217/175 78/311/176 107/261/177 108/303/178
s 5
f 76/215/170 75/323/169 103/255/179 104/315/180
s 1
f 104/316/181 105/312/182 77/216/172 76/307/171
s 3
f 105/313/183 106/314/184 78/218/176 77/320/175
f 97/337/185 98/338/186 83/225/187 84/344/188
s 1
f 96/340/189 97/336/190 84/226/191 85/331/192
s 5
f 85/229/193 86/347/194 95/243/195 96/339/196
s 3
f 84/227/188 83/335/187 99/249/197 100/327/198
s 1
f 85/228/192 84/343/191 100/328/199 101/324/200
s 5
f 101/325/201 102/326/202 86/230/194 85/332/193
f 88/233/146 87/365/145 61/191/203 53/192/204
s 1
f 53/177/205 54/178/206 89/234/148 88/232/147
s 3
f 54/187/207 59/188/208 90/236/152 89/235/151
s 5
f 92/239/138 91/353/137 63/195/144 64/358/143
s 1
f 64/196/150 65/366/149 93/240/120 92/238/119
s 3
f 65/199/154 66/354/153 94/242/132 93/241/131
s 5
f 96/245/196 95/341/195 82/224/136 81/346/135
s 1
f 81/222/122 80/355/121 97/246/190 96/244/189
s 3
f 80/221/134 79/342/133 98/248/186 97/247/185
f 100/251/198 99/329/197 57/184/209 51/334/210
s 1
f 101/252/200 100/250/199 51/179/211 52/321/212
s 5
f 52/189/213 60/330/214 102/254/202 101/253/201
f 104/257/180 103/317/179 60/190/214 52/322/213
s 1
f 52/180/212 51/333/211 105/258/182 104/256/181
s 3
f 51/183/210 57/318/209 106/260/184 105/259/183
f 108/263/178 107/305/177 74/212/164 73/310/163
s 1
f 109/264/174 108/262/173 73/210/160 72/295/159
s 5
f 72/209/158 71/306/157 110/266/168 109/265/167
s 3
f 112/269/166 111/293/165 70/206/128 69/298/127
s 1
f 113/270/162 112/268/161 69/204/124 68/285/123
s 5
f 68/203/142 67/294/141 114/272/156 113/271/155
s 3
f 116/275/130 115/284/129 58/185/215 55/186/216
s 1
f 117/276/126 116/274/125 55/181/217 56/182/218
s 5
f 56/193/219 62/194/220 118/278/140 117/277/139
