# This file uses centimeters as units for non-parametric coordinates.

mtllib drc2.mtl
g default
v 0.001422 0.001016 -0.025053
v 2.754214 0.000962 -0.025053
v 5.507055 -0.004221 -0.024678
v 8.259840 -0.024857 -0.022029
v 11.012611 -0.003597 -0.024445
v 13.765382 0.001016 -0.025053
v 16.518175 0.001016 -0.025053
v 19.270966 0.001016 -0.025053
v 22.023759 0.001016 -0.025053
v 24.776552 0.001016 -0.025053
v 27.529343 0.001016 -0.025053
v 0.001422 0.000916 2.727747
v 2.755351 -0.014074 2.728296
v 5.507416 0.046463 2.725047
v 8.255799 0.148068 2.709483
v 11.012947 0.055335 2.720956
v 13.768991 0.117025 2.722237
v 16.502804 0.488188 2.706944
v 19.271156 0.013976 2.726288
v 22.023759 0.164385 2.727747
v 24.776552 0.706425 2.727747
v 27.529343 0.004459 2.727747
v 0.001424 0.000350 5.480550
v 2.754399 0.003062 5.480646
v 5.504314 0.049636 5.478649
v 8.223302 0.902712 5.518958
v 11.021442 0.742744 5.468062
v 13.821962 0.437633 5.472161
v 16.506063 0.743792 5.433588
v 19.253526 0.790332 5.472209
v 22.021035 0.938029 5.497755
v 24.776558 0.572818 5.482272
v 27.529343 0.043010 5.480546
v 0.001422 0.001016 8.233347
v 2.754214 0.060475 8.233347
v 5.507456 0.544575 8.240144
v 8.240263 0.996848 8.232071
v 11.039773 1.292632 8.154951
v 13.906182 1.363475 7.975520
v 16.583453 1.210471 7.921184
v 19.261164 0.403307 8.239626
v 22.023126 0.243019 8.246628
v 24.772412 0.791345 8.258175
v 27.529343 0.019624 8.233347
v 0.001422 0.001016 10.986147
v 2.754214 0.509432 10.986147
v 5.559868 0.787261 11.027094
v 8.275254 1.285061 10.552025
v 10.991967 1.143157 10.827907
v 13.889632 1.849922 10.082305
v 16.679998 2.109756 10.026897
v 19.385867 1.455215 10.507374
v 21.995137 0.745603 10.883382
v 24.791695 0.868227 11.008252
v 27.529343 0.001016 10.986147
v 0.001422 0.307727 14.254356
v 2.754191 0.572470 13.750412
v 5.589189 1.169794 13.087697
v 8.314036 2.219387 12.080395
v 11.100562 2.639032 11.733307
v 13.944929 2.965975 11.346917
v 16.778454 2.594186 11.688579
v 19.728108 1.103133 13.053636
v 22.165141 1.297324 12.835469
v 24.828233 0.857245 13.726795
v 27.529343 0.307255 14.255255
v 0.001422 2.826846 15.553562
v 2.749448 2.830811 15.519948
v 5.500862 3.048033 14.035634
v 8.294254 3.785024 12.918787
v 11.115833 4.040866 12.318669
v 13.923705 4.199535 12.165618
v 16.706389 4.146755 12.658947
v 19.495049 3.683638 13.294825
v 22.140974 3.422179 13.898674
v 24.799685 2.832365 15.375433
v 27.527744 2.826618 15.567386
v 0.001422 5.579507 15.580685
v 2.754214 5.579507 15.580685
v 5.497713 5.587241 15.374666
v 8.261495 5.849740 13.364300
v 11.100862 5.895457 13.000706
v 13.856511 5.800643 13.251414
v 16.626844 6.120243 13.507838
v 19.394937 6.051803 13.804538
v 22.103898 5.887820 14.261645
v 24.796716 5.598834 15.385229
v 27.529311 5.579498 15.580967
v 0.001422 8.332157 15.607804
v 2.754192 8.332166 15.607650
v 5.504422 8.339475 15.118680
v 8.269933 8.441848 13.696376
v 11.113794 8.585876 13.213889
v 13.809997 8.448823 14.074084
v 16.549519 8.482195 14.316893
v 19.339777 8.514168 14.378274
v 22.081039 8.481296 14.705956
v 24.821905 8.401158 15.069600
v 27.529343 8.332157 15.607804
v 0.001422 11.084824 15.634927
v 2.754214 11.084824 15.634927
v 5.507006 11.084824 15.634927
v 8.260328 11.087681 15.610958
v 11.013833 11.090875 15.583967
v 13.765305 11.084944 15.633455
v 16.509083 11.104505 15.460385
v 19.279062 11.107299 15.444232
v 22.032150 11.103347 15.510541
v 24.788196 11.103506 15.489175
v 27.522569 11.084871 15.634562
v 0.001422 13.837476 15.662048
v 2.754214 13.837476 15.662048
v 5.507006 13.837476 15.662048
v 8.259799 13.837476 15.662048
v 11.012590 13.837476 15.662048
v 13.765382 13.837476 15.662048
v 16.518175 13.837476 15.662048
v 19.270966 13.837476 15.662048
v 22.023759 13.837476 15.662048
v 24.776552 13.837476 15.662048
v 27.529343 13.837476 15.662048
vt 0.000000 0.000000
vt 0.100000 0.000000
vt 0.200000 0.000000
vt 0.300000 0.000000
vt 0.400000 0.000000
vt 0.500000 0.000000
vt 0.600000 0.000000
vt 0.700000 0.000000
vt 0.800000 0.000000
vt 0.900000 0.000000
vt 1.000000 0.000000
vt 0.000000 0.100000
vt 0.100000 0.100000
vt 0.200000 0.100000
vt 0.300000 0.100000
vt 0.400000 0.100000
vt 0.500000 0.100000
vt 0.600000 0.100000
vt 0.700000 0.100000
vt 0.800000 0.100000
vt 0.900000 0.100000
vt 1.000000 0.100000
vt 0.000000 0.200000
vt 0.100000 0.200000
vt 0.200000 0.200000
vt 0.300000 0.200000
vt 0.400000 0.200000
vt 0.500000 0.200000
vt 0.600000 0.200000
vt 0.700000 0.200000
vt 0.800000 0.200000
vt 0.900000 0.200000
vt 1.000000 0.200000
vt 0.000000 0.300000
vt 0.100000 0.300000
vt 0.200000 0.300000
vt 0.300000 0.300000
vt 0.400000 0.300000
vt 0.500000 0.300000
vt 0.600000 0.300000
vt 0.700000 0.300000
vt 0.800000 0.300000
vt 0.900000 0.300000
vt 1.000000 0.300000
vt 0.000000 0.400000
vt 0.100000 0.400000
vt 0.200000 0.400000
vt 0.300000 0.400000
vt 0.400000 0.400000
vt 0.500000 0.400000
vt 0.600000 0.400000
vt 0.700000 0.400000
vt 0.800000 0.400000
vt 0.900000 0.400000
vt 1.000000 0.400000
vt 0.000000 0.500000
vt 0.100000 0.500000
vt 0.200000 0.500000
vt 0.300000 0.500000
vt 0.400000 0.500000
vt 0.500000 0.500000
vt 0.600000 0.500000
vt 0.700000 0.500000
vt 0.800000 0.500000
vt 0.900000 0.500000
vt 1.000000 0.500000
vt 0.000000 0.600000
vt 0.100000 0.600000
vt 0.200000 0.600000
vt 0.300000 0.600000
vt 0.400000 0.600000
vt 0.500000 0.600000
vt 0.600000 0.600000
vt 0.700000 0.600000
vt 0.800000 0.600000
vt 0.900000 0.600000
vt 1.000000 0.600000
vt 0.000000 0.700000
vt 0.100000 0.700000
vt 0.200000 0.700000
vt 0.300000 0.700000
vt 0.400000 0.700000
vt 0.500000 0.700000
vt 0.600000 0.700000
vt 0.700000 0.700000
vt 0.800000 0.700000
vt 0.900000 0.700000
vt 1.000000 0.700000
vt 0.000000 0.800000
vt 0.100000 0.800000
vt 0.200000 0.800000
vt 0.300000 0.800000
vt 0.400000 0.800000
vt 0.500000 0.800000
vt 0.600000 0.800000
vt 0.700000 0.800000
vt 0.800000 0.800000
vt 0.900000 0.800000
vt 1.000000 0.800000
vt 0.000000 0.900000
vt 0.100000 0.900000
vt 0.200000 0.900000
vt 0.300000 0.900000
vt 0.400000 0.900000
vt 0.500000 0.900000
vt 0.600000 0.900000
vt 0.700000 0.900000
vt 0.800000 0.900000
vt 0.900000 0.900000
vt 1.000000 0.900000
vt 0.000000 1.000000
vt 0.100000 1.000000
vt 0.200000 1.000000
vt 0.300000 1.000000
vt 0.400000 1.000000
vt 0.500000 1.000000
vt 0.600000 1.000000
vt 0.700000 1.000000
vt 0.800000 1.000000
vt 0.900000 1.000000
vt 1.000000 1.000000
vn 0.002732 0.999992 0.002748
vn -0.003659 0.999992 -0.001860
vn -0.006142 0.999978 -0.002609
vn 0.002481 0.999997 -0.000130
vn -0.012426 0.999645 -0.023585
vn -0.054775 0.997384 -0.047168
vn -0.000868 0.999137 -0.041530
vn -0.032251 0.992235 -0.120119
vn 0.000485 0.999313 -0.037050
vn 0.022099 0.991399 -0.128991
vn -0.039750 0.996709 -0.070644
vn -0.038923 0.993467 -0.107277
vn 0.009620 0.994938 -0.100024
vn -0.006727 0.992417 -0.122735
vn 0.029357 0.997685 -0.061348
vn 0.020672 0.989038 -0.146209
vn -0.062484 0.993579 -0.094317
vn -0.052313 0.987941 -0.145726
vn 0.014376 0.989789 -0.141812
vn 0.054960 0.993948 -0.095110
vn 0.125458 0.983977 -0.126688
vn 0.172663 0.983450 -0.054898
vn -0.031214 0.999082 -0.029348
vn -0.004530 0.999967 -0.006779
vn -0.129095 0.987915 -0.085784
vn -0.096869 0.983481 -0.152912
vn 0.023092 0.977935 -0.207628
vn -0.019931 0.978504 -0.205265
vn 0.014321 0.989276 -0.145354
vn 0.040380 0.996483 -0.073424
vn -0.029140 0.999191 -0.027710
vn 0.098907 0.995023 -0.012140
vn 0.224052 0.974538 -0.008743
vn -0.086086 0.993198 -0.078397
vn -0.057064 0.997314 -0.045924
vn -0.160192 0.981360 -0.106162
vn -0.118524 0.988983 -0.088687
vn -0.041999 0.991109 -0.126253
vn -0.040211 0.971561 -0.233352
vn 0.098936 0.964380 -0.245324
vn 0.152813 0.980080 -0.126854
vn 0.003379 0.999649 -0.026270
vn 0.095357 0.995297 -0.017037
vn 0.257782 0.965937 -0.022670
vn -0.135392 0.986889 -0.087863
vn -0.124174 0.989768 -0.070286
vn -0.198624 0.968200 -0.152108
vn -0.151490 0.957629 -0.244946
vn -0.119976 0.921037 -0.370536
vn -0.107609 0.921707 -0.372661
vn 0.186638 0.927188 -0.324792
vn 0.253315 0.942676 -0.217238
vn 0.051681 0.987681 -0.147701
vn 0.136616 0.988199 -0.069269
vn 0.270720 0.962173 -0.030543
vn -0.217069 0.845250 -0.488296
vn -0.140667 0.847441 -0.511915
vn -0.349142 0.764982 -0.541205
vn -0.292842 0.641855 -0.708707
vn -0.166044 0.564082 -0.808852
vn -0.045026 0.654790 -0.754468
vn 0.318873 0.725097 -0.610372
vn 0.260050 0.732718 -0.628886
vn 0.208697 0.807280 -0.552037
vn 0.275802 0.828471 -0.487410
vn 0.236600 0.849861 -0.470911
vn -0.193691 0.332152 -0.923125
vn -0.060331 0.292728 -0.954290
vn -0.407574 0.371745 -0.834080
vn -0.363381 0.347982 -0.864212
vn -0.122137 0.399548 -0.908540
vn 0.043189 0.486651 -0.872528
vn 0.220602 0.390622 -0.893728
vn 0.232236 0.258907 -0.937568
vn 0.316580 0.257251 -0.913016
vn 0.282333 0.290516 -0.914269
vn 0.122082 0.280448 -0.952074
vn -0.109880 0.059911 -0.992138
vn -0.003072 0.012896 -0.999912
vn -0.371026 0.130515 -0.919405
vn -0.370653 0.169096 -0.913249
vn -0.022306 0.240533 -0.970385
vn 0.102147 0.348605 -0.931687
vn 0.100300 0.333819 -0.937286
vn 0.149295 0.238884 -0.959502
vn 0.271930 0.113917 -0.955551
vn 0.236027 0.011631 -0.971677
vn 0.101894 -0.023965 -0.994507
vn -0.053720 0.019236 -0.998371
vn -0.000028 0.009852 -0.999952
vn -0.267869 0.126344 -0.955135
vn -0.263992 0.313976 -0.911991
vn 0.027694 0.416191 -0.908855
vn 0.109091 0.411840 -0.904703
vn 0.033641 0.364636 -0.930542
vn 0.069732 0.304867 -0.949839
vn 0.137241 0.198319 -0.970481
vn 0.149305 0.069257 -0.986363
vn 0.129482 0.013312 -0.991493
vn -0.022207 0.032068 -0.999239
vn -0.000014 0.009866 -0.999951
vn -0.088954 0.140067 -0.986138
vn -0.092337 0.305548 -0.947689
vn 0.015576 0.371028 -0.928491
vn 0.039184 0.309426 -0.950116
vn -0.005395 0.252188 -0.967663
vn 0.020974 0.223242 -0.974537
vn 0.035715 0.174269 -0.984050
vn 0.053037 0.101129 -0.993459
vn 0.076272 0.059302 -0.995322
vn 0.000000 0.009852 -0.999952
vn 0.000000 0.009852 -0.999952
vn -0.002180 0.012032 -0.999925
vn -0.004637 0.018850 -0.999812
vn 0.002046 0.021445 -0.999768
vn -0.011267 0.030676 -0.999466
vn -0.017232 0.059335 -0.998089
vn 0.004527 0.072031 -0.997392
vn 0.004108 0.063344 -0.997983
vn 0.011311 0.047901 -0.998788
vn 0.026593 0.036504 -0.998980
s 1
g pPlane43 pisoespecial
usemtl initialShadingGroup
f 1/1/1 2/2/2 13/13/3 12/12/4
f 2/2/2 3/3/5 14/14/6 13/13/3
f 3/3/5 4/4/7 15/15/8 14/14/6
f 4/4/7 5/5/9 16/16/10 15/15/8
f 5/5/9 6/6/11 17/17/12 16/16/10
f 6/6/11 7/7/13 18/18/14 17/17/12
f 7/7/13 8/8/15 19/19/16 18/18/14
f 8/8/15 9/9/17 20/20/18 19/19/16
f 9/9/17 10/10/19 21/21/20 20/20/18
f 10/10/19 11/11/21 22/22/22 21/21/20
f 12/12/4 13/13/3 24/24/23 23/23/24
f 13/13/3 14/14/6 25/25/25 24/24/23
f 14/14/6 15/15/8 26/26/26 25/25/25
f 15/15/8 16/16/10 27/27/27 26/26/26
f 16/16/10 17/17/12 28/28/28 27/27/27
f 17/17/12 18/18/14 29/29/29 28/28/28
f 18/18/14 19/19/16 30/30/30 29/29/29
f 19/19/16 20/20/18 31/31/31 30/30/30
f 20/20/18 21/21/20 32/32/32 31/31/31
f 21/21/20 22/22/22 33/33/33 32/32/32
f 23/23/24 24/24/23 35/35/34 34/34/35
f 24/24/23 25/25/25 36/36/36 35/35/34
f 25/25/25 26/26/26 37/37/37 36/36/36
f 26/26/26 27/27/27 38/38/38 37/37/37
f 27/27/27 28/28/28 39/39/39 38/38/38
f 28/28/28 29/29/29 40/40/40 39/39/39
f 29/29/29 30/30/30 41/41/41 40/40/40
f 30/30/30 31/31/31 42/42/42 41/41/41
f 31/31/31 32/32/32 43/43/43 42/42/42
f 32/32/32 33/33/33 44/44/44 43/43/43
f 34/34/35 35/35/34 46/46/45 45/45/46
f 35/35/34 36/36/36 47/47/47 46/46/45
f 36/36/36 37/37/37 48/48/48 47/47/47
f 37/37/37 38/38/38 49/49/49 48/48/48
f 38/38/38 39/39/39 50/50/50 49/49/49
f 39/39/39 40/40/40 51/51/51 50/50/50
f 40/40/40 41/41/41 52/52/52 51/51/51
f 41/41/41 42/42/42 53/53/53 52/52/52
f 42/42/42 43/43/43 54/54/54 53/53/53
f 43/43/43 44/44/44 55/55/55 54/54/54
f 45/45/46 46/46/45 57/57/56 56/56/57
f 46/46/45 47/47/47 58/58/58 57/57/56
f 47/47/47 48/48/48 59/59/59 58/58/58
f 48/48/48 49/49/49 60/60/60 59/59/59
f 49/49/49 50/50/50 61/61/61 60/60/60
f 50/50/50 51/51/51 62/62/62 61/61/61
f 51/51/51 52/52/52 63/63/63 62/62/62
f 52/52/52 53/53/53 64/64/64 63/63/63
f 53/53/53 54/54/54 65/65/65 64/64/64
f 54/54/54 55/55/55 66/66/66 65/65/65
f 56/56/57 57/57/56 68/68/67 67/67/68
f 57/57/56 58/58/58 69/69/69 68/68/67
f 58/58/58 59/59/59 70/70/70 69/69/69
f 59/59/59 60/60/60 71/71/71 70/70/70
f 60/60/60 61/61/61 72/72/72 71/71/71
f 61/61/61 62/62/62 73/73/73 72/72/72
f 62/62/62 63/63/63 74/74/74 73/73/73
f 63/63/63 64/64/64 75/75/75 74/74/74
f 64/64/64 65/65/65 76/76/76 75/75/75
f 65/65/65 66/66/66 77/77/77 76/76/76
f 67/67/68 68/68/67 79/79/78 78/78/79
f 68/68/67 69/69/69 80/80/80 79/79/78
f 69/69/69 70/70/70 81/81/81 80/80/80
f 70/70/70 71/71/71 82/82/82 81/81/81
f 71/71/71 72/72/72 83/83/83 82/82/82
f 72/72/72 73/73/73 84/84/84 83/83/83
f 73/73/73 74/74/74 85/85/85 84/84/84
f 74/74/74 75/75/75 86/86/86 85/85/85
f 75/75/75 76/76/76 87/87/87 86/86/86
f 76/76/76 77/77/77 88/88/88 87/87/87
f 78/78/79 79/79/78 90/90/89 89/89/90
f 79/79/78 80/80/80 91/91/91 90/90/89
f 80/80/80 81/81/81 92/92/92 91/91/91
f 81/81/81 82/82/82 93/93/93 92/92/92
f 82/82/82 83/83/83 94/94/94 93/93/93
f 83/83/83 84/84/84 95/95/95 94/94/94
f 84/84/84 85/85/85 96/96/96 95/95/95
f 85/85/85 86/86/86 97/97/97 96/96/96
f 86/86/86 87/87/87 98/98/98 97/97/97
f 87/87/87 88/88/88 99/99/99 98/98/98
f 89/89/90 90/90/89 101/101/100 100/100/101
f 90/90/89 91/91/91 102/102/102 101/101/100
f 91/91/91 92/92/92 103/103/103 102/102/102
f 92/92/92 93/93/93 104/104/104 103/103/103
f 93/93/93 94/94/94 105/105/105 104/104/104
f 94/94/94 95/95/95 106/106/106 105/105/105
f 95/95/95 96/96/96 107/107/107 106/106/106
f 96/96/96 97/97/97 108/108/108 107/107/107
f 97/97/97 98/98/98 109/109/109 108/108/108
f 98/98/98 99/99/99 110/110/110 109/109/109
f 100/100/101 101/101/100 112/112/111 111/111/112
f 101/101/100 102/102/102 113/113/113 112/112/111
f 102/102/102 103/103/103 114/114/114 113/113/113
f 103/103/103 104/104/104 115/115/115 114/114/114
f 104/104/104 105/105/105 116/116/116 115/115/115
f 105/105/105 106/106/106 117/117/117 116/116/116
f 106/106/106 107/107/107 118/118/118 117/117/117
f 107/107/107 108/108/108 119/119/119 118/118/118
f 108/108/108 109/109/109 120/120/120 119/119/119
f 109/109/109 110/110/110 121/121/121 120/120/120
