# This file uses centimeters as units for non-parametric coordinates.

mtllib fgdcr1.mtl
g default
v 0.001421 0.001016 -0.025051
v 2.754213 0.000962 -0.025051
v 5.507055 -0.004221 -0.025426
v 8.259840 -0.024857 -0.028075
v 11.012611 -0.003597 -0.025659
v 13.780169 -0.000482 -0.058582
v 16.518171 0.000819 -0.025077
v 19.270947 -0.000482 -0.025206
v 22.023759 0.001016 -0.025051
v 24.776552 0.001016 -0.025051
v 27.529343 0.001016 -0.025051
v 0.001421 0.000916 -2.777843
v 2.755350 -0.014074 -2.778393
v 5.495874 -0.023026 -2.778301
v 8.222949 -0.321651 -2.842551
v 11.002702 0.031088 -2.774063
v 13.700795 0.486987 -2.874833
v 16.499259 0.488745 -2.747251
v 19.276412 -0.648248 -2.561519
v 22.015262 0.290031 -2.749067
v 24.776171 0.701627 -2.778052
v 27.529343 0.004459 -2.777843
v 0.001424 0.000350 -5.530638
v 2.756345 -0.026137 -5.532691
v 5.496464 -0.172092 -5.558136
v 8.257085 0.260149 -5.673919
v 10.929775 0.400949 -5.577218
v 13.740815 -0.122661 -5.539900
v 16.202996 0.920559 -5.752613
v 19.178080 0.718976 -5.282184
v 22.024411 0.611259 -5.528499
v 24.844725 1.376159 -5.484764
v 27.529343 0.043010 -5.530635
v 0.001421 0.001016 -8.283428
v 2.737071 0.472889 -8.269592
v 5.577388 -0.091345 -8.339769
v 8.263459 0.433602 -8.363221
v 10.949050 0.063131 -8.384317
v 13.497446 0.086369 -7.814940
v 16.511173 0.872556 -7.573108
v 19.383180 0.234699 -8.173162
v 21.782888 0.845598 -8.254681
v 24.785975 1.594228 -8.282129
v 27.529343 0.019624 -8.283428
v 0.001421 0.001016 -11.036220
v 2.698366 0.127436 -10.995550
v 5.554014 0.143091 -11.100865
v 7.988437 0.042615 -10.770661
v 10.355551 -0.803427 -10.554256
v 12.325291 0.127436 -10.271511
v 15.983525 0.280543 -8.947139
v 19.256216 -0.302654 -10.019682
v 21.950773 0.414350 -11.050731
v 24.802720 1.868060 -11.013741
v 27.529343 0.001016 -11.036220
v 0.717917 -1.427381 -24.376713
v 3.389063 -0.558640 -23.528767
v 5.695370 -1.152623 -21.773078
v 7.544221 -0.380520 -19.800529
v 9.357170 -0.850217 -18.755779
v 11.822242 -1.071925 -17.250952
v 14.715456 -0.547135 -14.492922
v 19.419126 -0.370072 -11.490482
v 20.874350 -0.698485 -12.419304
v 23.322198 -0.208106 -12.490989
v 26.721749 -0.418841 -12.357694
v 1.902179 -2.576387 -26.580162
v 4.460480 -2.221107 -25.472072
v 6.813502 -1.777977 -23.265264
v 8.883453 -2.095295 -21.740795
v 11.541833 -2.524221 -20.214715
v 14.049991 -2.378939 -20.104140
v 16.347865 -2.381143 -18.178698
v 19.656720 -2.580046 -16.244176
v 21.240569 -1.774422 -16.044951
v 23.452804 -1.542420 -14.753341
v 26.046901 -1.608567 -13.433345
v 3.086642 -3.724468 -28.783980
v 5.511410 -3.724468 -27.480767
v 7.810742 -3.569019 -25.205910
v 10.061270 -2.652657 -23.861187
v 12.683454 -3.508880 -22.579723
v 15.695602 -4.328769 -21.648177
v 17.916050 -3.871769 -20.630900
v 20.068616 -3.803682 -19.805653
v 22.730697 -3.634795 -19.079321
v 25.213002 -3.096143 -17.728904
v 27.334235 -3.724724 -15.751753
v 4.271105 -4.872550 -30.987800
v 6.695886 -4.872410 -29.684653
v 9.059290 -4.941512 -28.160617
v 11.187721 -5.270641 -25.919766
v 13.782536 -4.995538 -25.790658
v 16.481779 -5.012955 -24.102744
v 19.093469 -5.750189 -22.186752
v 21.291854 -5.293950 -21.790477
v 23.873451 -4.924394 -21.059898
v 26.483394 -4.602976 -20.141093
v 28.518783 -4.872550 -17.955661
v 5.455569 -6.020632 -33.191620
v 7.880336 -6.020632 -31.888407
v 10.307712 -6.014414 -30.589730
v 12.814964 -6.720525 -28.858203
v 15.277121 -5.756660 -28.118435
v 17.579676 -6.019338 -26.676214
v 19.920362 -6.281783 -25.255699
v 22.451395 -5.964729 -24.097781
v 24.798581 -6.151535 -22.732120
v 27.592543 -5.414597 -22.058579
v 29.703246 -6.020632 -20.159482
v 6.640032 -7.168714 -35.395440
v 9.064802 -7.168714 -34.092224
v 11.489568 -7.168714 -32.789010
v 13.914329 -7.168728 -31.485787
v 16.339103 -7.168714 -30.182584
v 18.763870 -7.168714 -28.879371
v 21.188637 -7.168714 -27.576157
v 23.613406 -7.168714 -26.272944
v 26.038175 -7.168714 -24.969729
v 28.462942 -7.168714 -23.666514
v 30.887709 -7.168714 -22.363302
vt 0.000000 0.000000
vt 0.100000 0.000000
vt 0.200000 0.000000
vt 0.300000 0.000000
vt 0.400000 0.000000
vt 0.500000 0.000000
vt 0.600000 0.000000
vt 0.700000 0.000000
vt 0.800000 0.000000
vt 0.900000 0.000000
vt 1.000000 0.000000
vt 0.000000 0.100000
vt 0.100000 0.100000
vt 0.200000 0.100000
vt 0.300000 0.100000
vt 0.400000 0.100000
vt 0.500000 0.100000
vt 0.600000 0.100000
vt 0.700000 0.100000
vt 0.800000 0.100000
vt 0.900000 0.100000
vt 1.000000 0.100000
vt 0.000000 0.200000
vt 0.100000 0.200000
vt 0.200000 0.200000
vt 0.300000 0.200000
vt 0.400000 0.200000
vt 0.500000 0.200000
vt 0.600000 0.200000
vt 0.700000 0.200000
vt 0.800000 0.200000
vt 0.900000 0.200000
vt 1.000000 0.200000
vt 0.000000 0.300000
vt 0.100000 0.300000
vt 0.200000 0.300000
vt 0.300000 0.300000
vt 0.400000 0.300000
vt 0.500000 0.300000
vt 0.600000 0.300000
vt 0.700000 0.300000
vt 0.800000 0.300000
vt 0.900000 0.300000
vt 1.000000 0.300000
vt 0.000000 0.400000
vt 0.100000 0.400000
vt 0.200000 0.400000
vt 0.300000 0.400000
vt 0.400000 0.400000
vt 0.500000 0.400000
vt 0.600000 0.400000
vt 0.700000 0.400000
vt 0.800000 0.400000
vt 0.900000 0.400000
vt 1.000000 0.400000
vt 0.000000 0.500000
vt 0.100000 0.500000
vt 0.200000 0.500000
vt 0.300000 0.500000
vt 0.400000 0.500000
vt 0.500000 0.500000
vt 0.600000 0.500000
vt 0.700000 0.500000
vt 0.800000 0.500000
vt 0.900000 0.500000
vt 1.000000 0.500000
vt 0.000000 0.600000
vt 0.100000 0.600000
vt 0.200000 0.600000
vt 0.300000 0.600000
vt 0.400000 0.600000
vt 0.500000 0.600000
vt 0.600000 0.600000
vt 0.700000 0.600000
vt 0.800000 0.600000
vt 0.900000 0.600000
vt 1.000000 0.600000
vt 0.000000 0.700000
vt 0.100000 0.700000
vt 0.200000 0.700000
vt 0.300000 0.700000
vt 0.400000 0.700000
vt 0.500000 0.700000
vt 0.600000 0.700000
vt 0.700000 0.700000
vt 0.800000 0.700000
vt 0.900000 0.700000
vt 1.000000 0.700000
vt 0.000000 0.800000
vt 0.100000 0.800000
vt 0.200000 0.800000
vt 0.300000 0.800000
vt 0.400000 0.800000
vt 0.500000 0.800000
vt 0.600000 0.800000
vt 0.700000 0.800000
vt 0.800000 0.800000
vt 0.900000 0.800000
vt 1.000000 0.800000
vt 0.000000 0.900000
vt 0.100000 0.900000
vt 0.200000 0.900000
vt 0.300000 0.900000
vt 0.400000 0.900000
vt 0.500000 0.900000
vt 0.600000 0.900000
vt 0.700000 0.900000
vt 0.800000 0.900000
vt 0.900000 0.900000
vt 1.000000 0.900000
vt 0.000000 1.000000
vt 0.100000 1.000000
vt 0.200000 1.000000
vt 0.300000 1.000000
vt 0.400000 1.000000
vt 0.500000 1.000000
vt 0.600000 1.000000
vt 0.700000 1.000000
vt 0.800000 1.000000
vt 0.900000 1.000000
vt 1.000000 1.000000
vn 0.002732 0.999992 -0.002748
vn 0.002652 0.999987 -0.004447
vn 0.010244 0.999897 -0.010075
vn 0.005130 0.999984 -0.002520
vn 0.030219 0.999037 -0.031804
vn 0.016840 0.999849 -0.004196
vn -0.005494 0.998646 -0.051732
vn -0.031721 0.998827 0.036594
vn -0.074053 0.996972 0.023733
vn -0.058591 0.997339 0.043383
vn -0.042430 0.989915 0.135161
vn -0.068962 0.996385 0.049617
vn 0.097930 0.992441 0.073956
vn 0.058714 0.990606 0.123502
vn 0.017558 0.998627 -0.049360
vn 0.025985 0.992078 0.122909
vn -0.121255 0.990877 0.058818
vn -0.141048 0.977703 0.155569
vn 0.026338 0.987964 0.152427
vn 0.050169 0.986806 0.153937
vn 0.124614 0.984192 0.125845
vn 0.239774 0.962536 0.126619
vn 0.021670 0.998898 0.041634
vn -0.036667 0.998347 0.044261
vn -0.005973 0.998706 0.050501
vn -0.063087 0.995888 0.065017
vn 0.009812 0.999727 0.021216
vn -0.099568 0.994866 -0.018130
vn -0.046407 0.997540 0.052535
vn 0.036928 0.989526 0.139554
vn -0.173143 0.976208 0.130538
vn 0.104378 0.988764 0.107014
vn 0.414178 0.907189 0.073930
vn 0.010484 0.999518 0.029230
vn -0.094924 0.995376 0.014691
vn -0.005269 0.999621 0.027009
vn 0.002820 0.997214 -0.074543
vn 0.039159 0.993263 -0.109061
vn -0.098454 0.994154 -0.044330
vn -0.021967 0.991379 -0.129171
vn -0.051511 0.984119 -0.169874
vn -0.251301 0.967100 -0.039578
vn 0.112565 0.993121 0.032255
vn 0.503177 0.863529 0.033622
vn -0.028109 0.996609 -0.077327
vn -0.157008 0.983973 -0.084532
vn 0.030514 0.997056 -0.070338
vn 0.096890 0.991308 -0.089000
vn 0.082236 0.991248 -0.103269
vn -0.072837 0.989933 -0.121354
vn 0.014791 0.985976 -0.166232
vn -0.025174 0.979514 -0.199797
vn -0.311747 0.904998 -0.289471
vn 0.114499 0.951529 -0.285453
vn 0.456619 0.840448 -0.291798
vn -0.024270 0.986070 -0.164549
vn -0.132936 0.972745 -0.189988
vn 0.136486 0.979265 -0.149707
vn 0.076398 0.985926 -0.148704
vn 0.237881 0.955398 -0.175007
vn 0.027701 0.975388 -0.218748
vn 0.114836 0.959669 -0.256610
vn 0.068444 0.959335 -0.273845
vn -0.181428 0.900420 -0.395382
vn -0.007199 0.812665 -0.582686
vn 0.212711 0.679406 -0.702254
vn 0.224779 0.848261 -0.479509
vn 0.085518 0.854090 -0.513046
vn 0.283765 0.861803 -0.420444
vn 0.296264 0.890125 -0.346272
vn 0.250282 0.890983 -0.378826
vn 0.204869 0.879775 -0.428980
vn 0.220287 0.900040 -0.376034
vn 0.113845 0.913372 -0.390885
vn -0.053369 0.905146 -0.421738
vn 0.156372 0.885694 -0.437143
vn 0.295759 0.822898 -0.485144
vn 0.242578 0.882529 -0.402862
vn 0.179872 0.891570 -0.415630
vn 0.286739 0.846106 -0.449316
vn 0.260028 0.876316 -0.405531
vn 0.252991 0.891018 -0.376939
vn 0.258319 0.876365 -0.406516
vn 0.217873 0.862386 -0.456971
vn 0.081911 0.874136 -0.478723
vn 0.041663 0.872291 -0.487209
vn 0.260766 0.879623 -0.397824
vn 0.408875 0.853942 -0.321877
vn 0.214459 0.912793 -0.347587
vn 0.197418 0.908879 -0.367377
vn 0.297926 0.895646 -0.330240
vn 0.229290 0.865851 -0.444666
vn 0.124468 0.914649 -0.384609
vn 0.264371 0.930002 -0.255353
vn 0.155306 0.915015 -0.372328
vn 0.040746 0.893898 -0.446415
vn 0.065637 0.873112 -0.483081
vn 0.236498 0.896895 -0.373695
vn 0.424639 0.873370 -0.238550
vn 0.199961 0.911759 -0.358763
vn 0.197437 0.908873 -0.367382
vn 0.270545 0.922804 -0.274297
vn 0.136539 0.938624 -0.316769
vn 0.085837 0.927407 -0.364071
vn 0.247720 0.931994 -0.264616
vn 0.164110 0.951832 -0.259007
vn 0.099246 0.938261 -0.331386
vn 0.108298 0.890438 -0.442030
vn 0.231413 0.873978 -0.427330
vn 0.398115 0.866416 -0.301377
vn 0.197122 0.908581 -0.368270
vn 0.197443 0.908879 -0.367364
vn 0.227901 0.932603 -0.279845
vn 0.132116 0.950830 -0.280122
vn 0.125010 0.913907 -0.386196
vn 0.247298 0.906629 -0.341858
vn 0.171444 0.927673 -0.331707
vn 0.172844 0.920122 -0.351426
vn 0.159546 0.880427 -0.446535
vn 0.248325 0.837732 -0.486354
vn 0.398858 0.820430 -0.409642
s 1
g curvderinclinf pisoespecial
usemtl initialShadingGroup
f 1/1/1 2/2/2 13/13/3 12/12/4
f 2/2/2 3/3/5 14/14/6 13/13/3
f 3/3/5 4/4/7 15/15/8 14/14/6
f 4/4/7 5/5/9 16/16/10 15/15/8
f 5/5/9 6/6/11 17/17/12 16/16/10
f 6/6/11 7/7/13 18/18/14 17/17/12
f 7/7/13 8/8/15 19/19/16 18/18/14
f 8/8/15 9/9/17 20/20/18 19/19/16
f 9/9/17 10/10/19 21/21/20 20/20/18
f 10/10/19 11/11/21 22/22/22 21/21/20
f 12/12/4 13/13/3 24/24/23 23/23/24
f 13/13/3 14/14/6 25/25/25 24/24/23
f 14/14/6 15/15/8 26/26/26 25/25/25
f 15/15/8 16/16/10 27/27/27 26/26/26
f 16/16/10 17/17/12 28/28/28 27/27/27
f 17/17/12 18/18/14 29/29/29 28/28/28
f 18/18/14 19/19/16 30/30/30 29/29/29
f 19/19/16 20/20/18 31/31/31 30/30/30
f 20/20/18 21/21/20 32/32/32 31/31/31
f 21/21/20 22/22/22 33/33/33 32/32/32
f 23/23/24 24/24/23 35/35/34 34/34/35
f 24/24/23 25/25/25 36/36/36 35/35/34
f 25/25/25 26/26/26 37/37/37 36/36/36
f 26/26/26 27/27/27 38/38/38 37/37/37
f 27/27/27 28/28/28 39/39/39 38/38/38
f 28/28/28 29/29/29 40/40/40 39/39/39
f 29/29/29 30/30/30 41/41/41 40/40/40
f 30/30/30 31/31/31 42/42/42 41/41/41
f 31/31/31 32/32/32 43/43/43 42/42/42
f 32/32/32 33/33/33 44/44/44 43/43/43
f 34/34/35 35/35/34 46/46/45 45/45/46
f 35/35/34 36/36/36 47/47/47 46/46/45
f 36/36/36 37/37/37 48/48/48 47/47/47
f 37/37/37 38/38/38 49/49/49 48/48/48
f 38/38/38 39/39/39 50/50/50 49/49/49
f 39/39/39 40/40/40 51/51/51 50/50/50
f 40/40/40 41/41/41 52/52/52 51/51/51
f 41/41/41 42/42/42 53/53/53 52/52/52
f 42/42/42 43/43/43 54/54/54 53/53/53
f 43/43/43 44/44/44 55/55/55 54/54/54
f 45/45/46 46/46/45 57/57/56 56/56/57
f 46/46/45 47/47/47 58/58/58 57/57/56
f 47/47/47 48/48/48 59/59/59 58/58/58
f 48/48/48 49/49/49 60/60/60 59/59/59
f 49/49/49 50/50/50 61/61/61 60/60/60
f 50/50/50 51/51/51 62/62/62 61/61/61
f 51/51/51 52/52/52 63/63/63 62/62/62
f 52/52/52 53/53/53 64/64/64 63/63/63
f 53/53/53 54/54/54 65/65/65 64/64/64
f 54/54/54 55/55/55 66/66/66 65/65/65
f 56/56/57 57/57/56 68/68/67 67/67/68
f 57/57/56 58/58/58 69/69/69 68/68/67
f 58/58/58 59/59/59 70/70/70 69/69/69
f 59/59/59 60/60/60 71/71/71 70/70/70
f 60/60/60 61/61/61 72/72/72 71/71/71
f 61/61/61 62/62/62 73/73/73 72/72/72
f 62/62/62 63/63/63 74/74/74 73/73/73
f 63/63/63 64/64/64 75/75/75 74/74/74
f 64/64/64 65/65/65 76/76/76 75/75/75
f 65/65/65 66/66/66 77/77/77 76/76/76
f 67/67/68 68/68/67 79/79/78 78/78/79
f 68/68/67 69/69/69 80/80/80 79/79/78
f 69/69/69 70/70/70 81/81/81 80/80/80
f 70/70/70 71/71/71 82/82/82 81/81/81
f 71/71/71 72/72/72 83/83/83 82/82/82
f 72/72/72 73/73/73 84/84/84 83/83/83
f 73/73/73 74/74/74 85/85/85 84/84/84
f 74/74/74 75/75/75 86/86/86 85/85/85
f 75/75/75 76/76/76 87/87/87 86/86/86
f 76/76/76 77/77/77 88/88/88 87/87/87
f 78/78/79 79/79/78 90/90/89 89/89/90
f 79/79/78 80/80/80 91/91/91 90/90/89
f 80/80/80 81/81/81 92/92/92 91/91/91
f 81/81/81 82/82/82 93/93/93 92/92/92
f 82/82/82 83/83/83 94/94/94 93/93/93
f 83/83/83 84/84/84 95/95/95 94/94/94
f 84/84/84 85/85/85 96/96/96 95/95/95
f 85/85/85 86/86/86 97/97/97 96/96/96
f 86/86/86 87/87/87 98/98/98 97/97/97
f 87/87/87 88/88/88 99/99/99 98/98/98
f 89/89/90 90/90/89 101/101/100 100/100/101
f 90/90/89 91/91/91 102/102/102 101/101/100
f 91/91/91 92/92/92 103/103/103 102/102/102
f 92/92/92 93/93/93 104/104/104 103/103/103
f 93/93/93 94/94/94 105/105/105 104/104/104
f 94/94/94 95/95/95 106/106/106 105/105/105
f 95/95/95 96/96/96 107/107/107 106/106/106
f 96/96/96 97/97/97 108/108/108 107/107/107
f 97/97/97 98/98/98 109/109/109 108/108/108
f 98/98/98 99/99/99 110/110/110 109/109/109
f 100/100/101 101/101/100 112/112/111 111/111/112
f 101/101/100 102/102/102 113/113/113 112/112/111
f 102/102/102 103/103/103 114/114/114 113/113/113
f 103/103/103 104/104/104 115/115/115 114/114/114
f 104/104/104 105/105/105 116/116/116 115/115/115
f 105/105/105 106/106/106 117/117/117 116/116/116
f 106/106/106 107/107/107 118/118/118 117/117/117
f 107/107/107 108/108/108 119/119/119 118/118/118
f 108/108/108 109/109/109 120/120/120 119/119/119
f 109/109/109 110/110/110 121/121/121 120/120/120
