# This file uses centimeters as units for non-parametric coordinates.

mtllib fgl1.mtl
g default
v 0.001421 0.001016 -0.025054
v 2.754213 0.000962 -0.025054
v 5.507055 -0.004221 -0.025428
v 8.259840 -0.024857 -0.028077
v 11.012611 -0.003597 -0.025661
v 13.780169 -0.000482 -0.058584
v 16.518171 0.000819 -0.025079
v 19.270947 -0.000482 -0.025209
v 22.023759 0.001016 -0.025054
v 24.776552 0.001016 -0.025054
v 27.529343 0.001016 -0.025054
v 0.001421 0.000916 -2.777845
v 2.755350 -0.014074 -2.778395
v 5.511208 0.567469 -2.781913
v 8.222949 -0.321651 -2.842553
v 11.002702 0.031088 -2.774065
v 13.700795 0.486987 -2.874835
v 16.505588 0.540157 -2.755527
v 19.288260 0.650291 -2.697592
v 22.015424 0.345409 -2.752952
v 24.776161 0.701528 -2.778062
v 27.529343 0.004459 -2.777845
v 0.001424 0.000350 -5.530641
v 2.756345 -0.026137 -5.532693
v 5.465872 0.670738 -5.672297
v 8.257085 0.260149 -5.673921
v 10.939020 0.693871 -5.593499
v 13.849150 0.536394 -5.576087
v 16.495193 0.557117 -5.485745
v 19.254468 0.788094 -5.503071
v 22.026003 0.600821 -5.528567
v 24.780358 0.620290 -5.529851
v 27.529343 0.043010 -5.530637
v 0.001421 0.001016 -8.283430
v 2.737071 0.472889 -8.269594
v 5.574965 0.384655 -8.391274
v 8.263459 0.433602 -8.363223
v 10.948383 -0.087493 -8.216200
v 13.765478 1.360687 -8.159644
v 16.609806 1.181458 -7.707100
v 19.351460 0.316343 -8.261940
v 22.047094 0.073632 -8.239158
v 24.771616 0.831402 -8.310139
v 27.529343 0.019624 -8.283430
v 0.001421 0.001016 -11.036222
v 2.701087 1.222782 -10.961118
v 5.576288 0.477732 -11.121308
v 8.074311 1.046824 -10.861170
v 10.828574 1.129147 -10.642957
v 12.804379 0.971251 -10.463904
v 15.919596 0.603667 -9.245484
v 19.126222 0.506319 -11.247476
v 21.848307 1.376018 -11.120342
v 24.786579 0.876727 -11.099604
v 27.529343 0.001016 -11.036222
v -0.176296 0.002031 -12.115594
v 2.493274 0.571282 -12.787261
v 5.246494 0.816813 -13.490101
v 7.938119 0.696944 -13.172686
v 9.976268 1.551018 -13.930060
v 12.869318 1.708425 -14.622424
v 16.772453 1.179342 -14.209252
v 20.422470 0.997474 -16.368880
v 21.508601 0.622925 -17.539758
v 23.929384 0.351851 -18.227260
v 26.519662 0.001016 -18.832159
v -0.008850 0.001016 -13.742426
v 2.479995 0.034667 -14.907463
v 5.656911 0.111646 -15.377694
v 8.059434 0.977754 -16.381724
v 10.922737 0.445943 -17.797143
v 12.503793 0.036251 -19.518513
v 15.446216 0.404633 -20.276812
v 18.895623 -0.509663 -21.939565
v 20.083749 1.194906 -23.131687
v 22.463901 0.169682 -24.226168
v 24.936738 -0.012810 -25.379267
v -1.172609 0.001016 -16.237125
v 1.322090 0.001016 -17.400884
v 4.500849 -0.367325 -17.882750
v 6.990870 -0.193136 -18.444313
v 9.460018 -0.313513 -20.133073
v 11.905160 0.398295 -22.292473
v 14.179248 0.674544 -23.378117
v 16.314792 1.381123 -24.438942
v 18.874177 1.439328 -25.667903
v 21.290606 0.196651 -26.735259
v 23.774359 0.000733 -27.874708
v -2.336369 0.001016 -18.731826
v 0.158311 0.001170 -19.895577
v 2.776696 0.201361 -20.893989
v 5.764026 0.222526 -21.458664
v 7.494530 -0.102006 -23.296857
v 10.440318 -0.093439 -24.476151
v 13.397525 -0.433396 -25.826391
v 15.140856 0.320604 -26.973813
v 17.538785 0.789150 -28.271245
v 20.115411 0.004535 -29.206092
v 22.610627 0.001016 -30.369424
v -3.500130 0.001016 -21.226527
v -1.005431 0.001016 -22.390285
v 1.488490 0.008850 -23.556066
v 4.153488 0.620531 -24.827428
v 6.493470 0.317219 -25.948547
v 8.973254 0.002489 -27.045388
v 11.459883 -0.295736 -28.182617
v 13.964292 0.076205 -29.383160
v 16.426742 -0.139787 -30.525512
v 18.952169 0.001016 -31.700365
v 21.446866 0.001016 -32.864126
v -4.663892 0.001016 -23.721225
v -2.169190 0.001016 -24.884985
v 0.325509 0.001016 -26.048744
v 2.820212 0.000996 -27.212500
v 5.314910 0.001016 -28.376265
v 7.809609 0.001016 -29.540023
v 10.304309 0.001016 -30.703784
v 12.799008 0.001016 -31.867545
v 15.293708 0.001016 -33.031307
v 17.788411 0.001016 -34.195066
v 20.283111 0.001016 -35.358823
vt 0.000000 0.000000
vt 0.100000 0.000000
vt 0.200000 0.000000
vt 0.300000 0.000000
vt 0.400000 0.000000
vt 0.500000 0.000000
vt 0.600000 0.000000
vt 0.700000 0.000000
vt 0.800000 0.000000
vt 0.900000 0.000000
vt 1.000000 0.000000
vt 0.000000 0.100000
vt 0.100000 0.100000
vt 0.200000 0.100000
vt 0.300000 0.100000
vt 0.400000 0.100000
vt 0.500000 0.100000
vt 0.600000 0.100000
vt 0.700000 0.100000
vt 0.800000 0.100000
vt 0.900000 0.100000
vt 1.000000 0.100000
vt 0.000000 0.200000
vt 0.100000 0.200000
vt 0.200000 0.200000
vt 0.300000 0.200000
vt 0.400000 0.200000
vt 0.500000 0.200000
vt 0.600000 0.200000
vt 0.700000 0.200000
vt 0.800000 0.200000
vt 0.900000 0.200000
vt 1.000000 0.200000
vt 0.000000 0.300000
vt 0.100000 0.300000
vt 0.200000 0.300000
vt 0.300000 0.300000
vt 0.400000 0.300000
vt 0.500000 0.300000
vt 0.600000 0.300000
vt 0.700000 0.300000
vt 0.800000 0.300000
vt 0.900000 0.300000
vt 1.000000 0.300000
vt 0.000000 0.400000
vt 0.100000 0.400000
vt 0.200000 0.400000
vt 0.300000 0.400000
vt 0.400000 0.400000
vt 0.500000 0.400000
vt 0.600000 0.400000
vt 0.700000 0.400000
vt 0.800000 0.400000
vt 0.900000 0.400000
vt 1.000000 0.400000
vt 0.000000 0.500000
vt 0.100000 0.500000
vt 0.200000 0.500000
vt 0.300000 0.500000
vt 0.400000 0.500000
vt 0.500000 0.500000
vt 0.600000 0.500000
vt 0.700000 0.500000
vt 0.800000 0.500000
vt 0.900000 0.500000
vt 1.000000 0.500000
vt 0.000000 0.600000
vt 0.100000 0.600000
vt 0.200000 0.600000
vt 0.300000 0.600000
vt 0.400000 0.600000
vt 0.500000 0.600000
vt 0.600000 0.600000
vt 0.700000 0.600000
vt 0.800000 0.600000
vt 0.900000 0.600000
vt 1.000000 0.600000
vt 0.000000 0.700000
vt 0.100000 0.700000
vt 0.200000 0.700000
vt 0.300000 0.700000
vt 0.400000 0.700000
vt 0.500000 0.700000
vt 0.600000 0.700000
vt 0.700000 0.700000
vt 0.800000 0.700000
vt 0.900000 0.700000
vt 1.000000 0.700000
vt 0.000000 0.800000
vt 0.100000 0.800000
vt 0.200000 0.800000
vt 0.300000 0.800000
vt 0.400000 0.800000
vt 0.500000 0.800000
vt 0.600000 0.800000
vt 0.700000 0.800000
vt 0.800000 0.800000
vt 0.900000 0.800000
vt 1.000000 0.800000
vt 0.000000 0.900000
vt 0.100000 0.900000
vt 0.200000 0.900000
vt 0.300000 0.900000
vt 0.400000 0.900000
vt 0.500000 0.900000
vt 0.600000 0.900000
vt 0.700000 0.900000
vt 0.800000 0.900000
vt 0.900000 0.900000
vt 1.000000 0.900000
vt 0.000000 1.000000
vt 0.100000 1.000000
vt 0.200000 1.000000
vt 0.300000 1.000000
vt 0.400000 1.000000
vt 0.500000 1.000000
vt 0.600000 1.000000
vt 0.700000 1.000000
vt 0.800000 1.000000
vt 0.900000 1.000000
vt 1.000000 1.000000
vn 0.002732 0.999992 -0.002748
vn -0.050796 0.997507 0.048979
vn -0.082266 0.996208 0.028338
vn 0.005130 0.999984 -0.002520
vn 0.031257 0.996740 0.074380
vn 0.018057 0.997264 0.071686
vn 0.048367 0.998830 0.000257
vn 0.046903 0.995159 0.086369
vn -0.074053 0.996972 0.023733
vn -0.086771 0.991441 0.097550
vn -0.047025 0.989073 0.139729
vn -0.040619 0.993630 0.105121
vn -0.018055 0.979910 0.198620
vn -0.028294 0.993357 0.111541
vn 0.016916 0.979970 0.198427
vn 0.016087 0.992122 0.124242
vn -0.003932 0.982847 0.184382
vn 0.004107 0.993001 0.118035
vn 0.031188 0.987076 0.157187
vn 0.055936 0.994895 0.083990
vn 0.124597 0.984197 0.125828
vn 0.175903 0.982626 0.059203
vn -0.104768 0.993864 0.035455
vn -0.036667 0.998347 0.044261
vn -0.009275 0.999152 0.040116
vn 0.044785 0.997426 0.056004
vn -0.103445 0.992376 0.067003
vn -0.072329 0.991390 0.109156
vn 0.006442 0.995970 0.089454
vn 0.054538 0.998459 -0.010293
vn -0.009786 0.999371 -0.034091
vn 0.069370 0.997591 0.000146
vn 0.235079 0.971894 0.012667
vn -0.085826 0.990806 0.104586
vn -0.191956 0.974932 0.112520
vn 0.002831 0.996962 0.077844
vn 0.008307 0.995413 0.095314
vn -0.098309 0.989525 0.105710
vn -0.062495 0.997774 0.023284
vn 0.092845 0.995533 0.017117
vn 0.038549 0.999240 0.005812
vn -0.057375 0.996105 0.066950
vn 0.091755 0.994007 0.059418
vn 0.268936 0.962972 0.018921
vn -0.073581 0.996268 0.045112
vn -0.312206 0.949814 0.019501
vn 0.006777 0.998067 0.061776
vn -0.093140 0.986154 0.137202
vn -0.063429 0.978339 0.197051
vn 0.011850 0.990844 0.134489
vn 0.120119 0.992759 -0.000559
vn 0.024986 0.995518 0.091213
vn -0.004486 0.999421 0.033733
vn 0.163907 0.986234 -0.021834
vn 0.240722 0.969709 -0.041435
vn -0.112412 0.978508 -0.172873
vn -0.254687 0.954201 -0.156953
vn -0.075928 0.987231 -0.140036
vn -0.141300 0.989235 -0.038049
vn -0.096190 0.993638 -0.058571
vn 0.010349 0.996569 -0.082119
vn 0.070644 0.997108 -0.028022
vn -0.051771 0.994958 -0.085901
vn 0.003590 0.999046 -0.043524
vn 0.174663 0.982871 -0.058798
vn 0.158769 0.986025 -0.050464
vn -0.040301 0.990028 -0.134980
vn -0.082068 0.994153 -0.070181
vn -0.131944 0.976527 -0.170251
vn -0.150526 0.966993 -0.205589
vn -0.109208 0.961347 -0.252755
vn -0.046120 0.991184 -0.124202
vn 0.039134 0.994800 -0.094024
vn -0.077520 0.996481 0.031871
vn 0.082838 0.993223 0.081525
vn 0.180169 0.982450 -0.048288
vn 0.083034 0.996008 -0.032749
vn 0.020094 0.999798 0.000026
vn -0.004071 0.999991 -0.001460
vn -0.029761 0.999553 -0.002725
vn -0.059066 0.993085 -0.101460
vn -0.040416 0.996154 -0.077735
vn -0.104925 0.994072 -0.028479
vn -0.081432 0.996584 0.013747
vn -0.110908 0.989260 0.095206
vn 0.079471 0.995788 -0.045729
vn 0.188781 0.973900 -0.126015
vn 0.042096 0.998507 -0.034820
vn 0.000992 0.999854 0.017048
vn -0.000025 1.000000 0.000012
vn -0.024545 0.996881 0.075008
vn 0.055329 0.995064 0.082375
vn 0.074096 0.996347 0.042447
vn -0.015777 0.999041 -0.040833
vn -0.167894 0.980830 -0.098913
vn -0.247734 0.960850 -0.124075
vn -0.014021 0.973990 -0.226157
vn 0.087346 0.986188 -0.140723
vn 0.009233 0.999671 -0.023950
vn -0.012633 0.999912 -0.004049
vn -0.000019 1.000000 -0.000007
vn -0.071230 0.997444 0.005722
vn -0.016493 0.999697 -0.018251
vn 0.071248 0.996958 -0.031598
vn 0.073030 0.997329 -0.001366
vn 0.003279 0.999413 0.034109
vn -0.083794 0.996482 -0.001608
vn -0.017923 0.995956 -0.088034
vn 0.006034 0.999038 -0.043434
vn 0.000155 1.000000 -0.000425
vn -0.000946 0.999999 -0.000344
vn 0.000000 1.000000 0.000000
vn -0.073994 0.996865 -0.028036
vn -0.087965 0.989800 -0.112063
vn 0.002327 0.991673 -0.128761
vn 0.049942 0.998425 -0.025552
vn 0.013504 0.998885 0.045239
vn -0.001852 0.999555 0.029757
vn 0.013916 0.999800 0.014343
vn -0.006165 0.999837 0.016946
vn 0.000000 1.000000 0.000000
s 1
g curvaizq pisoespecial
usemtl initialShadingGroup
f 1/1/1 2/2/2 13/13/3 12/12/4
f 2/2/2 3/3/5 14/14/6 13/13/3
f 3/3/5 4/4/7 15/15/8 14/14/6
f 4/4/7 5/5/9 16/16/10 15/15/8
f 5/5/9 6/6/11 17/17/12 16/16/10
f 6/6/11 7/7/13 18/18/14 17/17/12
f 7/7/13 8/8/15 19/19/16 18/18/14
f 8/8/15 9/9/17 20/20/18 19/19/16
f 9/9/17 10/10/19 21/21/20 20/20/18
f 10/10/19 11/11/21 22/22/22 21/21/20
f 12/12/4 13/13/3 24/24/23 23/23/24
f 13/13/3 14/14/6 25/25/25 24/24/23
f 14/14/6 15/15/8 26/26/26 25/25/25
f 15/15/8 16/16/10 27/27/27 26/26/26
f 16/16/10 17/17/12 28/28/28 27/27/27
f 17/17/12 18/18/14 29/29/29 28/28/28
f 18/18/14 19/19/16 30/30/30 29/29/29
f 19/19/16 20/20/18 31/31/31 30/30/30
f 20/20/18 21/21/20 32/32/32 31/31/31
f 21/21/20 22/22/22 33/33/33 32/32/32
f 23/23/24 24/24/23 35/35/34 34/34/35
f 24/24/23 25/25/25 36/36/36 35/35/34
f 25/25/25 26/26/26 37/37/37 36/36/36
f 26/26/26 27/27/27 38/38/38 37/37/37
f 27/27/27 28/28/28 39/39/39 38/38/38
f 28/28/28 29/29/29 40/40/40 39/39/39
f 29/29/29 30/30/30 41/41/41 40/40/40
f 30/30/30 31/31/31 42/42/42 41/41/41
f 31/31/31 32/32/32 43/43/43 42/42/42
f 32/32/32 33/33/33 44/44/44 43/43/43
f 34/34/35 35/35/34 46/46/45 45/45/46
f 35/35/34 36/36/36 47/47/47 46/46/45
f 36/36/36 37/37/37 48/48/48 47/47/47
f 37/37/37 38/38/38 49/49/49 48/48/48
f 38/38/38 39/39/39 50/50/50 49/49/49
f 39/39/39 40/40/40 51/51/51 50/50/50
f 40/40/40 41/41/41 52/52/52 51/51/51
f 41/41/41 42/42/42 53/53/53 52/52/52
f 42/42/42 43/43/43 54/54/54 53/53/53
f 43/43/43 44/44/44 55/55/55 54/54/54
f 45/45/46 46/46/45 57/57/56 56/56/57
f 46/46/45 47/47/47 58/58/58 57/57/56
f 47/47/47 48/48/48 59/59/59 58/58/58
f 48/48/48 49/49/49 60/60/60 59/59/59
f 49/49/49 50/50/50 61/61/61 60/60/60
f 50/50/50 51/51/51 62/62/62 61/61/61
f 51/51/51 52/52/52 63/63/63 62/62/62
f 52/52/52 53/53/53 64/64/64 63/63/63
f 53/53/53 54/54/54 65/65/65 64/64/64
f 54/54/54 55/55/55 66/66/66 65/65/65
f 56/56/57 57/57/56 68/68/67 67/67/68
f 57/57/56 58/58/58 69/69/69 68/68/67
f 58/58/58 59/59/59 70/70/70 69/69/69
f 59/59/59 60/60/60 71/71/71 70/70/70
f 60/60/60 61/61/61 72/72/72 71/71/71
f 61/61/61 62/62/62 73/73/73 72/72/72
f 62/62/62 63/63/63 74/74/74 73/73/73
f 63/63/63 64/64/64 75/75/75 74/74/74
f 64/64/64 65/65/65 76/76/76 75/75/75
f 65/65/65 66/66/66 77/77/77 76/76/76
f 67/67/68 68/68/67 79/79/78 78/78/79
f 68/68/67 69/69/69 80/80/80 79/79/78
f 69/69/69 70/70/70 81/81/81 80/80/80
f 70/70/70 71/71/71 82/82/82 81/81/81
f 71/71/71 72/72/72 83/83/83 82/82/82
f 72/72/72 73/73/73 84/84/84 83/83/83
f 73/73/73 74/74/74 85/85/85 84/84/84
f 74/74/74 75/75/75 86/86/86 85/85/85
f 75/75/75 76/76/76 87/87/87 86/86/86
f 76/76/76 77/77/77 88/88/88 87/87/87
f 78/78/79 79/79/78 90/90/89 89/89/90
f 79/79/78 80/80/80 91/91/91 90/90/89
f 80/80/80 81/81/81 92/92/92 91/91/91
f 81/81/81 82/82/82 93/93/93 92/92/92
f 82/82/82 83/83/83 94/94/94 93/93/93
f 83/83/83 84/84/84 95/95/95 94/94/94
f 84/84/84 85/85/85 96/96/96 95/95/95
f 85/85/85 86/86/86 97/97/97 96/96/96
f 86/86/86 87/87/87 98/98/98 97/97/97
f 87/87/87 88/88/88 99/99/99 98/98/98
f 89/89/90 90/90/89 101/101/100 100/100/101
f 90/90/89 91/91/91 102/102/102 101/101/100
f 91/91/91 92/92/92 103/103/103 102/102/102
f 92/92/92 93/93/93 104/104/104 103/103/103
f 93/93/93 94/94/94 105/105/105 104/104/104
f 94/94/94 95/95/95 106/106/106 105/105/105
f 95/95/95 96/96/96 107/107/107 106/106/106
f 96/96/96 97/97/97 108/108/108 107/107/107
f 97/97/97 98/98/98 109/109/109 108/108/108
f 98/98/98 99/99/99 110/110/110 109/109/109
f 100/100/101 101/101/100 112/112/111 111/111/112
f 101/101/100 102/102/102 113/113/113 112/112/111
f 102/102/102 103/103/103 114/114/114 113/113/113
f 103/103/103 104/104/104 115/115/115 114/114/114
f 104/104/104 105/105/105 116/116/116 115/115/115
f 105/105/105 106/106/106 117/117/117 116/116/116
f 106/106/106 107/107/107 118/118/118 117/117/117
f 107/107/107 108/108/108 119/119/119 118/118/118
f 108/108/108 109/109/109 120/120/120 119/119/119
f 109/109/109 110/110/110 121/121/121 120/120/120
