# This file uses centimeters as units for non-parametric coordinates.

mtllib fr9.mtl
g default
v 0.001424 0.001016 -0.025060
v 2.754216 0.001016 -0.025060
v 5.507008 0.001016 -0.025060
v 8.259801 0.001016 -0.025060
v 11.012593 0.001016 -0.025060
v 13.765385 0.001016 -0.025060
v 16.518177 0.001016 -0.025060
v 19.270969 0.001016 -0.025060
v 22.023761 0.001016 -0.025060
v 24.776554 0.001016 -0.025060
v 27.529345 0.001016 -0.025060
v 0.001424 0.001016 -2.777852
v 2.743680 0.095260 -2.758308
v 5.403150 1.958805 -2.392441
v 8.206487 0.985955 -2.663471
v 11.041857 0.281869 -2.710619
v 13.943196 1.771424 -2.161341
v 16.757376 1.694757 -2.309517
v 20.125081 1.739794 -1.803007
v 22.126697 0.768671 -2.655539
v 24.892826 1.221035 -2.725152
v 27.529345 0.004459 -2.777852
v 0.001424 0.001016 -5.530644
v 2.709130 0.319075 -5.441198
v 5.363186 1.042651 -5.245557
v 7.973283 2.601982 -5.419965
v 10.859144 2.962502 -5.315928
v 13.741607 3.315919 -5.321291
v 16.661031 2.650127 -5.328248
v 19.574945 2.311858 -5.253014
v 22.341178 2.248567 -5.461015
v 25.037555 1.612396 -5.457717
v 27.532750 0.050266 -5.530925
v 0.001424 0.001016 -8.283437
v 2.642199 1.178211 -8.215582
v 5.394533 1.840267 -8.394456
v 7.519156 5.783210 -8.169497
v 10.759209 4.826968 -8.025214
v 13.780153 5.807203 -8.036062
v 16.460062 6.206706 -7.947770
v 19.185744 7.166935 -7.849742
v 22.278148 3.182006 -8.347635
v 25.083321 2.058461 -8.219532
v 27.529345 0.019624 -8.283437
v 0.001424 0.001016 -11.036229
v 2.735119 0.798394 -11.021189
v 5.593179 1.689035 -10.967423
v 7.878857 2.066030 -11.276724
v 11.185207 3.099960 -11.280522
v 14.064763 4.996338 -10.922351
v 16.181651 7.559999 -10.646108
v 18.916234 7.935686 -9.949511
v 22.299086 3.855284 -10.901711
v 25.079403 2.336924 -10.926055
v 27.549934 0.038610 -11.032453
v 0.001424 0.002031 -13.789021
v 2.753753 0.601462 -13.788245
v 5.665831 1.581507 -13.732213
v 8.402356 2.451091 -13.665869
v 11.278569 2.311983 -14.518206
v 14.062784 3.201022 -13.923726
v 15.188843 6.324859 -14.228017
v 18.385802 7.932498 -12.119756
v 22.692784 6.913877 -13.329880
v 25.037208 2.578202 -13.642049
v 27.542923 0.082633 -13.789639
v 0.001424 0.001016 -16.541813
v 2.744174 0.026316 -16.539451
v 5.603635 2.184477 -16.733430
v 8.310893 2.470111 -16.480372
v 11.042372 2.897239 -17.317648
v 13.968300 3.673976 -16.824818
v 16.138106 6.150220 -16.536644
v 19.355866 6.180132 -16.537046
v 22.354107 3.588333 -16.286637
v 25.041177 2.358418 -16.364164
v 27.547688 0.075213 -16.546932
v 0.001424 0.001016 -19.294605
v 2.467756 1.025854 -19.189220
v 4.924136 2.136128 -19.141947
v 8.098400 3.261051 -19.432124
v 10.883026 3.828030 -19.991188
v 13.749293 4.204386 -20.025747
v 16.637470 6.498470 -20.627891
v 19.332339 2.609375 -19.383962
v 22.042235 1.251118 -19.308334
v 25.179304 2.289500 -19.215124
v 27.536589 0.075213 -19.296624
v 0.001424 0.001016 -22.047398
v 2.223917 1.647760 -21.904939
v 4.890270 3.177292 -22.288621
v 8.161975 5.013895 -23.226603
v 10.775739 4.478989 -23.072780
v 13.631901 2.143208 -22.455910
v 16.496042 1.957919 -22.319858
v 19.303183 1.768151 -22.216702
v 22.145471 1.238787 -22.140994
v 25.121819 1.739166 -22.159533
v 27.529345 0.001016 -22.047398
v 0.001424 0.001016 -24.800190
v 2.706131 0.152674 -24.801240
v 5.197271 1.306169 -24.938457
v 8.198436 0.321557 -24.875279
v 10.910138 0.726783 -25.005963
v 13.388517 1.209697 -25.468420
v 16.411325 1.223541 -25.168360
v 19.257088 0.912715 -24.928031
v 22.030135 0.056117 -24.807491
v 24.780524 0.026154 -24.803319
v 27.529345 0.001016 -24.800190
v 0.001424 0.001016 -27.552981
v 2.754216 0.001016 -27.552981
v 5.507008 0.001016 -27.552981
v 8.259801 0.001016 -27.552981
v 11.012593 0.001016 -27.552981
v 13.765385 0.001016 -27.552981
v 16.515688 0.018912 -27.562669
v 19.271007 0.003125 -27.553577
v 22.023761 0.001016 -27.552981
v 24.776554 0.001016 -27.552981
v 27.529345 0.001016 -27.552981
vt 0.000000 0.000000
vt 0.100000 0.000000
vt 0.200000 0.000000
vt 0.300000 0.000000
vt 0.400000 0.000000
vt 0.500000 0.000000
vt 0.600000 0.000000
vt 0.700000 0.000000
vt 0.800000 0.000000
vt 0.900000 0.000000
vt 1.000000 0.000000
vt 0.000000 0.100000
vt 0.100000 0.100000
vt 0.200000 0.100000
vt 0.300000 0.100000
vt 0.400000 0.100000
vt 0.500000 0.100000
vt 0.600000 0.100000
vt 0.700000 0.100000
vt 0.800000 0.100000
vt 0.900000 0.100000
vt 1.000000 0.100000
vt 0.000000 0.200000
vt 0.100000 0.200000
vt 0.200000 0.200000
vt 0.300000 0.200000
vt 0.400000 0.200000
vt 0.500000 0.200000
vt 0.600000 0.200000
vt 0.700000 0.200000
vt 0.800000 0.200000
vt 0.900000 0.200000
vt 1.000000 0.200000
vt 0.000000 0.300000
vt 0.100000 0.300000
vt 0.200000 0.300000
vt 0.300000 0.300000
vt 0.400000 0.300000
vt 0.500000 0.300000
vt 0.600000 0.300000
vt 0.700000 0.300000
vt 0.800000 0.300000
vt 0.900000 0.300000
vt 1.000000 0.300000
vt 0.000000 0.400000
vt 0.100000 0.400000
vt 0.200000 0.400000
vt 0.300000 0.400000
vt 0.400000 0.400000
vt 0.500000 0.400000
vt 0.600000 0.400000
vt 0.700000 0.400000
vt 0.800000 0.400000
vt 0.900000 0.400000
vt 1.000000 0.400000
vt 0.000000 0.500000
vt 0.100000 0.500000
vt 0.200000 0.500000
vt 0.300000 0.500000
vt 0.400000 0.500000
vt 0.500000 0.500000
vt 0.600000 0.500000
vt 0.700000 0.500000
vt 0.800000 0.500000
vt 0.900000 0.500000
vt 1.000000 0.500000
vt 0.000000 0.600000
vt 0.100000 0.600000
vt 0.200000 0.600000
vt 0.300000 0.600000
vt 0.400000 0.600000
vt 0.500000 0.600000
vt 0.600000 0.600000
vt 0.700000 0.600000
vt 0.800000 0.600000
vt 0.900000 0.600000
vt 1.000000 0.600000
vt 0.000000 0.700000
vt 0.100000 0.700000
vt 0.200000 0.700000
vt 0.300000 0.700000
vt 0.400000 0.700000
vt 0.500000 0.700000
vt 0.600000 0.700000
vt 0.700000 0.700000
vt 0.800000 0.700000
vt 0.900000 0.700000
vt 1.000000 0.700000
vt 0.000000 0.800000
vt 0.100000 0.800000
vt 0.200000 0.800000
vt 0.300000 0.800000
vt 0.400000 0.800000
vt 0.500000 0.800000
vt 0.600000 0.800000
vt 0.700000 0.800000
vt 0.800000 0.800000
vt 0.900000 0.800000
vt 1.000000 0.800000
vt 0.000000 0.900000
vt 0.100000 0.900000
vt 0.200000 0.900000
vt 0.300000 0.900000
vt 0.400000 0.900000
vt 0.500000 0.900000
vt 0.600000 0.900000
vt 0.700000 0.900000
vt 0.800000 0.900000
vt 0.900000 0.900000
vt 1.000000 0.900000
vt 0.000000 1.000000
vt 0.100000 1.000000
vt 0.200000 1.000000
vt 0.300000 1.000000
vt 0.400000 1.000000
vt 0.500000 1.000000
vt 0.600000 1.000000
vt 0.700000 1.000000
vt 0.800000 1.000000
vt 0.900000 1.000000
vt 1.000000 1.000000
vn -0.017207 0.999704 0.017207
vn -0.180303 0.963456 0.198100
vn -0.225491 0.971516 0.072866
vn -0.046652 0.998480 0.029340
vn -0.068404 0.892920 0.444988
vn -0.169329 0.956370 0.238084
vn 0.150483 0.917401 0.368415
vn 0.065373 0.907518 0.414895
vn -0.073411 0.949708 0.304410
vn -0.110321 0.871015 0.478709
vn -0.128964 0.857122 0.498709
vn -0.102230 0.858061 0.503270
vn -0.014372 0.778860 0.627033
vn 0.035221 0.896303 0.442040
vn 0.046668 0.794937 0.604894
vn 0.123700 0.899333 0.419403
vn 0.079248 0.898066 0.432664
vn 0.115647 0.926655 0.357682
vn 0.068271 0.955263 0.287771
vn 0.171406 0.953359 0.248449
vn 0.216925 0.951509 0.218115
vn 0.354387 0.922973 0.150099
vn -0.258841 0.961417 0.093158
vn -0.178562 0.978906 0.099287
vn -0.415773 0.885550 0.207206
vn -0.249858 0.800270 0.545104
vn -0.099163 0.769232 0.631228
vn -0.089829 0.787095 0.610256
vn 0.010948 0.784739 0.619729
vn 0.193992 0.799225 0.568864
vn 0.320651 0.852794 0.412221
vn 0.364524 0.914263 0.176761
vn 0.535964 0.841015 0.073734
vn -0.282373 0.956840 0.068725
vn -0.309797 0.950050 0.037834
vn -0.551405 0.832458 0.054462
vn -0.325447 0.944869 -0.036141
vn -0.140453 0.989485 0.034527
vn -0.285378 0.903462 0.319869
vn -0.184660 0.732124 0.655664
vn 0.345137 0.745766 0.569837
vn 0.552437 0.762227 0.337378
vn 0.500770 0.856438 0.125473
vn 0.627642 0.776655 0.053589
vn -0.292200 0.953961 -0.067663
vn -0.295532 0.953880 -0.052667
vn -0.411396 0.887032 -0.209591
vn -0.263385 0.885653 -0.382421
vn -0.215771 0.880079 -0.422970
vn -0.605141 0.766115 -0.216500
vn -0.614403 0.778577 0.127774
vn 0.473696 0.797191 0.374298
vn 0.663022 0.683612 0.305084
vn 0.642036 0.745085 0.180660
vn 0.678914 0.733295 0.036788
vn -0.303650 0.951828 -0.042665
vn -0.180625 0.981124 -0.069074
vn -0.322928 0.946206 0.020274
vn -0.156275 0.987439 0.023275
vn -0.222867 0.974464 -0.027394
vn -0.611742 0.778309 -0.141442
vn -0.861452 0.497360 -0.102633
vn 0.568019 0.814279 -0.119603
vn 0.532643 0.846334 0.003378
vn 0.721104 0.692710 -0.012721
vn 0.691772 0.722116 0.000445
vn -0.338585 0.937532 0.079957
vn -0.155922 0.986975 0.039604
vn -0.352062 0.926154 0.135243
vn -0.136566 0.976914 0.164283
vn -0.161322 0.961383 0.222978
vn -0.564759 0.819347 0.098586
vn -0.757999 0.652245 -0.003666
vn 0.423850 0.734880 -0.529437
vn 0.369359 0.740656 -0.561251
vn 0.552369 0.799971 -0.234383
vn 0.683937 0.729460 -0.010878
vn -0.414562 0.884884 0.212412
vn -0.356796 0.921254 0.154877
vn -0.383023 0.883077 0.271050
vn -0.188959 0.934101 0.302901
vn 0.016117 0.984761 0.173166
vn -0.336594 0.902179 -0.269773
vn -0.286077 0.802068 -0.524258
vn 0.184867 0.910283 -0.370417
vn 0.476744 0.682125 -0.554455
vn 0.310770 0.937691 -0.155428
vn 0.658686 0.751223 -0.042382
vn -0.450097 0.887061 -0.102640
vn -0.415215 0.905701 -0.085447
vn -0.393824 0.897339 -0.199213
vn -0.157845 0.899951 -0.406415
vn 0.143270 0.858604 -0.492213
vn 0.070880 0.815372 -0.574582
vn 0.134878 0.788980 -0.599431
vn 0.346743 0.847079 -0.402775
vn 0.050700 0.960045 -0.275214
vn 0.169488 0.954682 -0.244656
vn 0.499736 0.844424 -0.192905
vn -0.269603 0.917274 -0.293125
vn -0.180862 0.971675 -0.152110
vn -0.208777 0.786862 -0.580742
vn -0.028077 0.736479 -0.675877
vn 0.039382 0.742639 -0.668533
vn 0.066038 0.878347 -0.473439
vn 0.060220 0.935970 -0.346890
vn 0.143273 0.943176 -0.299820
vn 0.080621 0.960161 -0.267565
vn 0.054631 0.973998 -0.219871
vn 0.165236 0.973096 -0.160565
vn -0.122983 0.980800 -0.151352
vn -0.027773 0.999228 -0.027773
vn -0.004734 0.960097 -0.279627
vn 0.048473 0.969070 -0.241978
vn -0.098037 0.950579 -0.294600
vn -0.039457 0.896899 -0.440471
vn 0.046054 0.902611 -0.427986
vn 0.113720 0.952693 -0.281856
vn 0.081147 0.992107 -0.095595
vn 0.005014 0.999941 -0.009593
vn 0.004572 0.999979 -0.004572
vn -0.254454 0.957093 -0.138661
vn -0.254454 0.957093 -0.138661
vn -0.254454 0.957093 -0.138661
vn -0.254454 0.957093 -0.138661
vn 0.564299 0.762858 -0.315617
vn 0.564299 0.762858 -0.315617
vn 0.564299 0.762858 -0.315617
vn 0.564299 0.762858 -0.315617
vn -0.138610 0.940869 -0.309117
vn -0.138610 0.940869 -0.309117
vn -0.138610 0.940869 -0.309117
vn -0.138610 0.940869 -0.309117
s 1
g pisosrelievefuerte3 pisosrelievefuerte
usemtl initialShadingGroup
f 1/1/1 2/2/2 13/13/3 12/12/4
f 2/2/2 3/3/5 14/14/6 13/13/3
f 3/3/5 4/4/7 15/15/8 14/14/6
f 4/4/7 5/5/9 16/16/10 15/15/8
f 5/5/9 6/6/11 17/17/12 16/16/10
f 6/6/11 7/7/13 18/18/14 17/17/12
f 7/7/13 8/8/15 19/19/16 18/18/14
f 8/8/15 9/9/17 20/20/18 19/19/16
f 9/9/17 10/10/19 21/21/20 20/20/18
f 10/10/19 11/11/21 22/22/22 21/21/20
f 12/12/4 13/13/3 24/24/23 23/23/24
f 13/13/3 14/14/6 25/25/25 24/24/23
f 14/14/6 15/15/8 26/26/26 25/25/25
f 15/15/8 16/16/10 27/27/27 26/26/26
f 16/16/10 17/17/12 28/28/28 27/27/27
f 17/17/12 18/18/14 29/29/29 28/28/28
f 18/18/14 19/19/16 30/30/30 29/29/29
f 19/19/16 20/20/18 31/31/31 30/30/30
f 20/20/18 21/21/20 32/32/32 31/31/31
f 21/21/20 22/22/22 33/33/33 32/32/32
f 23/23/24 24/24/23 35/35/34 34/34/35
f 24/24/23 25/25/25 36/36/36 35/35/34
f 25/25/25 26/26/26 37/37/37 36/36/36
f 26/26/26 27/27/27 38/38/38 37/37/37
f 27/27/27 28/28/28 39/39/39 38/38/38
f 28/28/28 29/29/29 40/40/40 39/39/39
f 29/29/29 30/30/30 41/41/41 40/40/40
f 30/30/30 31/31/31 42/42/42 41/41/41
f 31/31/31 32/32/32 43/43/43 42/42/42
f 32/32/32 33/33/33 44/44/44 43/43/43
f 34/34/35 35/35/34 46/46/45 45/45/46
f 35/35/34 36/36/36 47/47/47 46/46/45
f 36/36/36 37/37/37 48/48/48 47/47/47
f 37/37/37 38/38/38 49/49/49 48/48/48
f 38/38/38 39/39/39 50/50/50 49/49/49
f 39/39/39 40/40/40 51/51/51 50/50/50
f 40/40/40 41/41/41 52/52/52 51/51/51
f 41/41/41 42/42/42 53/53/53 52/52/52
f 42/42/42 43/43/43 54/54/54 53/53/53
f 43/43/43 44/44/44 55/55/55 54/54/54
f 45/45/46 46/46/45 57/57/56 56/56/57
f 46/46/45 47/47/47 58/58/58 57/57/56
f 47/47/47 48/48/48 59/59/59 58/58/58
f 48/48/48 49/49/49 60/60/60 59/59/59
f 49/49/49 50/50/50 61/61/61 60/60/60
f 50/50/50 51/51/51 62/62/62 61/61/61
f 52/52/52 53/53/53 64/64/63 63/63/64
f 53/53/53 54/54/54 65/65/65 64/64/63
f 54/54/54 55/55/55 66/66/66 65/65/65
f 56/56/57 57/57/56 68/68/67 67/67/68
f 57/57/56 58/58/58 69/69/69 68/68/67
f 58/58/58 59/59/59 70/70/70 69/69/69
f 59/59/59 60/60/60 71/71/71 70/70/70
f 60/60/60 61/61/61 72/72/72 71/71/71
f 61/61/61 62/62/62 73/73/73 72/72/72
f 63/63/64 64/64/63 75/75/74 74/74/75
f 64/64/63 65/65/65 76/76/76 75/75/74
f 65/65/65 66/66/66 77/77/77 76/76/76
f 67/67/68 68/68/67 79/79/78 78/78/79
f 68/68/67 69/69/69 80/80/80 79/79/78
f 69/69/69 70/70/70 81/81/81 80/80/80
f 70/70/70 71/71/71 82/82/82 81/81/81
f 71/71/71 72/72/72 83/83/83 82/82/82
f 72/72/72 73/73/73 84/84/84 83/83/83
f 74/74/75 75/75/74 86/86/85 85/85/86
f 75/75/74 76/76/76 87/87/87 86/86/85
f 76/76/76 77/77/77 88/88/88 87/87/87
f 78/78/79 79/79/78 90/90/89 89/89/90
f 79/79/78 80/80/80 91/91/91 90/90/89
f 80/80/80 81/81/81 92/92/92 91/91/91
f 81/81/81 82/82/82 93/93/93 92/92/92
f 82/82/82 83/83/83 94/94/94 93/93/93
f 83/83/83 84/84/84 95/95/95 94/94/94
f 84/84/84 85/85/86 96/96/96 95/95/95
f 85/85/86 86/86/85 97/97/97 96/96/96
f 86/86/85 87/87/87 98/98/98 97/97/97
f 87/87/87 88/88/88 99/99/99 98/98/98
f 89/89/90 90/90/89 101/101/100 100/100/101
f 90/90/89 91/91/91 102/102/102 101/101/100
f 91/91/91 92/92/92 103/103/103 102/102/102
f 92/92/92 93/93/93 104/104/104 103/103/103
f 93/93/93 94/94/94 105/105/105 104/104/104
f 94/94/94 95/95/95 106/106/106 105/105/105
f 95/95/95 96/96/96 107/107/107 106/106/106
f 96/96/96 97/97/97 108/108/108 107/107/107
f 97/97/97 98/98/98 109/109/109 108/108/108
f 98/98/98 99/99/99 110/110/110 109/109/109
f 100/100/101 101/101/100 112/112/111 111/111/112
f 101/101/100 102/102/102 113/113/113 112/112/111
f 102/102/102 103/103/103 114/114/114 113/113/113
f 103/103/103 104/104/104 115/115/115 114/114/114
f 104/104/104 105/105/105 116/116/116 115/115/115
f 105/105/105 106/106/106 117/117/117 116/116/116
f 106/106/106 107/107/107 118/118/118 117/117/117
f 107/107/107 108/108/108 119/119/119 118/118/118
f 108/108/108 109/109/109 120/120/120 119/119/119
f 109/109/109 110/110/110 121/121/121 120/120/120
s off
f 52/52/122 63/63/123 62/62/124 51/51/125
f 74/74/126 85/85/127 84/84/128 73/73/129
f 63/63/130 74/74/131 73/73/132 62/62/133
