# This file uses centimeters as units for non-parametric coordinates.

mtllib fs2.mtl
g default
v 0.001423 0.001016 -0.025053
v 2.754215 0.000962 -0.025053
v 5.507057 -0.004221 -0.025428
v 8.259842 -0.024857 -0.028077
v 11.012613 -0.003597 -0.025661
v 13.780171 -0.485530 -0.058584
v 16.518177 0.001016 -0.025053
v 19.270968 0.001016 -0.025053
v 22.023761 0.001016 -0.025053
v 24.776553 0.001016 -0.025053
v 27.529345 0.001016 -0.025053
v 0.001423 0.000916 -2.777845
v 2.755352 -0.014074 -2.778395
v 5.507418 0.046463 -2.775146
v 8.227987 -0.469852 -2.856155
v 11.007896 -0.084080 -2.778773
v 13.697901 0.578082 -2.875106
v 16.502805 0.488188 -2.757043
v 19.271157 0.013976 -2.776387
v 22.023761 0.164385 -2.777845
v 24.776553 0.706425 -2.777845
v 27.529345 0.004459 -2.777845
v 0.001426 0.000350 -5.530641
v 2.754401 0.003062 -5.530737
v 5.504316 0.049636 -5.528740
v 8.272433 -0.122395 -5.730779
v 10.927870 0.832982 -5.589891
v 13.849126 -0.190149 -5.555342
v 16.484210 0.680624 -5.515125
v 19.244700 0.999911 -5.520505
v 22.021036 0.938029 -5.547846
v 24.776560 0.572818 -5.532363
v 27.529345 0.043010 -5.530637
v 0.001423 0.001016 -8.283430
v 2.754215 0.060475 -8.283430
v 5.505490 0.566138 -8.287645
v 8.223170 0.948234 -8.356575
v 10.972322 0.434849 -8.189184
v 13.745690 -0.063695 -8.257545
v 16.451657 -0.312331 -8.230910
v 19.267126 0.173025 -8.291924
v 22.016439 0.138385 -8.304292
v 24.771047 0.820923 -8.311021
v 27.529345 0.019624 -8.283430
v 0.001423 0.001016 -11.036222
v 2.762829 0.430541 -11.041902
v 5.619563 0.244498 -11.125522
v 8.200848 0.910364 -10.921808
v 10.978476 -0.168229 -10.767341
v 13.039399 -0.066776 -10.650970
v 15.708387 -0.364634 -10.047848
v 19.106716 -0.621680 -11.110339
v 21.883585 -0.385100 -11.178168
v 24.780085 0.464615 -11.039847
v 27.529345 0.001016 -11.036222
v 0.001423 0.002031 -13.789014
v 2.754192 0.571282 -13.789031
v 5.597986 0.945121 -13.814511
v 8.275799 0.587230 -12.893552
v 10.388124 0.339903 -13.185184
v 13.578018 0.174091 -13.411076
v 16.755588 -0.505249 -11.950548
v 20.620219 -0.717022 -13.150203
v 22.219221 0.219303 -13.740012
v 24.827939 0.194870 -13.775605
v 27.529345 0.001016 -13.789014
v 0.001423 0.001016 -16.541807
v 2.749450 0.034667 -16.545439
v 5.827845 -0.009605 -15.613463
v 8.450558 0.603390 -15.539295
v 11.631936 0.345305 -15.609696
v 13.780544 0.173085 -16.530325
v 16.704117 0.227831 -15.900151
v 20.246391 -0.649464 -16.120812
v 22.121809 0.539072 -16.546748
v 24.799275 0.169682 -16.542137
v 27.527746 -0.012810 -16.541715
v 0.001423 0.001016 -19.294598
v 2.754215 0.001016 -19.294598
v 5.796533 -0.308033 -18.390575
v 8.237587 0.121420 -18.007859
v 11.273786 -0.626822 -18.310497
v 14.253566 0.274922 -19.419696
v 16.820302 0.962805 -19.164965
v 19.187187 0.446628 -19.194771
v 22.003123 0.879458 -19.295372
v 24.796718 0.196651 -19.312001
v 27.529313 0.000733 -19.294596
v 0.001423 0.001016 -22.047391
v 2.754194 0.001170 -22.047392
v 5.602778 -0.389541 -21.875793
v 8.370386 -1.015455 -21.339403
v 10.959600 -0.144896 -21.970232
v 13.893382 -0.219475 -22.081678
v 16.544790 0.530221 -21.980498
v 19.214771 0.630288 -21.955740
v 22.043828 0.466899 -22.072791
v 24.776630 0.001948 -22.047500
v 27.529345 0.001016 -22.047391
v 0.001423 0.001016 -24.800183
v 2.754215 0.001016 -24.800183
v 5.507157 0.008850 -24.802344
v 8.462885 0.518446 -24.826891
v 11.042081 0.136979 -24.850238
v 13.765306 0.002489 -24.800289
v 16.509084 0.175748 -24.818151
v 19.279064 0.191920 -24.820782
v 22.024125 0.004159 -24.800561
v 24.776553 0.001016 -24.800183
v 27.529345 0.001016 -24.800183
v 0.001423 0.001016 -27.552975
v 2.754215 0.001016 -27.552975
v 5.507007 0.001016 -27.552975
v 8.259801 0.000996 -27.552970
v 11.012592 0.001016 -27.552975
v 13.765384 0.001016 -27.552975
v 16.518177 0.001016 -27.552975
v 19.270968 0.001016 -27.552975
v 22.023761 0.001016 -27.552975
v 24.776553 0.001016 -27.552975
v 27.529345 0.001016 -27.552975
vt 0.000000 0.000000
vt 0.100000 0.000000
vt 0.200000 0.000000
vt 0.300000 0.000000
vt 0.400000 0.000000
vt 0.500000 0.000000
vt 0.600000 0.000000
vt 0.700000 0.000000
vt 0.800000 0.000000
vt 0.900000 0.000000
vt 1.000000 0.000000
vt 0.000000 0.100000
vt 0.100000 0.100000
vt 0.200000 0.100000
vt 0.300000 0.100000
vt 0.400000 0.100000
vt 0.500000 0.100000
vt 0.600000 0.100000
vt 0.700000 0.100000
vt 0.800000 0.100000
vt 0.900000 0.100000
vt 1.000000 0.100000
vt 0.000000 0.200000
vt 0.100000 0.200000
vt 0.200000 0.200000
vt 0.300000 0.200000
vt 0.400000 0.200000
vt 0.500000 0.200000
vt 0.600000 0.200000
vt 0.700000 0.200000
vt 0.800000 0.200000
vt 0.900000 0.200000
vt 1.000000 0.200000
vt 0.000000 0.300000
vt 0.100000 0.300000
vt 0.200000 0.300000
vt 0.300000 0.300000
vt 0.400000 0.300000
vt 0.500000 0.300000
vt 0.600000 0.300000
vt 0.700000 0.300000
vt 0.800000 0.300000
vt 0.900000 0.300000
vt 1.000000 0.300000
vt 0.000000 0.400000
vt 0.100000 0.400000
vt 0.200000 0.400000
vt 0.300000 0.400000
vt 0.400000 0.400000
vt 0.500000 0.400000
vt 0.600000 0.400000
vt 0.700000 0.400000
vt 0.800000 0.400000
vt 0.900000 0.400000
vt 1.000000 0.400000
vt 0.000000 0.500000
vt 0.100000 0.500000
vt 0.200000 0.500000
vt 0.300000 0.500000
vt 0.400000 0.500000
vt 0.500000 0.500000
vt 0.600000 0.500000
vt 0.700000 0.500000
vt 0.800000 0.500000
vt 0.900000 0.500000
vt 1.000000 0.500000
vt 0.000000 0.600000
vt 0.100000 0.600000
vt 0.200000 0.600000
vt 0.300000 0.600000
vt 0.400000 0.600000
vt 0.500000 0.600000
vt 0.600000 0.600000
vt 0.700000 0.600000
vt 0.800000 0.600000
vt 0.900000 0.600000
vt 1.000000 0.600000
vt 0.000000 0.700000
vt 0.100000 0.700000
vt 0.200000 0.700000
vt 0.300000 0.700000
vt 0.400000 0.700000
vt 0.500000 0.700000
vt 0.600000 0.700000
vt 0.700000 0.700000
vt 0.800000 0.700000
vt 0.900000 0.700000
vt 1.000000 0.700000
vt 0.000000 0.800000
vt 0.100000 0.800000
vt 0.200000 0.800000
vt 0.300000 0.800000
vt 0.400000 0.800000
vt 0.500000 0.800000
vt 0.600000 0.800000
vt 0.700000 0.800000
vt 0.800000 0.800000
vt 0.900000 0.800000
vt 1.000000 0.800000
vt 0.000000 0.900000
vt 0.100000 0.900000
vt 0.200000 0.900000
vt 0.300000 0.900000
vt 0.400000 0.900000
vt 0.500000 0.900000
vt 0.600000 0.900000
vt 0.700000 0.900000
vt 0.800000 0.900000
vt 0.900000 0.900000
vt 1.000000 0.900000
vt 0.000000 1.000000
vt 0.100000 1.000000
vt 0.200000 1.000000
vt 0.300000 1.000000
vt 0.400000 1.000000
vt 0.500000 1.000000
vt 0.600000 1.000000
vt 0.700000 1.000000
vt 0.800000 1.000000
vt 0.900000 1.000000
vt 1.000000 1.000000
vn 0.002732 0.999992 -0.002748
vn -0.003659 0.999992 0.001860
vn -0.006142 0.999978 0.002609
vn 0.002481 0.999997 0.000130
vn 0.043602 0.998521 -0.032472
vn 0.049314 0.998783 0.000127
vn 0.011288 0.996542 -0.082316
vn -0.025693 0.999131 0.032819
vn -0.050670 0.997914 0.039997
vn -0.074144 0.993795 0.082914
vn -0.053147 0.973153 0.223938
vn -0.043912 0.994772 0.092193
vn 0.002601 0.982977 0.183710
vn -0.025356 0.992005 0.123624
vn 0.029357 0.997685 0.061348
vn 0.017961 0.986711 0.161486
vn -0.062484 0.993579 0.094317
vn -0.042653 0.986968 0.155160
vn 0.014376 0.989789 0.141813
vn 0.054960 0.993948 0.095110
vn 0.125458 0.983977 0.126689
vn 0.172663 0.983450 0.054898
vn -0.032198 0.999021 0.030330
vn -0.004530 0.999967 0.006779
vn -0.001295 0.993694 0.112116
vn -0.060929 0.982338 0.176916
vn -0.004629 0.996601 0.082255
vn 0.018524 0.997090 -0.073954
vn -0.092147 0.991198 -0.095060
vn -0.029705 0.999293 -0.023055
vn -0.021870 0.999719 0.009129
vn 0.094343 0.995488 0.010173
vn 0.226487 0.973948 0.011317
vn -0.064121 0.996833 0.047043
vn -0.049900 0.998003 0.038738
vn -0.090733 0.992150 0.086054
vn 0.001025 0.998602 0.052857
vn 0.143248 0.988824 -0.041329
vn 0.089382 0.991437 -0.095201
vn -0.073942 0.979383 -0.187994
vn -0.057752 0.966744 -0.249141
vn -0.089814 0.977805 -0.189291
vn 0.032588 0.996990 -0.070347
vn 0.229430 0.973239 -0.012939
vn -0.088217 0.994114 0.062894
vn -0.133398 0.989989 0.046115
vn -0.086936 0.995201 0.044904
vn 0.059633 0.997642 -0.033979
vn 0.150606 0.988438 -0.017537
vn 0.084865 0.996242 0.017288
vn 0.067190 0.997016 -0.038019
vn -0.036094 0.992628 -0.115700
vn -0.168283 0.981336 -0.093067
vn -0.021062 0.998097 -0.057948
vn 0.172641 0.983326 -0.057137
vn -0.082283 0.995220 -0.052597
vn -0.143795 0.988978 -0.035301
vn -0.026187 0.996300 -0.081859
vn 0.067247 0.997687 -0.009896
vn 0.111392 0.992483 0.050687
vn 0.072131 0.993805 0.084548
vn 0.110880 0.991706 0.065002
vn -0.068234 0.995190 0.070290
vn -0.200485 0.977862 0.059932
vn 0.030722 0.999466 0.011084
vn 0.094352 0.995157 -0.027557
vn -0.004841 0.994576 -0.103904
vn -0.057797 0.996988 -0.051720
vn -0.032783 0.982426 -0.183749
vn 0.024631 0.987170 -0.157761
vn 0.037187 0.994393 -0.098996
vn -0.071105 0.997277 0.019545
vn 0.095133 0.985838 0.138104
vn -0.033080 0.983486 0.177935
vn -0.107506 0.984639 0.137580
vn 0.101064 0.994480 0.028190
vn 0.069115 0.997609 -0.000040
vn 0.054537 0.998319 -0.019626
vn -0.003072 0.999991 -0.003044
vn 0.036019 0.994269 -0.100653
vn -0.001664 0.984612 -0.174750
vn -0.055971 0.989847 -0.130652
vn -0.181848 0.983100 -0.021101
vn -0.000755 0.997480 0.070944
vn 0.037511 0.991196 0.126980
vn 0.012646 0.998694 0.049494
vn 0.125757 0.991876 -0.019173
vn 0.052638 0.998516 -0.013991
vn 0.050165 0.998655 0.013074
vn -0.000028 1.000000 0.000000
vn 0.060189 0.996268 0.061858
vn -0.005311 0.999052 0.043201
vn -0.052922 0.995600 0.077325
vn -0.125960 0.992023 -0.005004
vn -0.098833 0.991128 -0.088868
vn 0.015350 0.995157 -0.097097
vn 0.076371 0.992097 -0.099553
vn 0.082395 0.994952 -0.057283
vn 0.018019 0.999679 -0.017797
vn 0.016815 0.999705 0.017525
vn -0.000014 1.000000 -0.000014
vn -0.007080 0.996837 0.079155
vn -0.020990 0.994367 0.103893
vn 0.017151 0.997937 0.061876
vn -0.032511 0.999455 0.005744
vn -0.056211 0.996344 -0.064339
vn 0.017993 0.994743 -0.100813
vn 0.045050 0.996468 -0.070860
vn 0.021479 0.999543 -0.021276
vn 0.000085 1.000000 -0.000085
vn -0.000712 0.999999 -0.000712
vn 0.000000 1.000000 0.000000
vn -0.046135 0.997800 -0.047615
vn -0.016054 0.994229 -0.106071
vn 0.047510 0.996152 -0.073652
vn -0.003553 0.999580 -0.028749
vn -0.017232 0.998626 -0.049499
vn 0.015591 0.998571 -0.051124
vn 0.017380 0.999688 -0.017954
vn 0.000286 1.000000 -0.000286
vn 0.000000 1.000000 0.000000
s 1
g pisorelievesuave5 relievesuave
usemtl initialShadingGroup
f 1/1/1 2/2/2 13/13/3 12/12/4
f 2/2/2 3/3/5 14/14/6 13/13/3
f 3/3/5 4/4/7 15/15/8 14/14/6
f 4/4/7 5/5/9 16/16/10 15/15/8
f 5/5/9 6/6/11 17/17/12 16/16/10
f 6/6/11 7/7/13 18/18/14 17/17/12
f 7/7/13 8/8/15 19/19/16 18/18/14
f 8/8/15 9/9/17 20/20/18 19/19/16
f 9/9/17 10/10/19 21/21/20 20/20/18
f 10/10/19 11/11/21 22/22/22 21/21/20
f 12/12/4 13/13/3 24/24/23 23/23/24
f 13/13/3 14/14/6 25/25/25 24/24/23
f 14/14/6 15/15/8 26/26/26 25/25/25
f 15/15/8 16/16/10 27/27/27 26/26/26
f 16/16/10 17/17/12 28/28/28 27/27/27
f 17/17/12 18/18/14 29/29/29 28/28/28
f 18/18/14 19/19/16 30/30/30 29/29/29
f 19/19/16 20/20/18 31/31/31 30/30/30
f 20/20/18 21/21/20 32/32/32 31/31/31
f 21/21/20 22/22/22 33/33/33 32/32/32
f 23/23/24 24/24/23 35/35/34 34/34/35
f 24/24/23 25/25/25 36/36/36 35/35/34
f 25/25/25 26/26/26 37/37/37 36/36/36
f 26/26/26 27/27/27 38/38/38 37/37/37
f 27/27/27 28/28/28 39/39/39 38/38/38
f 28/28/28 29/29/29 40/40/40 39/39/39
f 29/29/29 30/30/30 41/41/41 40/40/40
f 30/30/30 31/31/31 42/42/42 41/41/41
f 31/31/31 32/32/32 43/43/43 42/42/42
f 32/32/32 33/33/33 44/44/44 43/43/43
f 34/34/35 35/35/34 46/46/45 45/45/46
f 35/35/34 36/36/36 47/47/47 46/46/45
f 36/36/36 37/37/37 48/48/48 47/47/47
f 37/37/37 38/38/38 49/49/49 48/48/48
f 38/38/38 39/39/39 50/50/50 49/49/49
f 39/39/39 40/40/40 51/51/51 50/50/50
f 40/40/40 41/41/41 52/52/52 51/51/51
f 41/41/41 42/42/42 53/53/53 52/52/52
f 42/42/42 43/43/43 54/54/54 53/53/53
f 43/43/43 44/44/44 55/55/55 54/54/54
f 45/45/46 46/46/45 57/57/56 56/56/57
f 46/46/45 47/47/47 58/58/58 57/57/56
f 47/47/47 48/48/48 59/59/59 58/58/58
f 48/48/48 49/49/49 60/60/60 59/59/59
f 49/49/49 50/50/50 61/61/61 60/60/60
f 50/50/50 51/51/51 62/62/62 61/61/61
f 51/51/51 52/52/52 63/63/63 62/62/62
f 52/52/52 53/53/53 64/64/64 63/63/63
f 53/53/53 54/54/54 65/65/65 64/64/64
f 54/54/54 55/55/55 66/66/66 65/65/65
f 56/56/57 57/57/56 68/68/67 67/67/68
f 57/57/56 58/58/58 69/69/69 68/68/67
f 58/58/58 59/59/59 70/70/70 69/69/69
f 59/59/59 60/60/60 71/71/71 70/70/70
f 60/60/60 61/61/61 72/72/72 71/71/71
f 61/61/61 62/62/62 73/73/73 72/72/72
f 62/62/62 63/63/63 74/74/74 73/73/73
f 63/63/63 64/64/64 75/75/75 74/74/74
f 64/64/64 65/65/65 76/76/76 75/75/75
f 65/65/65 66/66/66 77/77/77 76/76/76
f 67/67/68 68/68/67 79/79/78 78/78/79
f 68/68/67 69/69/69 80/80/80 79/79/78
f 69/69/69 70/70/70 81/81/81 80/80/80
f 70/70/70 71/71/71 82/82/82 81/81/81
f 71/71/71 72/72/72 83/83/83 82/82/82
f 72/72/72 73/73/73 84/84/84 83/83/83
f 73/73/73 74/74/74 85/85/85 84/84/84
f 74/74/74 75/75/75 86/86/86 85/85/85
f 75/75/75 76/76/76 87/87/87 86/86/86
f 76/76/76 77/77/77 88/88/88 87/87/87
f 78/78/79 79/79/78 90/90/89 89/89/90
f 79/79/78 80/80/80 91/91/91 90/90/89
f 80/80/80 81/81/81 92/92/92 91/91/91
f 81/81/81 82/82/82 93/93/93 92/92/92
f 82/82/82 83/83/83 94/94/94 93/93/93
f 83/83/83 84/84/84 95/95/95 94/94/94
f 84/84/84 85/85/85 96/96/96 95/95/95
f 85/85/85 86/86/86 97/97/97 96/96/96
f 86/86/86 87/87/87 98/98/98 97/97/97
f 87/87/87 88/88/88 99/99/99 98/98/98
f 89/89/90 90/90/89 101/101/100 100/100/101
f 90/90/89 91/91/91 102/102/102 101/101/100
f 91/91/91 92/92/92 103/103/103 102/102/102
f 92/92/92 93/93/93 104/104/104 103/103/103
f 93/93/93 94/94/94 105/105/105 104/104/104
f 94/94/94 95/95/95 106/106/106 105/105/105
f 95/95/95 96/96/96 107/107/107 106/106/106
f 96/96/96 97/97/97 108/108/108 107/107/107
f 97/97/97 98/98/98 109/109/109 108/108/108
f 98/98/98 99/99/99 110/110/110 109/109/109
f 100/100/101 101/101/100 112/112/111 111/111/112
f 101/101/100 102/102/102 113/113/113 112/112/111
f 102/102/102 103/103/103 114/114/114 113/113/113
f 103/103/103 104/104/104 115/115/115 114/114/114
f 104/104/104 105/105/105 116/116/116 115/115/115
f 105/105/105 106/106/106 117/117/117 116/116/116
f 106/106/106 107/107/107 118/118/118 117/117/117
f 107/107/107 108/108/108 119/119/119 118/118/118
f 108/108/108 109/109/109 120/120/120 119/119/119
f 109/109/109 110/110/110 121/121/121 120/120/120
