# This file uses centimeters as units for non-parametric coordinates.

mtllib fs7.mtl
g default
v 0.001423 0.001016 -0.025067
v 2.754215 0.000962 -0.025067
v 5.507057 -0.004221 -0.025442
v 8.259842 -0.024857 -0.028091
v 11.012613 -0.003597 -0.025675
v 13.780171 -0.000482 -0.058598
v 16.518173 0.000819 -0.025093
v 19.270949 -0.000482 -0.025222
v 22.023761 0.001016 -0.025067
v 24.776553 0.001016 -0.025067
v 27.529345 0.001016 -0.025067
v 0.001423 0.000916 -2.777859
v 2.755352 -0.014074 -2.778409
v 5.495876 -0.023026 -2.778317
v 8.222951 -0.321651 -2.842567
v 11.002704 0.031088 -2.774079
v 13.700797 0.486987 -2.874849
v 16.499261 0.488745 -2.747267
v 19.276414 -0.648248 -2.561535
v 22.015264 0.290031 -2.749083
v 24.776173 0.701627 -2.778067
v 27.529345 0.004459 -2.777859
v 0.001426 0.000350 -5.530654
v 2.756347 -0.026137 -5.532707
v 5.496466 -0.172092 -5.558152
v 8.257087 0.260149 -5.673935
v 10.929777 0.400949 -5.577234
v 13.740817 -0.122661 -5.539916
v 16.202998 0.920559 -5.752629
v 19.178082 0.718976 -5.282200
v 22.024413 0.611259 -5.528515
v 24.844727 1.376159 -5.484780
v 27.529345 0.043010 -5.530651
v 0.001423 0.001016 -8.283444
v 2.737073 0.472889 -8.269607
v 5.577390 -0.091345 -8.339785
v 8.263461 0.433602 -8.363237
v 10.949052 0.063131 -8.384333
v 13.497448 0.086369 -7.814956
v 16.511175 0.872556 -7.573124
v 19.383182 0.234699 -8.173178
v 21.782890 0.845598 -8.254697
v 24.785977 1.594228 -8.282145
v 27.529345 0.019624 -8.283444
v 0.001423 0.001016 -11.036236
v 2.698368 1.442093 -10.995565
v 5.554016 0.143091 -11.100881
v 7.988439 0.042615 -10.770677
v 10.355553 -0.803427 -10.554272
v 12.325293 0.127436 -10.271527
v 15.983527 0.280543 -8.947155
v 19.160634 0.799255 -11.204351
v 21.950775 0.414350 -11.050747
v 24.802722 1.868060 -11.013757
v 27.529345 0.001016 -11.036236
v 0.001423 0.002031 -13.789028
v 2.755706 1.007505 -13.897194
v 5.618361 0.278034 -13.731711
v 8.180736 0.620183 -12.626041
v 10.272254 0.167436 -12.765601
v 13.155995 -0.100178 -12.714000
v 17.010145 -0.065163 -11.532003
v 21.128149 -0.393891 -12.728107
v 22.333037 -0.176733 -13.988794
v 24.699947 2.054493 -13.656298
v 27.530815 0.040454 -13.791588
v 0.001423 0.001016 -16.541820
v 2.779462 0.421967 -16.607314
v 5.896832 0.478607 -15.668238
v 8.441833 0.038866 -15.470777
v 11.505909 -0.386724 -15.571761
v 13.767542 0.199916 -16.501848
v 16.703133 -0.055725 -15.950027
v 20.533534 -0.293866 -15.907974
v 22.082077 0.057632 -17.079339
v 24.623748 1.437365 -16.094576
v 27.527778 -0.006585 -16.541721
v 0.001423 0.001016 -19.294612
v 2.754215 0.001016 -19.294612
v 5.856510 -0.239413 -18.397934
v 8.475474 0.543799 -17.907554
v 11.391863 -0.187438 -18.367005
v 14.486089 -0.680105 -19.259234
v 16.923542 -0.200046 -19.209637
v 19.210291 -0.016320 -19.446767
v 21.899015 0.395959 -19.940279
v 24.724834 1.833199 -19.264990
v 27.529313 0.000733 -19.294610
v 0.001423 0.001016 -22.047404
v 2.754194 0.001170 -22.047405
v 5.557476 -0.154873 -21.873036
v 8.493136 -0.856975 -21.132146
v 10.839872 -0.142042 -22.030540
v 14.016556 -0.245004 -21.847922
v 17.224095 -1.103265 -21.745245
v 19.348122 -0.400120 -22.183634
v 21.967961 0.177091 -22.555422
v 24.701879 1.227574 -22.542387
v 27.529345 0.001016 -22.047404
v 0.001423 0.001016 -24.800197
v 2.754215 0.001016 -24.800197
v 5.507157 0.008850 -24.802358
v 8.535374 -0.773982 -24.789443
v 11.054357 0.316427 -24.854621
v 13.765306 0.002489 -24.800303
v 16.499569 -0.295736 -24.779672
v 19.277178 0.066786 -24.809484
v 21.991198 -0.141257 -24.804018
v 24.771093 0.832743 -25.159627
v 27.529345 0.001016 -24.800197
v 0.001423 0.001016 -27.552988
v 2.754215 0.001016 -27.552988
v 5.507007 0.001016 -27.552988
v 8.259801 0.000996 -27.552983
v 11.012592 0.001016 -27.552988
v 13.765384 0.001016 -27.552988
v 16.518177 0.001016 -27.552988
v 19.270968 0.001016 -27.552988
v 22.023761 0.001016 -27.552988
v 24.776553 0.001016 -27.552988
v 27.529345 0.001016 -27.552988
vt 0.000000 0.000000
vt 0.100000 0.000000
vt 0.200000 0.000000
vt 0.300000 0.000000
vt 0.400000 0.000000
vt 0.500000 0.000000
vt 0.600000 0.000000
vt 0.700000 0.000000
vt 0.800000 0.000000
vt 0.900000 0.000000
vt 1.000000 0.000000
vt 0.000000 0.100000
vt 0.100000 0.100000
vt 0.200000 0.100000
vt 0.300000 0.100000
vt 0.400000 0.100000
vt 0.500000 0.100000
vt 0.600000 0.100000
vt 0.700000 0.100000
vt 0.800000 0.100000
vt 0.900000 0.100000
vt 1.000000 0.100000
vt 0.000000 0.200000
vt 0.100000 0.200000
vt 0.200000 0.200000
vt 0.300000 0.200000
vt 0.400000 0.200000
vt 0.500000 0.200000
vt 0.600000 0.200000
vt 0.700000 0.200000
vt 0.800000 0.200000
vt 0.900000 0.200000
vt 1.000000 0.200000
vt 0.000000 0.300000
vt 0.100000 0.300000
vt 0.200000 0.300000
vt 0.300000 0.300000
vt 0.400000 0.300000
vt 0.500000 0.300000
vt 0.600000 0.300000
vt 0.700000 0.300000
vt 0.800000 0.300000
vt 0.900000 0.300000
vt 1.000000 0.300000
vt 0.000000 0.400000
vt 0.100000 0.400000
vt 0.200000 0.400000
vt 0.300000 0.400000
vt 0.400000 0.400000
vt 0.500000 0.400000
vt 0.600000 0.400000
vt 0.700000 0.400000
vt 0.800000 0.400000
vt 0.900000 0.400000
vt 1.000000 0.400000
vt 0.000000 0.500000
vt 0.100000 0.500000
vt 0.200000 0.500000
vt 0.300000 0.500000
vt 0.400000 0.500000
vt 0.500000 0.500000
vt 0.600000 0.500000
vt 0.700000 0.500000
vt 0.800000 0.500000
vt 0.900000 0.500000
vt 1.000000 0.500000
vt 0.000000 0.600000
vt 0.100000 0.600000
vt 0.200000 0.600000
vt 0.300000 0.600000
vt 0.400000 0.600000
vt 0.500000 0.600000
vt 0.600000 0.600000
vt 0.700000 0.600000
vt 0.800000 0.600000
vt 0.900000 0.600000
vt 1.000000 0.600000
vt 0.000000 0.700000
vt 0.100000 0.700000
vt 0.200000 0.700000
vt 0.300000 0.700000
vt 0.400000 0.700000
vt 0.500000 0.700000
vt 0.600000 0.700000
vt 0.700000 0.700000
vt 0.800000 0.700000
vt 0.900000 0.700000
vt 1.000000 0.700000
vt 0.000000 0.800000
vt 0.100000 0.800000
vt 0.200000 0.800000
vt 0.300000 0.800000
vt 0.400000 0.800000
vt 0.500000 0.800000
vt 0.600000 0.800000
vt 0.700000 0.800000
vt 0.800000 0.800000
vt 0.900000 0.800000
vt 1.000000 0.800000
vt 0.000000 0.900000
vt 0.100000 0.900000
vt 0.200000 0.900000
vt 0.300000 0.900000
vt 0.400000 0.900000
vt 0.500000 0.900000
vt 0.600000 0.900000
vt 0.700000 0.900000
vt 0.800000 0.900000
vt 0.900000 0.900000
vt 1.000000 0.900000
vt 0.000000 1.000000
vt 0.100000 1.000000
vt 0.200000 1.000000
vt 0.300000 1.000000
vt 0.400000 1.000000
vt 0.500000 1.000000
vt 0.600000 1.000000
vt 0.700000 1.000000
vt 0.800000 1.000000
vt 0.900000 1.000000
vt 1.000000 1.000000
vn 0.002732 0.999992 -0.002748
vn 0.002652 0.999987 -0.004447
vn 0.010244 0.999897 -0.010075
vn 0.005130 0.999984 -0.002520
vn 0.030219 0.999037 -0.031804
vn 0.016840 0.999849 -0.004196
vn -0.005494 0.998646 -0.051732
vn -0.031721 0.998827 0.036594
vn -0.074053 0.996972 0.023733
vn -0.058591 0.997339 0.043383
vn -0.042430 0.989915 0.135161
vn -0.068962 0.996385 0.049617
vn 0.097930 0.992441 0.073956
vn 0.058714 0.990606 0.123502
vn 0.017558 0.998627 -0.049360
vn 0.025985 0.992078 0.122909
vn -0.121255 0.990877 0.058818
vn -0.141048 0.977703 0.155569
vn 0.026338 0.987964 0.152427
vn 0.050169 0.986806 0.153937
vn 0.124614 0.984192 0.125845
vn 0.239774 0.962536 0.126619
vn 0.021670 0.998898 0.041634
vn -0.036667 0.998347 0.044261
vn -0.005973 0.998706 0.050501
vn -0.063087 0.995888 0.065017
vn 0.009812 0.999727 0.021216
vn -0.099568 0.994866 -0.018130
vn -0.046407 0.997540 0.052535
vn 0.036928 0.989526 0.139554
vn -0.173143 0.976208 0.130538
vn 0.104378 0.988764 0.107014
vn 0.414178 0.907189 0.073930
vn 0.012182 0.988924 0.147920
vn -0.210410 0.968797 0.130997
vn 0.057564 0.994335 0.089354
vn 0.002820 0.997214 -0.074543
vn 0.039159 0.993263 -0.109061
vn -0.098454 0.994154 -0.044330
vn -0.036791 0.998429 -0.042264
vn -0.006447 0.999611 -0.027134
vn -0.192555 0.981249 0.008576
vn 0.112565 0.993121 0.032255
vn 0.503177 0.863529 0.033622
vn -0.024644 0.997661 0.063763
vn -0.373540 0.926647 0.042357
vn 0.156191 0.984955 0.073942
vn 0.067144 0.997111 0.035516
vn 0.065992 0.997781 -0.008850
vn -0.089175 0.994837 -0.048441
vn -0.045845 0.992988 -0.108966
vn -0.128880 0.960262 -0.247561
vn -0.308718 0.946242 -0.096535
vn 0.066822 0.997615 -0.017311
vn 0.553108 0.832491 0.032098
vn -0.056367 0.995445 -0.076889
vn -0.336284 0.937591 -0.088526
vn 0.135058 0.990403 -0.029357
vn 0.086627 0.994025 0.066414
vn 0.065064 0.997496 0.027725
vn -0.020957 0.999703 -0.012416
vn -0.020509 0.993021 -0.116141
vn -0.008826 0.992131 -0.124895
vn -0.437273 0.898173 -0.045585
vn -0.008868 0.998063 -0.061577
vn 0.540205 0.840221 -0.046983
vn -0.029013 0.991501 -0.126824
vn -0.167556 0.981624 -0.091321
vn 0.050907 0.993757 -0.099271
vn 0.097030 0.994719 -0.033456
vn 0.041117 0.998378 -0.039375
vn -0.022629 0.997651 -0.064662
vn 0.027700 0.999577 -0.008808
vn -0.009306 0.999200 0.038889
vn -0.362841 0.927771 0.087104
vn -0.019252 0.999809 0.003479
vn 0.504345 0.863427 -0.011415
vn 0.022951 0.998004 -0.058829
vn -0.038327 0.998531 -0.038299
vn 0.039858 0.990685 -0.130211
vn 0.037059 0.996783 -0.071065
vn 0.044396 0.998252 -0.039016
vn 0.035087 0.996852 -0.071098
vn -0.024426 0.994696 -0.099918
vn -0.112459 0.992749 -0.042444
vn -0.319845 0.947330 -0.016293
vn 0.044403 0.999014 0.000150
vn 0.492499 0.870240 -0.011234
vn 0.024351 0.999652 0.010144
vn -0.000028 1.000000 0.000000
vn 0.106085 0.994175 -0.019034
vn -0.008544 0.995579 -0.093534
vn -0.072444 0.997172 0.020000
vn 0.111981 0.991264 0.069685
vn -0.039467 0.999081 0.016716
vn -0.175449 0.984486 -0.002111
vn -0.266095 0.959366 -0.093864
vn 0.039374 0.992565 -0.115168
vn 0.430801 0.898950 -0.079368
vn 0.006290 0.999956 0.007003
vn -0.000014 1.000000 -0.000014
vn 0.108450 0.992900 0.048860
vn -0.029694 0.996423 0.079116
vn -0.096748 0.993595 0.058385
vn 0.092928 0.993190 0.070264
vn 0.021937 0.992651 0.119004
vn -0.069464 0.994100 0.083309
vn -0.143591 0.987855 -0.059362
vn 0.007683 0.991765 -0.127838
vn 0.269850 0.957124 -0.105327
vn -0.000712 0.999999 -0.000712
vn 0.000000 1.000000 0.000000
vn 0.068261 0.995425 0.066855
vn -0.016241 0.993181 0.115448
vn -0.072718 0.997187 0.018186
vn 0.055989 0.998429 -0.001971
vn -0.006020 0.998850 0.047571
vn -0.014122 0.999507 0.028033
vn -0.070862 0.995743 -0.058943
vn -0.011513 0.989095 -0.146827
vn 0.157399 0.974911 -0.157399
s 1
g pisorelievesuave1 relievesuave
usemtl initialShadingGroup
f 1/1/1 2/2/2 13/13/3 12/12/4
f 2/2/2 3/3/5 14/14/6 13/13/3
f 3/3/5 4/4/7 15/15/8 14/14/6
f 4/4/7 5/5/9 16/16/10 15/15/8
f 5/5/9 6/6/11 17/17/12 16/16/10
f 6/6/11 7/7/13 18/18/14 17/17/12
f 7/7/13 8/8/15 19/19/16 18/18/14
f 8/8/15 9/9/17 20/20/18 19/19/16
f 9/9/17 10/10/19 21/21/20 20/20/18
f 10/10/19 11/11/21 22/22/22 21/21/20
f 12/12/4 13/13/3 24/24/23 23/23/24
f 13/13/3 14/14/6 25/25/25 24/24/23
f 14/14/6 15/15/8 26/26/26 25/25/25
f 15/15/8 16/16/10 27/27/27 26/26/26
f 16/16/10 17/17/12 28/28/28 27/27/27
f 17/17/12 18/18/14 29/29/29 28/28/28
f 18/18/14 19/19/16 30/30/30 29/29/29
f 19/19/16 20/20/18 31/31/31 30/30/30
f 20/20/18 21/21/20 32/32/32 31/31/31
f 21/21/20 22/22/22 33/33/33 32/32/32
f 23/23/24 24/24/23 35/35/34 34/34/35
f 24/24/23 25/25/25 36/36/36 35/35/34
f 25/25/25 26/26/26 37/37/37 36/36/36
f 26/26/26 27/27/27 38/38/38 37/37/37
f 27/27/27 28/28/28 39/39/39 38/38/38
f 28/28/28 29/29/29 40/40/40 39/39/39
f 29/29/29 30/30/30 41/41/41 40/40/40
f 30/30/30 31/31/31 42/42/42 41/41/41
f 31/31/31 32/32/32 43/43/43 42/42/42
f 32/32/32 33/33/33 44/44/44 43/43/43
f 34/34/35 35/35/34 46/46/45 45/45/46
f 35/35/34 36/36/36 47/47/47 46/46/45
f 36/36/36 37/37/37 48/48/48 47/47/47
f 37/37/37 38/38/38 49/49/49 48/48/48
f 38/38/38 39/39/39 50/50/50 49/49/49
f 39/39/39 40/40/40 51/51/51 50/50/50
f 40/40/40 41/41/41 52/52/52 51/51/51
f 41/41/41 42/42/42 53/53/53 52/52/52
f 42/42/42 43/43/43 54/54/54 53/53/53
f 43/43/43 44/44/44 55/55/55 54/54/54
f 45/45/46 46/46/45 57/57/56 56/56/57
f 46/46/45 47/47/47 58/58/58 57/57/56
f 47/47/47 48/48/48 59/59/59 58/58/58
f 48/48/48 49/49/49 60/60/60 59/59/59
f 49/49/49 50/50/50 61/61/61 60/60/60
f 50/50/50 51/51/51 62/62/62 61/61/61
f 51/51/51 52/52/52 63/63/63 62/62/62
f 52/52/52 53/53/53 64/64/64 63/63/63
f 53/53/53 54/54/54 65/65/65 64/64/64
f 54/54/54 55/55/55 66/66/66 65/65/65
f 56/56/57 57/57/56 68/68/67 67/67/68
f 57/57/56 58/58/58 69/69/69 68/68/67
f 58/58/58 59/59/59 70/70/70 69/69/69
f 59/59/59 60/60/60 71/71/71 70/70/70
f 60/60/60 61/61/61 72/72/72 71/71/71
f 61/61/61 62/62/62 73/73/73 72/72/72
f 62/62/62 63/63/63 74/74/74 73/73/73
f 63/63/63 64/64/64 75/75/75 74/74/74
f 64/64/64 65/65/65 76/76/76 75/75/75
f 65/65/65 66/66/66 77/77/77 76/76/76
f 67/67/68 68/68/67 79/79/78 78/78/79
f 68/68/67 69/69/69 80/80/80 79/79/78
f 69/69/69 70/70/70 81/81/81 80/80/80
f 70/70/70 71/71/71 82/82/82 81/81/81
f 71/71/71 72/72/72 83/83/83 82/82/82
f 72/72/72 73/73/73 84/84/84 83/83/83
f 73/73/73 74/74/74 85/85/85 84/84/84
f 74/74/74 75/75/75 86/86/86 85/85/85
f 75/75/75 76/76/76 87/87/87 86/86/86
f 76/76/76 77/77/77 88/88/88 87/87/87
f 78/78/79 79/79/78 90/90/89 89/89/90
f 79/79/78 80/80/80 91/91/91 90/90/89
f 80/80/80 81/81/81 92/92/92 91/91/91
f 81/81/81 82/82/82 93/93/93 92/92/92
f 82/82/82 83/83/83 94/94/94 93/93/93
f 83/83/83 84/84/84 95/95/95 94/94/94
f 84/84/84 85/85/85 96/96/96 95/95/95
f 85/85/85 86/86/86 97/97/97 96/96/96
f 86/86/86 87/87/87 98/98/98 97/97/97
f 87/87/87 88/88/88 99/99/99 98/98/98
f 89/89/90 90/90/89 101/101/100 100/100/101
f 90/90/89 91/91/91 102/102/102 101/101/100
f 91/91/91 92/92/92 103/103/103 102/102/102
f 92/92/92 93/93/93 104/104/104 103/103/103
f 93/93/93 94/94/94 105/105/105 104/104/104
f 94/94/94 95/95/95 106/106/106 105/105/105
f 95/95/95 96/96/96 107/107/107 106/106/106
f 96/96/96 97/97/97 108/108/108 107/107/107
f 97/97/97 98/98/98 109/109/109 108/108/108
f 98/98/98 99/99/99 110/110/110 109/109/109
f 100/100/101 101/101/100 112/112/111 111/111/112
f 101/101/100 102/102/102 113/113/113 112/112/111
f 102/102/102 103/103/103 114/114/114 113/113/113
f 103/103/103 104/104/104 115/115/115 114/114/114
f 104/104/104 105/105/105 116/116/116 115/115/115
f 105/105/105 106/106/106 117/117/117 116/116/116
f 106/106/106 107/107/107 118/118/118 117/117/117
f 107/107/107 108/108/108 119/119/119 118/118/118
f 108/108/108 109/109/109 120/120/120 119/119/119
f 109/109/109 110/110/110 121/121/121 120/120/120
