# This file uses centimeters as units for non-parametric coordinates.

mtllib lsw6.mtl
g default
v 0.001420 27.528937 -0.025054
v 0.001367 24.776145 -0.025054
v -0.003817 22.023304 -0.025429
v -0.024452 19.270519 -0.028078
v -0.003193 16.517748 -0.025662
v -0.000077 13.750189 -0.058584
v 0.001224 11.012187 -0.025079
v -0.000077 8.259412 -0.025209
v 0.001420 5.506600 -0.025054
v 0.001420 2.753807 -0.025054
v 0.001420 0.001016 -0.025054
v 0.001320 27.528937 -2.777846
v -0.013669 24.775008 -2.778395
v -0.022583 22.034486 -2.778304
v -0.321247 19.307410 -2.842554
v 0.031493 16.527656 -2.774065
v 0.487392 13.829563 -2.874835
v 0.489150 11.031100 -2.747253
v -0.647843 8.253946 -2.561521
v 0.290436 5.515097 -2.749069
v 0.350910 2.777133 -2.787726
v 0.004864 0.001016 -2.777846
v 0.000755 27.528935 -5.530641
v -0.025732 24.774014 -5.532694
v 0.419549 22.063133 -5.564664
v 0.260554 19.273274 -5.673921
v 0.401354 16.600584 -5.577221
v -0.122256 13.789543 -5.539902
v 0.920963 11.327363 -5.752615
v 0.719381 8.352279 -5.282186
v 0.611664 5.505948 -5.528501
v 0.245081 2.810454 -5.430131
v 0.043415 0.001016 -5.530638
v 0.001420 27.528937 -8.283430
v 0.473294 24.793287 -8.269594
v 0.610562 21.954570 -8.323301
v 0.451911 19.266050 -8.364753
v 0.421865 16.566655 -8.411970
v 0.086774 14.032913 -7.814943
v 0.872960 11.019185 -7.573110
v 0.235104 8.147178 -8.173165
v 0.260238 5.735713 -8.217586
v 0.464138 2.886202 -8.193192
v 0.020029 0.001016 -8.283430
v 0.001420 27.528937 -11.036222
v 0.893018 24.823204 -11.029719
v 0.552227 21.913530 -11.033249
v 0.057193 19.540086 -10.769089
v -0.001943 17.145382 -10.611889
v 0.136881 15.204796 -10.272088
v 0.280948 11.546833 -8.947142
v 0.799659 8.369727 -11.204338
v 0.375676 5.578997 -11.048024
v 0.413762 2.844104 -10.909891
v 0.001420 0.001016 -11.036222
v 0.002436 27.528937 -13.789014
v 1.006848 24.774641 -13.897246
v 0.861726 21.907309 -13.584563
v 0.620856 19.349610 -12.625979
v 0.167841 17.258106 -12.765588
v -0.099773 14.374365 -12.713987
v -0.064758 10.520216 -11.531989
v 0.055990 6.436448 -12.787971
v 0.368762 5.259012 -14.030114
v 0.601932 2.734733 -13.664773
v 0.040859 -0.000454 -13.791574
v 0.001420 27.528937 -16.541807
v 1.129637 24.810722 -16.702696
v 1.011948 21.602548 -15.663557
v 0.039355 19.088521 -15.470762
v -0.386319 16.024451 -15.571748
v 0.200321 13.762819 -16.501835
v -0.055320 10.827228 -15.950014
v 0.311210 7.071509 -15.925311
v 0.125831 5.457246 -17.077148
v 0.318002 2.919900 -16.113772
v -0.006180 0.002582 -16.541707
v 0.001420 27.528937 -19.294598
v 0.983509 24.839631 -19.441969
v 1.103465 21.674146 -18.596673
v 1.146070 19.063705 -17.988487
v -0.187033 16.138497 -18.366991
v -0.679700 13.044271 -19.259220
v -0.187904 10.608261 -19.209833
v 0.097527 8.337181 -19.448246
v 0.396364 5.631346 -19.940265
v 0.585166 2.858169 -19.314180
v 0.001138 0.001048 -19.294596
v 0.001420 27.528937 -22.047391
v 0.001574 24.776166 -22.047392
v -0.154468 21.972885 -21.873022
v 1.013657 19.210130 -21.629662
v 1.037028 16.613385 -22.011133
v -0.244599 13.513804 -21.847908
v -0.246442 10.421660 -21.758297
v 0.207235 8.272406 -22.191694
v 0.177495 5.562399 -22.555409
v 0.258777 2.855308 -22.514316
v 0.001420 0.001016 -22.047391
v 0.001420 27.528937 -24.800184
v 0.001420 24.776145 -24.800184
v 0.009255 22.023204 -24.802345
v 0.402738 19.069263 -24.991138
v 0.316831 16.476004 -24.854608
v 0.002894 13.765054 -24.800290
v -0.295331 11.030792 -24.779658
v 0.067190 8.253182 -24.809471
v -0.140852 5.539163 -24.804004
v 0.269822 2.745882 -25.069165
v 0.001420 0.001016 -24.800184
v 0.001420 27.528937 -27.552975
v 0.001420 24.776145 -27.552975
v 0.001420 22.023353 -27.552975
v 0.001401 19.270560 -27.552970
v 0.001420 16.517768 -27.552975
v 0.001420 13.764977 -27.552975
v 0.001420 11.012184 -27.552975
v 0.001420 8.259393 -27.552975
v 0.001420 5.506600 -27.552975
v 0.001179 2.753801 -27.552935
v 0.001420 0.001016 -27.552975
vt 0.000000 0.000000
vt 0.100000 0.000000
vt 0.200000 0.000000
vt 0.300000 0.000000
vt 0.400000 0.000000
vt 0.500000 0.000000
vt 0.600000 0.000000
vt 0.700000 0.000000
vt 0.800000 0.000000
vt 0.900000 0.000000
vt 1.000000 0.000000
vt 0.000000 0.100000
vt 0.100000 0.100000
vt 0.200000 0.100000
vt 0.300000 0.100000
vt 0.400000 0.100000
vt 0.500000 0.100000
vt 0.600000 0.100000
vt 0.700000 0.100000
vt 0.800000 0.100000
vt 0.900000 0.100000
vt 1.000000 0.100000
vt 0.000000 0.200000
vt 0.100000 0.200000
vt 0.200000 0.200000
vt 0.300000 0.200000
vt 0.400000 0.200000
vt 0.500000 0.200000
vt 0.600000 0.200000
vt 0.700000 0.200000
vt 0.800000 0.200000
vt 0.900000 0.200000
vt 1.000000 0.200000
vt 0.000000 0.300000
vt 0.100000 0.300000
vt 0.200000 0.300000
vt 0.300000 0.300000
vt 0.400000 0.300000
vt 0.500000 0.300000
vt 0.600000 0.300000
vt 0.700000 0.300000
vt 0.800000 0.300000
vt 0.900000 0.300000
vt 1.000000 0.300000
vt 0.000000 0.400000
vt 0.100000 0.400000
vt 0.200000 0.400000
vt 0.300000 0.400000
vt 0.400000 0.400000
vt 0.500000 0.400000
vt 0.600000 0.400000
vt 0.700000 0.400000
vt 0.800000 0.400000
vt 0.900000 0.400000
vt 1.000000 0.400000
vt 0.000000 0.500000
vt 0.100000 0.500000
vt 0.200000 0.500000
vt 0.300000 0.500000
vt 0.400000 0.500000
vt 0.500000 0.500000
vt 0.600000 0.500000
vt 0.700000 0.500000
vt 0.800000 0.500000
vt 0.900000 0.500000
vt 1.000000 0.500000
vt 0.000000 0.600000
vt 0.100000 0.600000
vt 0.200000 0.600000
vt 0.300000 0.600000
vt 0.400000 0.600000
vt 0.500000 0.600000
vt 0.600000 0.600000
vt 0.700000 0.600000
vt 0.800000 0.600000
vt 0.900000 0.600000
vt 1.000000 0.600000
vt 0.000000 0.700000
vt 0.100000 0.700000
vt 0.200000 0.700000
vt 0.300000 0.700000
vt 0.400000 0.700000
vt 0.500000 0.700000
vt 0.600000 0.700000
vt 0.700000 0.700000
vt 0.800000 0.700000
vt 0.900000 0.700000
vt 1.000000 0.700000
vt 0.000000 0.800000
vt 0.100000 0.800000
vt 0.200000 0.800000
vt 0.300000 0.800000
vt 0.400000 0.800000
vt 0.500000 0.800000
vt 0.600000 0.800000
vt 0.700000 0.800000
vt 0.800000 0.800000
vt 0.900000 0.800000
vt 1.000000 0.800000
vt 0.000000 0.900000
vt 0.100000 0.900000
vt 0.200000 0.900000
vt 0.300000 0.900000
vt 0.400000 0.900000
vt 0.500000 0.900000
vt 0.600000 0.900000
vt 0.700000 0.900000
vt 0.800000 0.900000
vt 0.900000 0.900000
vt 1.000000 0.900000
vt 0.000000 1.000000
vt 0.100000 1.000000
vt 0.200000 1.000000
vt 0.300000 1.000000
vt 0.400000 1.000000
vt 0.500000 1.000000
vt 0.600000 1.000000
vt 0.700000 1.000000
vt 0.800000 1.000000
vt 0.900000 1.000000
vt 1.000000 1.000000
vn 0.999992 -0.002732 -0.002748
vn 0.999987 -0.002649 -0.004443
vn 0.999723 0.016630 0.016652
vn 0.999984 -0.005130 -0.002520
vn 0.999037 -0.030219 -0.031797
vn 0.998613 -0.018167 0.049427
vn 0.998646 0.005491 -0.051729
vn 0.997966 0.003333 0.063656
vn 0.996972 0.074053 0.023733
vn 0.997339 0.058591 0.043383
vn 0.989915 0.042430 0.135161
vn 0.996385 0.068962 0.049617
vn 0.992441 -0.097930 0.073956
vn 0.990606 -0.058714 0.123502
vn 0.998627 -0.017558 -0.049360
vn 0.992078 -0.025985 0.122909
vn 0.995638 0.089556 0.026171
vn 0.992225 0.062162 0.107825
vn 0.995646 -0.026438 0.089388
vn 0.997352 -0.051501 0.051347
vn 0.996042 -0.062227 0.063473
vn 0.996489 -0.079725 0.025570
vn 0.995363 0.063625 0.072146
vn 0.998347 0.036667 0.044261
vn 0.993354 0.009356 0.114718
vn 0.993381 -0.007887 0.114598
vn 0.998533 -0.007983 0.053547
vn 0.996314 0.085749 -0.002289
vn 0.997540 0.046407 0.052535
vn 0.991305 -0.060069 0.117077
vn 0.999141 0.007138 0.040818
vn 0.997118 -0.075318 0.009152
vn 0.994307 -0.105947 0.011369
vn 0.991210 0.097949 0.088926
vn 0.983075 0.163342 0.082969
vn 0.998477 -0.028539 0.047217
vn 0.998447 -0.045218 -0.032555
vn 0.997700 -0.052329 -0.043081
vn 0.998708 0.046817 -0.019768
vn 0.998447 0.036655 -0.041962
vn 0.998117 -0.053568 -0.029879
vn 0.999783 -0.017629 -0.011056
vn 0.998077 -0.061962 0.001855
vn 0.991326 -0.130986 0.010699
vn 0.991244 0.118038 0.059176
vn 0.956983 0.286622 0.045059
vn 0.994536 -0.083015 0.063295
vn 0.995467 -0.094409 0.011511
vn 0.997831 -0.048701 -0.044282
vn 0.996396 -0.015600 -0.083381
vn 0.993702 0.046352 -0.102021
vn 0.980274 0.100917 -0.169937
vn 0.999811 0.009247 0.017098
vn 0.998260 -0.056487 0.016893
vn 0.986824 -0.160906 0.016975
vn 0.987244 0.152999 0.044063
vn 0.938554 0.344578 0.019556
vn 0.991971 -0.113832 0.055093
vn 0.987364 -0.153919 0.037690
vn 0.996666 -0.069855 -0.042161
vn 0.999558 0.000489 -0.029729
vn 0.993948 0.064546 -0.088885
vn 0.997137 0.060582 -0.045243
vn 0.998297 0.049215 -0.031331
vn 0.998125 -0.059125 -0.015806
vn 0.986887 -0.160931 -0.012439
vn 0.984724 0.173972 0.007197
vn 0.931654 0.363346 0.001011
vn 0.993188 -0.102256 0.055876
vn 0.974600 -0.216342 0.057885
vn 0.997516 -0.069693 -0.010205
vn 0.997661 0.023136 -0.064317
vn 0.999342 0.035231 -0.008645
vn 0.998164 0.058615 0.015291
vn 0.998097 0.057627 0.021958
vn 0.999067 -0.041184 -0.013019
vn 0.988026 -0.154284 -0.000839
vn 0.980339 0.105943 -0.166470
vn 0.955143 0.279791 -0.097048
vn 0.994549 0.022307 -0.101855
vn 0.985552 -0.135913 0.101069
vn 0.972736 -0.202371 0.113273
vn 0.997792 -0.062619 0.022131
vn 0.995010 0.092612 -0.037129
vn 0.995810 0.090351 -0.014076
vn 0.998629 0.051213 -0.010836
vn 0.998940 -0.045888 0.003657
vn 0.987991 -0.154483 -0.002930
vn 0.990278 0.015775 -0.138202
vn 0.991830 0.090217 -0.090189
vn 0.982780 0.091990 -0.160255
vn 0.996584 0.039693 -0.072418
vn 0.978903 -0.203966 0.012129
vn 0.984341 -0.160078 0.073808
vn 0.995658 0.090367 0.022345
vn 0.995702 0.087017 -0.031716
vn 0.996883 0.034765 -0.070824
vn 0.998106 -0.032502 -0.052231
vn 0.991512 -0.126501 -0.030012
vn 0.999956 -0.006290 0.007003
vn 1.000000 0.000014 -0.000014
vn 0.995567 0.088568 -0.031662
vn 0.988718 0.084377 -0.123766
vn 0.987850 -0.095746 -0.122414
vn 0.993045 -0.116280 -0.018460
vn 0.999410 0.019778 0.028081
vn 0.999174 0.039194 -0.010728
vn 0.998923 0.022127 -0.040789
vn 0.999440 0.002281 -0.033374
vn 0.997044 -0.073777 -0.021433
vn 0.999999 0.000712 -0.000712
vn 1.000000 -0.000000 0.000000
vn 0.998621 0.036394 -0.037848
vn 0.994300 0.029748 -0.102388
vn 0.994563 -0.038966 -0.096577
vn 0.998429 -0.055989 -0.001971
vn 0.998850 0.006020 0.047571
vn 0.999507 0.014122 0.028033
vn 0.999825 0.018020 -0.005010
vn 0.999208 0.012310 -0.037831
vn 0.997375 -0.051156 -0.051244
s 1
g pisorelievesuave19 relievesuave
usemtl initialShadingGroup
f 1/1/1 2/2/2 13/13/3 12/12/4
f 2/2/2 3/3/5 14/14/6 13/13/3
f 3/3/5 4/4/7 15/15/8 14/14/6
f 4/4/7 5/5/9 16/16/10 15/15/8
f 5/5/9 6/6/11 17/17/12 16/16/10
f 6/6/11 7/7/13 18/18/14 17/17/12
f 7/7/13 8/8/15 19/19/16 18/18/14
f 8/8/15 9/9/17 20/20/18 19/19/16
f 9/9/17 10/10/19 21/21/20 20/20/18
f 10/10/19 11/11/21 22/22/22 21/21/20
f 12/12/4 13/13/3 24/24/23 23/23/24
f 13/13/3 14/14/6 25/25/25 24/24/23
f 14/14/6 15/15/8 26/26/26 25/25/25
f 15/15/8 16/16/10 27/27/27 26/26/26
f 16/16/10 17/17/12 28/28/28 27/27/27
f 17/17/12 18/18/14 29/29/29 28/28/28
f 18/18/14 19/19/16 30/30/30 29/29/29
f 19/19/16 20/20/18 31/31/31 30/30/30
f 20/20/18 21/21/20 32/32/32 31/31/31
f 21/21/20 22/22/22 33/33/33 32/32/32
f 23/23/24 24/24/23 35/35/34 34/34/35
f 24/24/23 25/25/25 36/36/36 35/35/34
f 25/25/25 26/26/26 37/37/37 36/36/36
f 26/26/26 27/27/27 38/38/38 37/37/37
f 27/27/27 28/28/28 39/39/39 38/38/38
f 28/28/28 29/29/29 40/40/40 39/39/39
f 29/29/29 30/30/30 41/41/41 40/40/40
f 30/30/30 31/31/31 42/42/42 41/41/41
f 31/31/31 32/32/32 43/43/43 42/42/42
f 32/32/32 33/33/33 44/44/44 43/43/43
f 34/34/35 35/35/34 46/46/45 45/45/46
f 35/35/34 36/36/36 47/47/47 46/46/45
f 36/36/36 37/37/37 48/48/48 47/47/47
f 37/37/37 38/38/38 49/49/49 48/48/48
f 38/38/38 39/39/39 50/50/50 49/49/49
f 39/39/39 40/40/40 51/51/51 50/50/50
f 40/40/40 41/41/41 52/52/52 51/51/51
f 41/41/41 42/42/42 53/53/53 52/52/52
f 42/42/42 43/43/43 54/54/54 53/53/53
f 43/43/43 44/44/44 55/55/55 54/54/54
f 45/45/46 46/46/45 57/57/56 56/56/57
f 46/46/45 47/47/47 58/58/58 57/57/56
f 47/47/47 48/48/48 59/59/59 58/58/58
f 48/48/48 49/49/49 60/60/60 59/59/59
f 49/49/49 50/50/50 61/61/61 60/60/60
f 50/50/50 51/51/51 62/62/62 61/61/61
f 51/51/51 52/52/52 63/63/63 62/62/62
f 52/52/52 53/53/53 64/64/64 63/63/63
f 53/53/53 54/54/54 65/65/65 64/64/64
f 54/54/54 55/55/55 66/66/66 65/65/65
f 56/56/57 57/57/56 68/68/67 67/67/68
f 57/57/56 58/58/58 69/69/69 68/68/67
f 58/58/58 59/59/59 70/70/70 69/69/69
f 59/59/59 60/60/60 71/71/71 70/70/70
f 60/60/60 61/61/61 72/72/72 71/71/71
f 61/61/61 62/62/62 73/73/73 72/72/72
f 62/62/62 63/63/63 74/74/74 73/73/73
f 63/63/63 64/64/64 75/75/75 74/74/74
f 64/64/64 65/65/65 76/76/76 75/75/75
f 65/65/65 66/66/66 77/77/77 76/76/76
f 67/67/68 68/68/67 79/79/78 78/78/79
f 68/68/67 69/69/69 80/80/80 79/79/78
f 69/69/69 70/70/70 81/81/81 80/80/80
f 70/70/70 71/71/71 82/82/82 81/81/81
f 71/71/71 72/72/72 83/83/83 82/82/82
f 72/72/72 73/73/73 84/84/84 83/83/83
f 73/73/73 74/74/74 85/85/85 84/84/84
f 74/74/74 75/75/75 86/86/86 85/85/85
f 75/75/75 76/76/76 87/87/87 86/86/86
f 76/76/76 77/77/77 88/88/88 87/87/87
f 78/78/79 79/79/78 90/90/89 89/89/90
f 79/79/78 80/80/80 91/91/91 90/90/89
f 80/80/80 81/81/81 92/92/92 91/91/91
f 81/81/81 82/82/82 93/93/93 92/92/92
f 82/82/82 83/83/83 94/94/94 93/93/93
f 83/83/83 84/84/84 95/95/95 94/94/94
f 84/84/84 85/85/85 96/96/96 95/95/95
f 85/85/85 86/86/86 97/97/97 96/96/96
f 86/86/86 87/87/87 98/98/98 97/97/97
f 87/87/87 88/88/88 99/99/99 98/98/98
f 89/89/90 90/90/89 101/101/100 100/100/101
f 90/90/89 91/91/91 102/102/102 101/101/100
f 91/91/91 92/92/92 103/103/103 102/102/102
f 92/92/92 93/93/93 104/104/104 103/103/103
f 93/93/93 94/94/94 105/105/105 104/104/104
f 94/94/94 95/95/95 106/106/106 105/105/105
f 95/95/95 96/96/96 107/107/107 106/106/106
f 96/96/96 97/97/97 108/108/108 107/107/107
f 97/97/97 98/98/98 109/109/109 108/108/108
f 98/98/98 99/99/99 110/110/110 109/109/109
f 100/100/101 101/101/100 112/112/111 111/111/112
f 101/101/100 102/102/102 113/113/113 112/112/111
f 102/102/102 103/103/103 114/114/114 113/113/113
f 103/103/103 104/104/104 115/115/115 114/114/114
f 104/104/104 105/105/105 116/116/116 115/115/115
f 105/105/105 106/106/106 117/117/117 116/116/116
f 106/106/106 107/107/107 118/118/118 117/117/117
f 107/107/107 108/108/108 119/119/119 118/118/118
f 108/108/108 109/109/109 120/120/120 119/119/119
f 109/109/109 110/110/110 121/121/121 120/120/120
