# This file uses centimeters as units for non-parametric coordinates.

mtllib rsw6.mtl
g default
v 0.001423 0.001016 -0.025054
v 0.001477 2.753808 -0.025054
v 0.006660 5.506649 -0.025429
v 0.027295 8.259434 -0.028078
v 0.006036 11.012205 -0.025662
v 0.002920 13.779764 -0.058584
v 0.001619 16.517766 -0.025079
v 0.002920 19.270541 -0.025209
v 0.001423 22.023353 -0.025054
v 0.001423 24.776146 -0.025054
v 0.001423 27.528937 -0.025054
v 0.001523 0.001016 -2.777846
v 0.016512 2.754945 -2.778395
v 0.025426 5.495467 -2.778304
v 0.324090 8.222543 -2.842554
v -0.028650 11.002297 -2.774065
v -0.484548 13.700390 -2.874835
v -0.486307 16.498853 -2.747253
v 0.650686 19.276007 -2.561521
v -0.287592 22.014856 -2.749069
v -0.348067 24.752820 -2.787726
v -0.002021 27.528937 -2.777846
v 0.002089 0.001018 -5.530641
v 0.028575 2.755939 -5.532694
v -0.416705 5.466820 -5.564664
v -0.257710 8.256679 -5.673921
v -0.398510 10.929369 -5.577221
v 0.125100 13.740410 -5.539902
v -0.918120 16.202590 -5.752615
v -0.716537 19.177674 -5.282186
v -0.608821 22.024005 -5.528501
v -0.242237 24.719499 -5.430131
v -0.040572 27.528937 -5.530638
v 0.001423 0.001016 -8.283430
v -0.470451 2.736666 -8.269594
v -0.607719 5.575383 -8.323301
v -0.449067 8.263903 -8.364753
v -0.419021 10.963298 -8.411970
v -0.083931 13.497040 -7.814943
v -0.870117 16.510768 -7.573110
v -0.232261 19.382775 -8.173165
v -0.257395 21.794240 -8.217586
v -0.461295 24.643751 -8.193192
v -0.017186 27.528937 -8.283430
v 0.001423 0.001016 -11.036222
v -0.890175 2.706749 -11.029719
v -0.549384 5.616423 -11.033249
v -0.054350 7.989867 -10.769089
v 0.004786 10.384571 -10.611889
v -0.134038 12.325157 -10.272088
v -0.278104 15.983120 -8.947142
v -0.796816 19.160226 -11.204338
v -0.372833 21.950956 -11.048024
v -0.410918 24.685849 -10.909891
v 0.001423 27.528937 -11.036222
v 0.000407 0.001016 -13.789014
v -1.004004 2.755312 -13.897246
v -0.858883 5.622644 -13.584563
v -0.618013 8.180343 -12.625979
v -0.164998 10.271847 -12.765588
v 0.102617 13.155588 -12.713987
v 0.067601 17.009737 -11.531989
v -0.053147 21.093505 -12.787971
v -0.365919 22.270941 -14.030114
v -0.599089 24.795220 -13.664773
v -0.038016 27.530407 -13.791574
v 0.001423 0.001016 -16.541807
v -1.126794 2.719231 -16.702696
v -1.009105 5.927405 -15.663557
v -0.036512 8.441432 -15.470762
v 0.389162 11.505502 -15.571748
v -0.197477 13.767134 -16.501835
v 0.058164 16.702725 -15.950014
v -0.308366 20.458444 -15.925311
v -0.122987 22.072707 -17.077148
v -0.315159 24.610054 -16.113772
v 0.009023 27.527371 -16.541707
v 0.001423 0.001016 -19.294598
v -0.980666 2.690322 -19.441969
v -1.100621 5.855807 -18.596673
v -1.143227 8.466248 -17.988487
v 0.189876 11.391456 -18.366991
v 0.682544 14.485682 -19.259220
v 0.190748 16.921692 -19.209833
v -0.094683 19.192772 -19.448246
v -0.393520 21.898607 -19.940265
v -0.582322 24.671784 -19.314180
v 0.001706 27.528905 -19.294596
v 0.001423 0.001016 -22.047391
v 0.001269 2.753787 -22.047392
v 0.157312 5.557068 -21.873022
v -1.010814 8.319823 -21.629662
v -1.034185 10.916568 -22.011133
v 0.247442 14.016149 -21.847908
v 0.249285 17.108293 -21.758297
v -0.204392 19.257547 -22.191694
v -0.174652 21.967554 -22.555409
v -0.255934 24.674645 -22.514316
v 0.001423 27.528937 -22.047391
v 0.001423 0.001016 -24.800184
v 0.001423 2.753808 -24.800184
v -0.006411 5.506749 -24.802345
v -0.399895 8.460690 -24.991138
v -0.313988 11.053949 -24.854608
v -0.000050 13.764899 -24.800290
v 0.298174 16.499161 -24.779658
v -0.064347 19.276771 -24.809471
v 0.143695 21.990790 -24.804004
v -0.266978 24.784071 -25.069165
v 0.001423 27.528937 -24.800184
v 0.001423 0.001016 -27.552975
v 0.001423 2.753808 -27.552975
v 0.001423 5.506600 -27.552975
v 0.001443 8.259393 -27.552970
v 0.001423 11.012185 -27.552975
v 0.001423 13.764977 -27.552975
v 0.001423 16.517769 -27.552975
v 0.001423 19.270560 -27.552975
v 0.001423 22.023353 -27.552975
v 0.001664 24.776152 -27.552935
v 0.001423 27.528937 -27.552975
vt 0.000000 0.000000
vt 0.100000 0.000000
vt 0.200000 0.000000
vt 0.300000 0.000000
vt 0.400000 0.000000
vt 0.500000 0.000000
vt 0.600000 0.000000
vt 0.700000 0.000000
vt 0.800000 0.000000
vt 0.900000 0.000000
vt 1.000000 0.000000
vt 0.000000 0.100000
vt 0.100000 0.100000
vt 0.200000 0.100000
vt 0.300000 0.100000
vt 0.400000 0.100000
vt 0.500000 0.100000
vt 0.600000 0.100000
vt 0.700000 0.100000
vt 0.800000 0.100000
vt 0.900000 0.100000
vt 1.000000 0.100000
vt 0.000000 0.200000
vt 0.100000 0.200000
vt 0.200000 0.200000
vt 0.300000 0.200000
vt 0.400000 0.200000
vt 0.500000 0.200000
vt 0.600000 0.200000
vt 0.700000 0.200000
vt 0.800000 0.200000
vt 0.900000 0.200000
vt 1.000000 0.200000
vt 0.000000 0.300000
vt 0.100000 0.300000
vt 0.200000 0.300000
vt 0.300000 0.300000
vt 0.400000 0.300000
vt 0.500000 0.300000
vt 0.600000 0.300000
vt 0.700000 0.300000
vt 0.800000 0.300000
vt 0.900000 0.300000
vt 1.000000 0.300000
vt 0.000000 0.400000
vt 0.100000 0.400000
vt 0.200000 0.400000
vt 0.300000 0.400000
vt 0.400000 0.400000
vt 0.500000 0.400000
vt 0.600000 0.400000
vt 0.700000 0.400000
vt 0.800000 0.400000
vt 0.900000 0.400000
vt 1.000000 0.400000
vt 0.000000 0.500000
vt 0.100000 0.500000
vt 0.200000 0.500000
vt 0.300000 0.500000
vt 0.400000 0.500000
vt 0.500000 0.500000
vt 0.600000 0.500000
vt 0.700000 0.500000
vt 0.800000 0.500000
vt 0.900000 0.500000
vt 1.000000 0.500000
vt 0.000000 0.600000
vt 0.100000 0.600000
vt 0.200000 0.600000
vt 0.300000 0.600000
vt 0.400000 0.600000
vt 0.500000 0.600000
vt 0.600000 0.600000
vt 0.700000 0.600000
vt 0.800000 0.600000
vt 0.900000 0.600000
vt 1.000000 0.600000
vt 0.000000 0.700000
vt 0.100000 0.700000
vt 0.200000 0.700000
vt 0.300000 0.700000
vt 0.400000 0.700000
vt 0.500000 0.700000
vt 0.600000 0.700000
vt 0.700000 0.700000
vt 0.800000 0.700000
vt 0.900000 0.700000
vt 1.000000 0.700000
vt 0.000000 0.800000
vt 0.100000 0.800000
vt 0.200000 0.800000
vt 0.300000 0.800000
vt 0.400000 0.800000
vt 0.500000 0.800000
vt 0.600000 0.800000
vt 0.700000 0.800000
vt 0.800000 0.800000
vt 0.900000 0.800000
vt 1.000000 0.800000
vt 0.000000 0.900000
vt 0.100000 0.900000
vt 0.200000 0.900000
vt 0.300000 0.900000
vt 0.400000 0.900000
vt 0.500000 0.900000
vt 0.600000 0.900000
vt 0.700000 0.900000
vt 0.800000 0.900000
vt 0.900000 0.900000
vt 1.000000 0.900000
vt 0.000000 1.000000
vt 0.100000 1.000000
vt 0.200000 1.000000
vt 0.300000 1.000000
vt 0.400000 1.000000
vt 0.500000 1.000000
vt 0.600000 1.000000
vt 0.700000 1.000000
vt 0.800000 1.000000
vt 0.900000 1.000000
vt 1.000000 1.000000
vn -0.999992 0.002732 -0.002748
vn -0.999987 0.002649 -0.004443
vn -0.999723 -0.016630 0.016652
vn -0.999984 0.005130 -0.002520
vn -0.999037 0.030219 -0.031797
vn -0.998613 0.018167 0.049427
vn -0.998646 -0.005491 -0.051729
vn -0.997966 -0.003333 0.063656
vn -0.996972 -0.074053 0.023733
vn -0.997339 -0.058591 0.043383
vn -0.989915 -0.042430 0.135161
vn -0.996385 -0.068962 0.049617
vn -0.992441 0.097930 0.073956
vn -0.990606 0.058714 0.123502
vn -0.998627 0.017558 -0.049360
vn -0.992078 0.025985 0.122909
vn -0.995638 -0.089556 0.026171
vn -0.992225 -0.062162 0.107825
vn -0.995646 0.026438 0.089388
vn -0.997352 0.051501 0.051347
vn -0.996042 0.062227 0.063473
vn -0.996489 0.079725 0.025570
vn -0.995363 -0.063625 0.072146
vn -0.998347 -0.036667 0.044261
vn -0.993354 -0.009356 0.114718
vn -0.993381 0.007887 0.114598
vn -0.998533 0.007983 0.053547
vn -0.996314 -0.085749 -0.002289
vn -0.997540 -0.046407 0.052535
vn -0.991305 0.060069 0.117077
vn -0.999141 -0.007138 0.040818
vn -0.997118 0.075318 0.009152
vn -0.994307 0.105947 0.011369
vn -0.991210 -0.097949 0.088926
vn -0.983075 -0.163342 0.082969
vn -0.998477 0.028539 0.047217
vn -0.998447 0.045218 -0.032555
vn -0.997700 0.052329 -0.043081
vn -0.998708 -0.046817 -0.019768
vn -0.998447 -0.036655 -0.041962
vn -0.998117 0.053568 -0.029879
vn -0.999783 0.017629 -0.011056
vn -0.998077 0.061962 0.001855
vn -0.991326 0.130986 0.010699
vn -0.991244 -0.118038 0.059176
vn -0.956983 -0.286622 0.045059
vn -0.994536 0.083015 0.063295
vn -0.995467 0.094409 0.011511
vn -0.997831 0.048701 -0.044282
vn -0.996396 0.015600 -0.083381
vn -0.993702 -0.046352 -0.102021
vn -0.980274 -0.100917 -0.169937
vn -0.999811 -0.009247 0.017098
vn -0.998260 0.056487 0.016893
vn -0.986824 0.160906 0.016975
vn -0.987244 -0.152999 0.044063
vn -0.938554 -0.344578 0.019556
vn -0.991971 0.113832 0.055093
vn -0.987364 0.153919 0.037690
vn -0.996666 0.069855 -0.042161
vn -0.999558 -0.000489 -0.029729
vn -0.993948 -0.064546 -0.088885
vn -0.997137 -0.060582 -0.045243
vn -0.998297 -0.049215 -0.031331
vn -0.998125 0.059125 -0.015806
vn -0.986887 0.160931 -0.012439
vn -0.984724 -0.173972 0.007197
vn -0.931654 -0.363346 0.001011
vn -0.993188 0.102256 0.055876
vn -0.974600 0.216342 0.057885
vn -0.997516 0.069693 -0.010205
vn -0.997661 -0.023136 -0.064317
vn -0.999342 -0.035231 -0.008645
vn -0.998164 -0.058615 0.015291
vn -0.998097 -0.057627 0.021958
vn -0.999067 0.041184 -0.013019
vn -0.988026 0.154284 -0.000839
vn -0.980339 -0.105943 -0.166470
vn -0.955143 -0.279791 -0.097048
vn -0.994549 -0.022307 -0.101855
vn -0.985552 0.135913 0.101069
vn -0.972736 0.202371 0.113273
vn -0.997792 0.062619 0.022131
vn -0.995010 -0.092612 -0.037129
vn -0.995810 -0.090351 -0.014076
vn -0.998629 -0.051213 -0.010836
vn -0.998940 0.045888 0.003657
vn -0.987991 0.154483 -0.002930
vn -0.990278 -0.015775 -0.138202
vn -0.991830 -0.090217 -0.090189
vn -0.982780 -0.091990 -0.160255
vn -0.996584 -0.039693 -0.072418
vn -0.978903 0.203966 0.012129
vn -0.984341 0.160078 0.073808
vn -0.995658 -0.090367 0.022345
vn -0.995702 -0.087017 -0.031716
vn -0.996883 -0.034765 -0.070824
vn -0.998106 0.032502 -0.052231
vn -0.991512 0.126501 -0.030012
vn -0.999956 0.006290 0.007003
vn -1.000000 -0.000014 -0.000014
vn -0.995567 -0.088568 -0.031662
vn -0.988718 -0.084377 -0.123766
vn -0.987850 0.095746 -0.122414
vn -0.993045 0.116280 -0.018460
vn -0.999410 -0.019778 0.028081
vn -0.999174 -0.039194 -0.010728
vn -0.998923 -0.022127 -0.040789
vn -0.999440 -0.002281 -0.033374
vn -0.997044 0.073777 -0.021433
vn -0.999999 -0.000712 -0.000712
vn -1.000000 0.000000 0.000000
vn -0.998621 -0.036394 -0.037848
vn -0.994300 -0.029748 -0.102388
vn -0.994563 0.038966 -0.096577
vn -0.998429 0.055989 -0.001971
vn -0.998850 -0.006020 0.047571
vn -0.999507 -0.014122 0.028033
vn -0.999825 -0.018020 -0.005010
vn -0.999208 -0.012310 -0.037831
vn -0.997375 0.051156 -0.051244
s 1
g pisorelievesuave13 relievesuave
usemtl initialShadingGroup
f 1/1/1 2/2/2 13/13/3 12/12/4
f 2/2/2 3/3/5 14/14/6 13/13/3
f 3/3/5 4/4/7 15/15/8 14/14/6
f 4/4/7 5/5/9 16/16/10 15/15/8
f 5/5/9 6/6/11 17/17/12 16/16/10
f 6/6/11 7/7/13 18/18/14 17/17/12
f 7/7/13 8/8/15 19/19/16 18/18/14
f 8/8/15 9/9/17 20/20/18 19/19/16
f 9/9/17 10/10/19 21/21/20 20/20/18
f 10/10/19 11/11/21 22/22/22 21/21/20
f 12/12/4 13/13/3 24/24/23 23/23/24
f 13/13/3 14/14/6 25/25/25 24/24/23
f 14/14/6 15/15/8 26/26/26 25/25/25
f 15/15/8 16/16/10 27/27/27 26/26/26
f 16/16/10 17/17/12 28/28/28 27/27/27
f 17/17/12 18/18/14 29/29/29 28/28/28
f 18/18/14 19/19/16 30/30/30 29/29/29
f 19/19/16 20/20/18 31/31/31 30/30/30
f 20/20/18 21/21/20 32/32/32 31/31/31
f 21/21/20 22/22/22 33/33/33 32/32/32
f 23/23/24 24/24/23 35/35/34 34/34/35
f 24/24/23 25/25/25 36/36/36 35/35/34
f 25/25/25 26/26/26 37/37/37 36/36/36
f 26/26/26 27/27/27 38/38/38 37/37/37
f 27/27/27 28/28/28 39/39/39 38/38/38
f 28/28/28 29/29/29 40/40/40 39/39/39
f 29/29/29 30/30/30 41/41/41 40/40/40
f 30/30/30 31/31/31 42/42/42 41/41/41
f 31/31/31 32/32/32 43/43/43 42/42/42
f 32/32/32 33/33/33 44/44/44 43/43/43
f 34/34/35 35/35/34 46/46/45 45/45/46
f 35/35/34 36/36/36 47/47/47 46/46/45
f 36/36/36 37/37/37 48/48/48 47/47/47
f 37/37/37 38/38/38 49/49/49 48/48/48
f 38/38/38 39/39/39 50/50/50 49/49/49
f 39/39/39 40/40/40 51/51/51 50/50/50
f 40/40/40 41/41/41 52/52/52 51/51/51
f 41/41/41 42/42/42 53/53/53 52/52/52
f 42/42/42 43/43/43 54/54/54 53/53/53
f 43/43/43 44/44/44 55/55/55 54/54/54
f 45/45/46 46/46/45 57/57/56 56/56/57
f 46/46/45 47/47/47 58/58/58 57/57/56
f 47/47/47 48/48/48 59/59/59 58/58/58
f 48/48/48 49/49/49 60/60/60 59/59/59
f 49/49/49 50/50/50 61/61/61 60/60/60
f 50/50/50 51/51/51 62/62/62 61/61/61
f 51/51/51 52/52/52 63/63/63 62/62/62
f 52/52/52 53/53/53 64/64/64 63/63/63
f 53/53/53 54/54/54 65/65/65 64/64/64
f 54/54/54 55/55/55 66/66/66 65/65/65
f 56/56/57 57/57/56 68/68/67 67/67/68
f 57/57/56 58/58/58 69/69/69 68/68/67
f 58/58/58 59/59/59 70/70/70 69/69/69
f 59/59/59 60/60/60 71/71/71 70/70/70
f 60/60/60 61/61/61 72/72/72 71/71/71
f 61/61/61 62/62/62 73/73/73 72/72/72
f 62/62/62 63/63/63 74/74/74 73/73/73
f 63/63/63 64/64/64 75/75/75 74/74/74
f 64/64/64 65/65/65 76/76/76 75/75/75
f 65/65/65 66/66/66 77/77/77 76/76/76
f 67/67/68 68/68/67 79/79/78 78/78/79
f 68/68/67 69/69/69 80/80/80 79/79/78
f 69/69/69 70/70/70 81/81/81 80/80/80
f 70/70/70 71/71/71 82/82/82 81/81/81
f 71/71/71 72/72/72 83/83/83 82/82/82
f 72/72/72 73/73/73 84/84/84 83/83/83
f 73/73/73 74/74/74 85/85/85 84/84/84
f 74/74/74 75/75/75 86/86/86 85/85/85
f 75/75/75 76/76/76 87/87/87 86/86/86
f 76/76/76 77/77/77 88/88/88 87/87/87
f 78/78/79 79/79/78 90/90/89 89/89/90
f 79/79/78 80/80/80 91/91/91 90/90/89
f 80/80/80 81/81/81 92/92/92 91/91/91
f 81/81/81 82/82/82 93/93/93 92/92/92
f 82/82/82 83/83/83 94/94/94 93/93/93
f 83/83/83 84/84/84 95/95/95 94/94/94
f 84/84/84 85/85/85 96/96/96 95/95/95
f 85/85/85 86/86/86 97/97/97 96/96/96
f 86/86/86 87/87/87 98/98/98 97/97/97
f 87/87/87 88/88/88 99/99/99 98/98/98
f 89/89/90 90/90/89 101/101/100 100/100/101
f 90/90/89 91/91/91 102/102/102 101/101/100
f 91/91/91 92/92/92 103/103/103 102/102/102
f 92/92/92 93/93/93 104/104/104 103/103/103
f 93/93/93 94/94/94 105/105/105 104/104/104
f 94/94/94 95/95/95 106/106/106 105/105/105
f 95/95/95 96/96/96 107/107/107 106/106/106
f 96/96/96 97/97/97 108/108/108 107/107/107
f 97/97/97 98/98/98 109/109/109 108/108/108
f 98/98/98 99/99/99 110/110/110 109/109/109
f 100/100/101 101/101/100 112/112/111 111/111/112
f 101/101/100 102/102/102 113/113/113 112/112/111
f 102/102/102 103/103/103 114/114/114 113/113/113
f 103/103/103 104/104/104 115/115/115 114/114/114
f 104/104/104 105/105/105 116/116/116 115/115/115
f 105/105/105 106/106/106 117/117/117 116/116/116
f 106/106/106 107/107/107 118/118/118 117/117/117
f 107/107/107 108/108/108 119/119/119 118/118/118
f 108/108/108 109/109/109 120/120/120 119/119/119
f 109/109/109 110/110/110 121/121/121 120/120/120
