# This file uses centimeters as units for non-parametric coordinates.

mtllib tlc2.mtl
g default
v 0.001422 0.001016 -0.025053
v 2.754214 0.001016 -0.025107
v 5.507055 0.001391 -0.030290
v 8.259840 0.004040 -0.050925
v 11.012611 0.001624 -0.029666
v 13.765382 0.001016 -0.025053
v 16.518175 0.001016 -0.025053
v 19.270966 0.001016 -0.025053
v 22.023759 0.001016 -0.025053
v 24.776552 0.001016 -0.025053
v 27.529343 0.001016 -0.025053
v 0.001422 2.753808 -0.025153
v 2.755351 2.754358 -0.040142
v 5.507416 2.751109 0.020395
v 8.255799 2.735544 0.122000
v 11.012947 2.747018 0.029267
v 13.768991 2.748298 0.090957
v 16.502804 2.733005 0.462120
v 19.271156 2.752349 -0.012092
v 22.023759 2.753808 0.138316
v 24.776552 2.753808 0.680357
v 27.529343 2.753808 -0.021609
v 0.001424 5.506603 -0.025719
v 2.754399 5.506700 -0.023007
v 5.504314 5.504703 0.023568
v 8.223302 5.545012 0.876644
v 11.021442 5.494115 0.716675
v 13.821962 5.498215 0.411565
v 16.506063 5.459641 0.717724
v 19.253526 5.498262 0.764264
v 22.021035 5.523809 0.911960
v 24.776558 5.508325 0.546750
v 27.529343 5.506600 0.016942
v 0.001422 8.259393 -0.025053
v 2.754214 8.259393 0.034406
v 5.507456 8.266190 0.518506
v 8.240263 8.258117 0.970780
v 11.039773 8.180997 1.266564
v 13.906182 8.001566 1.337406
v 16.583453 7.947231 1.184403
v 19.261164 8.265672 0.377238
v 22.023126 8.272674 0.216951
v 24.772412 8.284221 0.765277
v 27.529343 8.259393 -0.006444
v 0.001422 11.012185 -0.025053
v 2.754214 11.012185 0.483363
v 5.559868 11.053132 0.761192
v 8.275254 10.578064 1.258992
v 10.991967 10.853945 1.117088
v 13.889632 10.108346 1.823854
v 16.679998 10.052937 2.083688
v 19.385867 10.533413 1.429147
v 21.995137 10.909420 0.719535
v 24.791695 11.034290 0.842158
v 27.529343 11.012185 -0.025053
v 0.001422 14.280385 0.281659
v 2.754191 13.776442 0.546402
v 5.589189 13.113729 1.143726
v 8.314036 12.106430 2.193319
v 11.100562 11.759343 2.612964
v 13.944929 11.372954 2.939906
v 16.778454 11.714615 2.568118
v 19.728108 13.079668 1.077065
v 22.165141 12.861502 1.271256
v 24.828233 13.752825 0.831177
v 27.529343 14.281283 0.281186
v 0.001422 15.579587 2.800778
v 2.749448 15.545973 2.804743
v 5.500862 14.061663 3.021965
v 8.294254 12.944819 3.758955
v 11.115833 12.344703 4.014798
v 13.923705 12.191652 4.173466
v 16.706389 12.684980 4.120687
v 19.495049 13.320856 3.657569
v 22.140974 13.924704 3.396111
v 24.799685 15.401458 2.806297
v 27.527744 15.593411 2.800550
v 0.001422 15.606710 5.553438
v 2.754214 15.606710 5.553438
v 5.497713 15.400691 5.561173
v 8.261495 13.390331 5.823672
v 11.100862 13.026738 5.869388
v 13.856511 13.277445 5.774575
v 16.626844 13.533868 6.094175
v 19.394937 13.830567 6.025734
v 22.103898 14.287674 5.861752
v 24.796716 15.411255 5.572765
v 27.529311 15.606992 5.553430
v 0.001422 15.633829 8.306088
v 2.754192 15.633675 8.306097
v 5.504422 15.144706 8.313406
v 8.269933 13.722406 8.415779
v 11.113794 13.239921 8.559808
v 13.809997 14.100113 8.422755
v 16.549519 14.342921 8.456126
v 19.339777 14.404302 8.488100
v 22.081039 14.731983 8.455227
v 24.821905 15.095626 8.375089
v 27.529343 15.633829 8.306088
v 0.001422 15.660951 11.058755
v 2.754214 15.660951 11.058755
v 5.507006 15.660951 11.058755
v 8.260328 15.636983 11.061613
v 11.013833 15.609992 11.064807
v 13.765305 15.659479 11.058876
v 16.509083 15.486410 11.078437
v 19.279062 15.470258 11.081230
v 22.032150 15.536566 11.077278
v 24.788196 15.515200 11.077437
v 27.522569 15.660587 11.058802
v 0.001422 15.688073 13.811408
v 2.754214 15.688073 13.811408
v 5.507006 15.688073 13.811408
v 8.259799 15.688073 13.811408
v 11.012590 15.688073 13.811408
v 13.765382 15.688073 13.811408
v 16.518175 15.688073 13.811408
v 19.270966 15.688073 13.811408
v 22.023759 15.688073 13.811408
v 24.776552 15.688073 13.811408
v 27.529343 15.688073 13.811408
vt 0.000000 0.000000
vt 0.100000 0.000000
vt 0.200000 0.000000
vt 0.300000 0.000000
vt 0.400000 0.000000
vt 0.500000 0.000000
vt 0.600000 0.000000
vt 0.700000 0.000000
vt 0.800000 0.000000
vt 0.900000 0.000000
vt 1.000000 0.000000
vt 0.000000 0.100000
vt 0.100000 0.100000
vt 0.200000 0.100000
vt 0.300000 0.100000
vt 0.400000 0.100000
vt 0.500000 0.100000
vt 0.600000 0.100000
vt 0.700000 0.100000
vt 0.800000 0.100000
vt 0.900000 0.100000
vt 1.000000 0.100000
vt 0.000000 0.200000
vt 0.100000 0.200000
vt 0.200000 0.200000
vt 0.300000 0.200000
vt 0.400000 0.200000
vt 0.500000 0.200000
vt 0.600000 0.200000
vt 0.700000 0.200000
vt 0.800000 0.200000
vt 0.900000 0.200000
vt 1.000000 0.200000
vt 0.000000 0.300000
vt 0.100000 0.300000
vt 0.200000 0.300000
vt 0.300000 0.300000
vt 0.400000 0.300000
vt 0.500000 0.300000
vt 0.600000 0.300000
vt 0.700000 0.300000
vt 0.800000 0.300000
vt 0.900000 0.300000
vt 1.000000 0.300000
vt 0.000000 0.400000
vt 0.100000 0.400000
vt 0.200000 0.400000
vt 0.300000 0.400000
vt 0.400000 0.400000
vt 0.500000 0.400000
vt 0.600000 0.400000
vt 0.700000 0.400000
vt 0.800000 0.400000
vt 0.900000 0.400000
vt 1.000000 0.400000
vt 0.000000 0.500000
vt 0.100000 0.500000
vt 0.200000 0.500000
vt 0.300000 0.500000
vt 0.400000 0.500000
vt 0.500000 0.500000
vt 0.600000 0.500000
vt 0.700000 0.500000
vt 0.800000 0.500000
vt 0.900000 0.500000
vt 1.000000 0.500000
vt 0.000000 0.600000
vt 0.100000 0.600000
vt 0.200000 0.600000
vt 0.300000 0.600000
vt 0.400000 0.600000
vt 0.500000 0.600000
vt 0.600000 0.600000
vt 0.700000 0.600000
vt 0.800000 0.600000
vt 0.900000 0.600000
vt 1.000000 0.600000
vt 0.000000 0.700000
vt 0.100000 0.700000
vt 0.200000 0.700000
vt 0.300000 0.700000
vt 0.400000 0.700000
vt 0.500000 0.700000
vt 0.600000 0.700000
vt 0.700000 0.700000
vt 0.800000 0.700000
vt 0.900000 0.700000
vt 1.000000 0.700000
vt 0.000000 0.800000
vt 0.100000 0.800000
vt 0.200000 0.800000
vt 0.300000 0.800000
vt 0.400000 0.800000
vt 0.500000 0.800000
vt 0.600000 0.800000
vt 0.700000 0.800000
vt 0.800000 0.800000
vt 0.900000 0.800000
vt 1.000000 0.800000
vt 0.000000 0.900000
vt 0.100000 0.900000
vt 0.200000 0.900000
vt 0.300000 0.900000
vt 0.400000 0.900000
vt 0.500000 0.900000
vt 0.600000 0.900000
vt 0.700000 0.900000
vt 0.800000 0.900000
vt 0.900000 0.900000
vt 1.000000 0.900000
vt 0.000000 1.000000
vt 0.100000 1.000000
vt 0.200000 1.000000
vt 0.300000 1.000000
vt 0.400000 1.000000
vt 0.500000 1.000000
vt 0.600000 1.000000
vt 0.700000 1.000000
vt 0.800000 1.000000
vt 0.900000 1.000000
vt 1.000000 1.000000
vn 0.002732 0.002748 0.999992
vn -0.003659 -0.001860 0.999992
vn -0.006142 -0.002609 0.999978
vn 0.002481 -0.000130 0.999997
vn -0.012426 -0.023586 0.999645
vn -0.054775 -0.047169 0.997384
vn -0.000868 -0.041530 0.999137
vn -0.032251 -0.120120 0.992235
vn 0.000485 -0.037050 0.999313
vn 0.022099 -0.128991 0.991399
vn -0.039750 -0.070645 0.996709
vn -0.038923 -0.107277 0.993467
vn 0.009620 -0.100024 0.994938
vn -0.006727 -0.122736 0.992417
vn 0.029357 -0.061348 0.997685
vn 0.020672 -0.146209 0.989038
vn -0.062484 -0.094317 0.993579
vn -0.052313 -0.145727 0.987941
vn 0.014376 -0.141813 0.989789
vn 0.054960 -0.095110 0.993948
vn 0.125458 -0.126689 0.983977
vn 0.172663 -0.054898 0.983450
vn -0.031214 -0.029348 0.999082
vn -0.004530 -0.006779 0.999967
vn -0.129095 -0.085784 0.987915
vn -0.096869 -0.152913 0.983481
vn 0.023092 -0.207629 0.977935
vn -0.019931 -0.205266 0.978503
vn 0.014321 -0.145355 0.989276
vn 0.040380 -0.073425 0.996483
vn -0.029140 -0.027710 0.999191
vn 0.098907 -0.012140 0.995023
vn 0.224052 -0.008743 0.974538
vn -0.086086 -0.078398 0.993198
vn -0.057064 -0.045924 0.997314
vn -0.160192 -0.106162 0.981360
vn -0.118524 -0.088688 0.988983
vn -0.041999 -0.126254 0.991109
vn -0.040211 -0.233353 0.971560
vn 0.098936 -0.245324 0.964379
vn 0.152813 -0.126854 0.980080
vn 0.003379 -0.026270 0.999649
vn 0.095357 -0.017037 0.995297
vn 0.257782 -0.022670 0.965937
vn -0.135392 -0.087863 0.986889
vn -0.124174 -0.070286 0.989768
vn -0.198624 -0.152108 0.968200
vn -0.151490 -0.244946 0.957628
vn -0.119976 -0.370537 0.921037
vn -0.107609 -0.372662 0.921707
vn 0.186638 -0.324793 0.927187
vn 0.253315 -0.217239 0.942676
vn 0.051681 -0.147702 0.987681
vn 0.136616 -0.069270 0.988199
vn 0.270720 -0.030543 0.962173
vn -0.217069 -0.488297 0.845250
vn -0.140667 -0.511916 0.847440
vn -0.349142 -0.541206 0.764981
vn -0.292842 -0.708708 0.641854
vn -0.166043 -0.808852 0.564081
vn -0.045026 -0.754469 0.654789
vn 0.318873 -0.610374 0.725096
vn 0.260050 -0.628887 0.732717
vn 0.208697 -0.552038 0.807279
vn 0.275802 -0.487411 0.828471
vn 0.236600 -0.470912 0.849860
vn -0.193691 -0.923125 0.332151
vn -0.060331 -0.954291 0.292728
vn -0.407573 -0.834080 0.371744
vn -0.363380 -0.864213 0.347981
vn -0.122137 -0.908540 0.399547
vn 0.043189 -0.872529 0.486650
vn 0.220602 -0.893728 0.390621
vn 0.232235 -0.937568 0.258906
vn 0.316580 -0.913017 0.257250
vn 0.282332 -0.914270 0.290515
vn 0.122082 -0.952074 0.280447
vn -0.109879 -0.992138 0.059911
vn -0.003072 -0.999912 0.012896
vn -0.371025 -0.919406 0.130515
vn -0.370652 -0.913249 0.169095
vn -0.022306 -0.970385 0.240532
vn 0.102147 -0.931687 0.348605
vn 0.100300 -0.937286 0.333818
vn 0.149295 -0.959503 0.238884
vn 0.271929 -0.955551 0.113917
vn 0.236026 -0.971677 0.011631
vn 0.101893 -0.994507 -0.023965
vn -0.053720 -0.998371 0.019236
vn -0.000028 -0.999951 0.009852
vn -0.267869 -0.955135 0.126344
vn -0.263991 -0.911992 0.313975
vn 0.027693 -0.908856 0.416191
vn 0.109090 -0.904703 0.411839
vn 0.033641 -0.930543 0.364635
vn 0.069732 -0.949839 0.304866
vn 0.137241 -0.970482 0.198319
vn 0.149305 -0.986363 0.069257
vn 0.129482 -0.991493 0.013312
vn -0.022207 -0.999239 0.032067
vn -0.000014 -0.999951 0.009866
vn -0.088954 -0.986138 0.140066
vn -0.092336 -0.947689 0.305548
vn 0.015576 -0.928491 0.371027
vn 0.039184 -0.950116 0.309425
vn -0.005395 -0.967663 0.252187
vn 0.020974 -0.974537 0.223242
vn 0.035715 -0.984050 0.174269
vn 0.053037 -0.993459 0.101129
vn 0.076272 -0.995322 0.059301
vn 0.000000 -0.999951 0.009852
vn 0.000000 -0.999951 0.009852
vn -0.002180 -0.999925 0.012032
vn -0.004637 -0.999812 0.018850
vn 0.002046 -0.999768 0.021445
vn -0.011267 -0.999466 0.030676
vn -0.017232 -0.998089 0.059335
vn 0.004527 -0.997392 0.072031
vn 0.004108 -0.997983 0.063344
vn 0.011311 -0.998788 0.047901
vn 0.026593 -0.998980 0.036504
s 1
g pPlane39 pisoespecial
usemtl initialShadingGroup
f 1/1/1 2/2/2 13/13/3 12/12/4
f 2/2/2 3/3/5 14/14/6 13/13/3
f 3/3/5 4/4/7 15/15/8 14/14/6
f 4/4/7 5/5/9 16/16/10 15/15/8
f 5/5/9 6/6/11 17/17/12 16/16/10
f 6/6/11 7/7/13 18/18/14 17/17/12
f 7/7/13 8/8/15 19/19/16 18/18/14
f 8/8/15 9/9/17 20/20/18 19/19/16
f 9/9/17 10/10/19 21/21/20 20/20/18
f 10/10/19 11/11/21 22/22/22 21/21/20
f 12/12/4 13/13/3 24/24/23 23/23/24
f 13/13/3 14/14/6 25/25/25 24/24/23
f 14/14/6 15/15/8 26/26/26 25/25/25
f 15/15/8 16/16/10 27/27/27 26/26/26
f 16/16/10 17/17/12 28/28/28 27/27/27
f 17/17/12 18/18/14 29/29/29 28/28/28
f 18/18/14 19/19/16 30/30/30 29/29/29
f 19/19/16 20/20/18 31/31/31 30/30/30
f 20/20/18 21/21/20 32/32/32 31/31/31
f 21/21/20 22/22/22 33/33/33 32/32/32
f 23/23/24 24/24/23 35/35/34 34/34/35
f 24/24/23 25/25/25 36/36/36 35/35/34
f 25/25/25 26/26/26 37/37/37 36/36/36
f 26/26/26 27/27/27 38/38/38 37/37/37
f 27/27/27 28/28/28 39/39/39 38/38/38
f 28/28/28 29/29/29 40/40/40 39/39/39
f 29/29/29 30/30/30 41/41/41 40/40/40
f 30/30/30 31/31/31 42/42/42 41/41/41
f 31/31/31 32/32/32 43/43/43 42/42/42
f 32/32/32 33/33/33 44/44/44 43/43/43
f 34/34/35 35/35/34 46/46/45 45/45/46
f 35/35/34 36/36/36 47/47/47 46/46/45
f 36/36/36 37/37/37 48/48/48 47/47/47
f 37/37/37 38/38/38 49/49/49 48/48/48
f 38/38/38 39/39/39 50/50/50 49/49/49
f 39/39/39 40/40/40 51/51/51 50/50/50
f 40/40/40 41/41/41 52/52/52 51/51/51
f 41/41/41 42/42/42 53/53/53 52/52/52
f 42/42/42 43/43/43 54/54/54 53/53/53
f 43/43/43 44/44/44 55/55/55 54/54/54
f 45/45/46 46/46/45 57/57/56 56/56/57
f 46/46/45 47/47/47 58/58/58 57/57/56
f 47/47/47 48/48/48 59/59/59 58/58/58
f 48/48/48 49/49/49 60/60/60 59/59/59
f 49/49/49 50/50/50 61/61/61 60/60/60
f 50/50/50 51/51/51 62/62/62 61/61/61
f 51/51/51 52/52/52 63/63/63 62/62/62
f 52/52/52 53/53/53 64/64/64 63/63/63
f 53/53/53 54/54/54 65/65/65 64/64/64
f 54/54/54 55/55/55 66/66/66 65/65/65
f 56/56/57 57/57/56 68/68/67 67/67/68
f 57/57/56 58/58/58 69/69/69 68/68/67
f 58/58/58 59/59/59 70/70/70 69/69/69
f 59/59/59 60/60/60 71/71/71 70/70/70
f 60/60/60 61/61/61 72/72/72 71/71/71
f 61/61/61 62/62/62 73/73/73 72/72/72
f 62/62/62 63/63/63 74/74/74 73/73/73
f 63/63/63 64/64/64 75/75/75 74/74/74
f 64/64/64 65/65/65 76/76/76 75/75/75
f 65/65/65 66/66/66 77/77/77 76/76/76
f 67/67/68 68/68/67 79/79/78 78/78/79
f 68/68/67 69/69/69 80/80/80 79/79/78
f 69/69/69 70/70/70 81/81/81 80/80/80
f 70/70/70 71/71/71 82/82/82 81/81/81
f 71/71/71 72/72/72 83/83/83 82/82/82
f 72/72/72 73/73/73 84/84/84 83/83/83
f 73/73/73 74/74/74 85/85/85 84/84/84
f 74/74/74 75/75/75 86/86/86 85/85/85
f 75/75/75 76/76/76 87/87/87 86/86/86
f 76/76/76 77/77/77 88/88/88 87/87/87
f 78/78/79 79/79/78 90/90/89 89/89/90
f 79/79/78 80/80/80 91/91/91 90/90/89
f 80/80/80 81/81/81 92/92/92 91/91/91
f 81/81/81 82/82/82 93/93/93 92/92/92
f 82/82/82 83/83/83 94/94/94 93/93/93
f 83/83/83 84/84/84 95/95/95 94/94/94
f 84/84/84 85/85/85 96/96/96 95/95/95
f 85/85/85 86/86/86 97/97/97 96/96/96
f 86/86/86 87/87/87 98/98/98 97/97/97
f 87/87/87 88/88/88 99/99/99 98/98/98
f 89/89/90 90/90/89 101/101/100 100/100/101
f 90/90/89 91/91/91 102/102/102 101/101/100
f 91/91/91 92/92/92 103/103/103 102/102/102
f 92/92/92 93/93/93 104/104/104 103/103/103
f 93/93/93 94/94/94 105/105/105 104/104/104
f 94/94/94 95/95/95 106/106/106 105/105/105
f 95/95/95 96/96/96 107/107/107 106/106/106
f 96/96/96 97/97/97 108/108/108 107/107/107
f 97/97/97 98/98/98 109/109/109 108/108/108
f 98/98/98 99/99/99 110/110/110 109/109/109
f 100/100/101 101/101/100 112/112/111 111/111/112
f 101/101/100 102/102/102 113/113/113 112/112/111
f 102/102/102 103/103/103 114/114/114 113/113/113
f 103/103/103 104/104/104 115/115/115 114/114/114
f 104/104/104 105/105/105 116/116/116 115/115/115
f 105/105/105 106/106/106 117/117/117 116/116/116
f 106/106/106 107/107/107 118/118/118 117/117/117
f 107/107/107 108/108/108 119/119/119 118/118/118
f 108/108/108 109/109/109 120/120/120 119/119/119
f 109/109/109 110/110/110 121/121/121 120/120/120
