%YAML 1.1
%TAG !u! tag:unity3d.com,2011:
--- !u!114 &11400000
MonoBehaviour:
  m_ObjectHideFlags: 0
  m_CorrespondingSourceObject: {fileID: 0}
  m_PrefabInstance: {fileID: 0}
  m_PrefabAsset: {fileID: 0}
  m_GameObject: {fileID: 0}
  m_Enabled: 1
  m_EditorHideFlags: 0
  m_Script: {fileID: 11500000, guid: 3e5d77674140b4542ad0ce6dbb6ac021, type: 3}
  m_Name: Nota_Cohete
  m_EditorClassIdentifier: 
  descripcion: "Es solo un juguete de ni\xF1o, un lindo cohete, tiene una nota pegada
    \"Perdona a mam\xE1 por todo esto mi peque\xF1o, te prometo que cuando tu pap\xE1
    se vaya todo estara bien, solo aguanta unos dias m\xE1s mi amor\""
  image: {fileID: 21300000, guid: ceda9b28b1a37c04b864f4f1ede9e20c, type: 3}
