%YAML 1.1
%TAG !u! tag:unity3d.com,2011:
--- !u!114 &11400000
MonoBehaviour:
  m_ObjectHideFlags: 0
  m_CorrespondingSourceObject: {fileID: 0}
  m_PrefabInstance: {fileID: 0}
  m_PrefabAsset: {fileID: 0}
  m_GameObject: {fileID: 0}
  m_Enabled: 1
  m_EditorHideFlags: 0
  m_Script: {fileID: 11500000, guid: 3e5d77674140b4542ad0ce6dbb6ac021, type: 3}
  m_Name: Nota_Patito
  m_EditorClassIdentifier: 
  descripcion: "Un bonito pato de hule, parece de un ni\xF1o \xBFPorque est\xE1 esto
    aqu\xED? Mi hermano tenia uno parecido, yo se lo robaba para jugar con \xE9l,
    quien dir\xEDa que muchos a\xF1os despu\xE9s se enojaria por eso "
  image: {fileID: 0}
