%YAML 1.1
%TAG !u! tag:unity3d.com,2011:
--- !u!114 &11400000
MonoBehaviour:
  m_ObjectHideFlags: 0
  m_CorrespondingSourceObject: {fileID: 0}
  m_PrefabInstance: {fileID: 0}
  m_PrefabAsset: {fileID: 0}
  m_GameObject: {fileID: 0}
  m_Enabled: 1
  m_EditorHideFlags: 0
  m_Script: {fileID: 11500000, guid: 3e5d77674140b4542ad0ce6dbb6ac021, type: 3}
  m_Name: Nota_CajaDeMusica
  m_EditorClassIdentifier: 
  descripcion: "Mi madre ten\xEDa una de estas cajas, pero ten\xEDa una bailarina
    de porcelana, despu\xE9s de la mudanza me aleje mucho de ellos pero no los odio
    ni estoy molesto realmente, era joven y no entend\xEDa bien qu\xE9 pasaba, ojala
    hubiera actuado de mejor manera en todo esto y apoyarlos mejor  "
  image: {fileID: 21300000, guid: ec4ceecb725a48a4b8ae47c4efb98525, type: 3}
