%YAML 1.1
%TAG !u! tag:unity3d.com,2011:
--- !u!114 &11400000
MonoBehaviour:
  m_ObjectHideFlags: 0
  m_CorrespondingSourceObject: {fileID: 0}
  m_PrefabInstance: {fileID: 0}
  m_PrefabAsset: {fileID: 0}
  m_GameObject: {fileID: 0}
  m_Enabled: 1
  m_EditorHideFlags: 0
  m_Script: {fileID: 11500000, guid: 3e5d77674140b4542ad0ce6dbb6ac021, type: 3}
  m_Name: Nota_CollarPerro
  m_EditorClassIdentifier: 
  descripcion: "Espero que ese perro este bien, \xBFporque se perder\xEDa aqu\xED
    un perro? "
  image: {fileID: 21300000, guid: 77e98af3f3e19d64db7616caaa2dfa86, type: 3}
