%YAML 1.1
%TAG !u! tag:unity3d.com,2011:
--- !u!114 &11400000
MonoBehaviour:
  m_ObjectHideFlags: 0
  m_CorrespondingSourceObject: {fileID: 0}
  m_PrefabInstance: {fileID: 0}
  m_PrefabAsset: {fileID: 0}
  m_GameObject: {fileID: 0}
  m_Enabled: 1
  m_EditorHideFlags: 0
  m_Script: {fileID: 11500000, guid: 3e5d77674140b4542ad0ce6dbb6ac021, type: 3}
  m_Name: Nota_Libro
  m_EditorClassIdentifier: 
  descripcion: "Un viejo dario lleno de polvo, tiene varias paginas arrancadas dice
    \"Me hablkan y me dice que vaya abajo, las voces solo me piden que las siga me
    empujan hacia ellas\" Bueno eso no ayuda a mi miedo en lo m\xE1s minimo"
  image: {fileID: 0}
