# This file uses centimeters as units for non-parametric coordinates.

mtllib Botella_T.mtl
g default
v 0.866025 0.484105 -0.500000
v 0.500000 0.484105 -0.866025
v 0.000000 0.484105 -1.000000
v -0.500000 0.484105 -0.866025
v -0.866025 0.484105 -0.500000
v -1.000000 0.484105 0.000000
v -0.866025 0.484105 0.500000
v -0.500000 0.484105 0.866025
v 0.000000 0.484105 1.000000
v 0.500000 0.484105 0.866025
v 0.866025 0.484105 0.500000
v 1.000000 0.484105 0.000000
v -0.745175 0.849355 -0.430227
v 0.430227 0.849355 -0.745175
v 0.000000 0.849355 -0.860453
v -0.430227 0.849355 -0.745175
v 0.745175 0.849355 0.430227
v -0.430227 0.849355 0.745175
v 0.000000 0.849355 0.860453
v 0.430227 0.849355 0.745175
v 0.745175 0.849355 -0.430227
v -0.860453 0.849355 0.000000
v 0.860453 0.849355 0.000000
v -0.745175 0.849355 0.430227
v -0.501428 1.403013 -0.289499
v 0.289499 1.403013 -0.501428
v 0.000000 1.403013 -0.578999
v -0.289499 1.403013 -0.501428
v 0.501428 1.403013 0.289499
v -0.289499 1.403013 0.501428
v 0.000000 1.403013 0.578999
v 0.289499 1.403013 0.501428
v 0.501428 1.403013 -0.289499
v -0.578999 1.403013 0.000000
v 0.578999 1.403013 0.000000
v -0.501428 1.403013 0.289499
v -0.421326 1.837080 -0.243253
v 0.243253 1.837080 -0.421326
v 0.000000 1.837080 -0.486506
v -0.243253 1.837080 -0.421326
v 0.421326 1.837080 0.243253
v -0.243253 1.837080 0.421326
v 0.000000 1.837080 0.486506
v 0.243253 1.837080 0.421326
v 0.421326 1.837080 -0.243253
v -0.486506 1.837080 0.000000
v 0.486506 1.837080 0.000000
v -0.421326 1.837080 0.243253
v -0.383453 2.857397 -0.221386
v 0.221386 2.857397 -0.383453
v 0.000000 2.857397 -0.442773
v -0.221386 2.857397 -0.383453
v 0.383453 2.857397 0.221386
v -0.221386 2.857397 0.383453
v 0.000000 2.857397 0.442773
v 0.221386 2.857397 0.383453
v 0.383453 2.857397 -0.221386
v -0.442773 2.857397 0.000000
v 0.442773 2.857397 0.000000
v -0.383453 2.857397 0.221386
v -0.344972 3.697407 -0.199170
v 0.199170 3.697407 -0.344972
v -0.000000 3.697407 -0.398339
v -0.199170 3.697407 -0.344972
v 0.344972 3.697407 0.199170
v -0.199170 3.697407 0.344972
v -0.000000 3.697407 0.398339
v 0.199170 3.697407 0.344972
v 0.344972 3.697407 -0.199170
v -0.398339 3.697407 0.000000
v 0.398339 3.697407 0.000000
v -0.344972 3.697407 0.199170
v -0.301699 1.592738 -0.174186
v 0.174186 1.592738 -0.301699
v -0.000000 1.592738 -0.348371
v -0.174186 1.592738 -0.301699
v 0.301699 1.592738 0.174186
v -0.174186 1.592738 0.301699
v -0.000000 1.592738 0.348371
v 0.174186 1.592738 0.301699
v 0.301699 1.592738 -0.174186
v -0.348371 1.592738 0.000000
v 0.348371 1.592738 0.000000
v -0.301699 1.592738 0.174186
v -0.742534 -3.550711 -0.428702
v 0.428702 -3.550711 -0.742533
v 0.000000 -3.550711 -0.857404
v -0.428702 -3.550711 -0.742533
v 0.742533 -3.550711 0.428702
v -0.428702 -3.550711 0.742533
v 0.000000 -3.550711 0.857404
v 0.428702 -3.550711 0.742533
v 0.742533 -3.550711 -0.428702
v -0.857404 -3.550711 0.000000
v 0.857404 -3.550711 0.000000
v -0.742534 -3.550711 0.428702
v 0.866025 -3.750344 -0.500000
v 0.811658 -3.896740 -0.468611
v 0.680403 -3.957379 -0.392831
v 0.500000 -3.750344 -0.866025
v 0.468611 -3.896740 -0.811658
v 0.392831 -3.957379 -0.680403
v 0.000000 -3.750344 -1.000000
v -0.000000 -3.896740 -0.937222
v -0.000000 -3.957379 -0.785662
v -0.392831 -3.957379 -0.680403
v -0.468611 -3.896740 -0.811658
v -0.500000 -3.750344 -0.866025
v -0.680403 -3.957379 -0.392831
v -0.811658 -3.896740 -0.468611
v -0.866025 -3.750344 -0.500000
v -1.000000 -3.750344 0.000000
v -0.937222 -3.896740 -0.000000
v -0.785662 -3.957379 -0.000000
v -0.866025 -3.750344 0.500000
v -0.811658 -3.896740 0.468611
v -0.680403 -3.957379 0.392831
v -0.500000 -3.750344 0.866025
v -0.468611 -3.896740 0.811658
v -0.392831 -3.957379 0.680403
v 0.000000 -3.750344 1.000000
v 0.000000 -3.896740 0.937222
v 0.000000 -3.957379 0.785662
v 0.392831 -3.957379 0.680403
v 0.468611 -3.896740 0.811658
v 0.500000 -3.750344 0.866025
v 0.680403 -3.957379 0.392831
v 0.811658 -3.896740 0.468611
v 0.866025 -3.750344 0.500000
v 1.000000 -3.750344 0.000000
v 0.937222 -3.896740 0.000000
v 0.785662 -3.957379 0.000000
v 0.255395 3.878944 -0.442358
v 0.214795 3.957379 -0.372035
v 0.000000 3.878944 -0.510790
v -0.000000 3.957379 -0.429589
v -0.255395 3.878944 -0.442358
v -0.214795 3.957379 -0.372035
v -0.442358 3.878944 -0.255395
v -0.372035 3.957379 -0.214795
v -0.255395 3.878944 0.442358
v -0.214795 3.957379 0.372035
v 0.000000 3.878944 0.510790
v -0.000000 3.957379 0.429589
v 0.255395 3.878944 0.442358
v 0.214795 3.957379 0.372035
v 0.442358 3.878944 0.255395
v 0.372035 3.957379 0.214795
v 0.442358 3.878944 -0.255395
v 0.372035 3.957379 -0.214795
v -0.510791 3.878944 0.000000
v -0.429589 3.957379 0.000000
v 0.510790 3.878944 0.000000
v 0.429589 3.957379 -0.000000
v -0.442358 3.878944 0.255395
v -0.372035 3.957379 0.214795
v 0.174186 3.918157 -0.301699
v 0.194488 3.957379 -0.336863
v -0.000000 3.918157 -0.348372
v -0.000000 3.957379 -0.388976
v -0.174186 3.918157 -0.301699
v -0.194488 3.957379 -0.336863
v -0.301699 3.918157 -0.174186
v -0.336863 3.957379 -0.194488
v -0.174186 3.918157 0.301699
v -0.194488 3.957379 0.336863
v -0.000000 3.918157 0.348372
v -0.000000 3.957379 0.388976
v 0.174186 3.918157 0.301699
v 0.194488 3.957379 0.336863
v 0.301699 3.918157 0.174186
v 0.336863 3.957379 0.194488
v 0.301699 3.918157 -0.174186
v 0.336863 3.957379 -0.194488
v -0.348372 3.918157 0.000000
v -0.388976 3.957379 0.000000
v 0.348371 3.918157 0.000000
v 0.388976 3.957379 0.000000
v -0.301699 3.918157 0.174186
v -0.336863 3.957379 0.194488
v 0.227285 3.697407 -0.393670
v 0.255395 3.751712 -0.442358
v -0.000000 3.697407 -0.454570
v 0.000000 3.751712 -0.510790
v -0.227285 3.697407 -0.393670
v -0.255395 3.751712 -0.442358
v -0.393670 3.697407 -0.227285
v -0.442358 3.751712 -0.255395
v -0.227285 3.697407 0.393670
v -0.255395 3.751712 0.442358
v -0.000000 3.697407 0.454570
v 0.000000 3.751712 0.510790
v 0.227285 3.697407 0.393670
v 0.255395 3.751712 0.442358
v 0.393670 3.697407 0.227285
v 0.442358 3.751712 0.255395
v 0.393670 3.697407 -0.227285
v 0.442358 3.751712 -0.255395
v -0.454571 3.697407 0.000000
v -0.510791 3.751712 0.000000
v 0.454570 3.697407 0.000000
v 0.510790 3.751712 0.000000
v -0.393670 3.697407 0.227285
v -0.442358 3.751712 0.255395
v 0.500000 -1.103205 -0.866025
v 0.866025 -1.103205 -0.500000
v 1.000000 -1.103205 0.000000
v 0.866025 -1.103205 0.500000
v 0.500000 -1.103205 0.866025
v 0.000000 -1.103205 1.000000
v -0.500000 -1.103205 0.866025
v -0.866025 -1.103205 0.500000
v -1.000000 -1.103205 0.000000
v -0.866025 -1.103205 -0.500000
v -0.500000 -1.103205 -0.866025
v 0.000000 -1.103205 -1.000000
v 0.500000 -2.630676 -0.866025
v 0.000000 -2.630676 -1.000000
v -0.500000 -2.630676 -0.866025
v -0.866025 -2.630676 -0.500000
v -1.000000 -2.630676 0.000000
v -0.866025 -2.630676 0.500000
v -0.500000 -2.630676 0.866025
v 0.000000 -2.630676 1.000000
v 0.500000 -2.630676 0.866025
v 0.866025 -2.630676 0.500000
v 1.000000 -2.630676 0.000000
v 0.866025 -2.630676 -0.500000
vt 0.839998 0.843459
vt 0.829870 0.836646
vt 0.816033 0.834153
vt 0.802197 0.836646
vt 0.792068 0.843459
vt 0.788361 0.852766
vt 0.792068 0.862073
vt 0.802197 0.868886
vt 0.816033 0.871379
vt 0.829870 0.868886
vt 0.839998 0.862073
vt 0.843706 0.852766
vt 0.829870 0.868886
vt 0.816033 0.871379
vt 0.802197 0.868886
vt 0.792068 0.862073
vt 0.802197 0.836646
vt 0.816033 0.834153
vt 0.829870 0.836646
vt 0.839998 0.843459
vt 0.839998 0.862073
vt 0.788361 0.852766
vt 0.843706 0.852766
vt 0.792068 0.843459
vt 0.829870 0.868886
vt 0.816033 0.871379
vt 0.802197 0.868886
vt 0.792068 0.862073
vt 0.802197 0.836646
vt 0.816033 0.834153
vt 0.829870 0.836646
vt 0.839998 0.843459
vt 0.839998 0.862073
vt 0.788361 0.852766
vt 0.843706 0.852766
vt 0.792068 0.843459
vt 0.829870 0.868886
vt 0.816033 0.871379
vt 0.802197 0.868886
vt 0.792068 0.862073
vt 0.802197 0.836646
vt 0.816033 0.834153
vt 0.829870 0.836646
vt 0.839998 0.843459
vt 0.839998 0.862073
vt 0.788361 0.852766
vt 0.843706 0.852766
vt 0.792068 0.843459
vt 0.829870 0.868886
vt 0.816033 0.871379
vt 0.802197 0.868886
vt 0.792068 0.862073
vt 0.802197 0.836646
vt 0.816033 0.834153
vt 0.829870 0.836646
vt 0.839998 0.843459
vt 0.839998 0.862073
vt 0.788361 0.852766
vt 0.843706 0.852766
vt 0.792068 0.843459
vt 0.829870 0.868886
vt 0.819824 0.845043
vt 0.802648 0.840440
vt 0.790074 0.827867
vt 0.802197 0.836646
vt 0.819824 0.776338
vt 0.837000 0.780941
vt 0.849574 0.793514
vt 0.839998 0.862073
vt 0.785472 0.810690
vt 0.843706 0.852766
vt 0.790074 0.793514
vt 0.797205 0.763555
vt 0.834862 0.778179
vt 0.797585 0.794116
vt 0.793896 0.834265
vt 0.801275 0.794116
vt 0.797585 0.834265
vt 0.804964 0.794116
vt 0.801275 0.834265
vt 0.808654 0.794116
vt 0.804964 0.834265
vt 0.812344 0.794116
vt 0.808654 0.834265
vt 0.816033 0.794116
vt 0.812344 0.834265
vt 0.819723 0.794116
vt 0.816033 0.834265
vt 0.823413 0.794116
vt 0.819723 0.834265
vt 0.827102 0.794116
vt 0.823413 0.834265
vt 0.830792 0.794116
vt 0.827102 0.834265
vt 0.834482 0.794116
vt 0.830792 0.834265
vt 0.838171 0.794116
vt 0.838171 0.834265
vt 0.834482 0.834265
vt 0.816033 0.756243
vt 0.826904 0.758203
vt 0.794292 0.770867
vt 0.834862 0.763555
vt 0.797205 0.778179
vt 0.837774 0.770867
vt 0.805163 0.783532
vt 0.816033 0.785491
vt 0.793896 0.794116
vt 0.805163 0.758203
vt 0.826904 0.783532
vt 0.838171 0.789481
vt 0.839998 0.761561
vt 0.793896 0.789481
vt 0.829870 0.754748
vt 0.797585 0.789481
vt 0.816033 0.752254
vt 0.801275 0.789481
vt 0.802197 0.754748
vt 0.804964 0.789481
vt 0.808654 0.789481
vt 0.792068 0.761561
vt 0.788361 0.770867
vt 0.812344 0.789481
vt 0.792068 0.780174
vt 0.816033 0.789481
vt 0.802197 0.786987
vt 0.819723 0.789481
vt 0.816033 0.789481
vt 0.823413 0.789481
vt 0.829870 0.786987
vt 0.827102 0.789481
vt 0.830792 0.789481
vt 0.839998 0.780174
vt 0.843706 0.770867
vt 0.834482 0.789481
vt 0.816033 0.871379
vt 0.829870 0.868886
vt 0.802197 0.868886
vt 0.816033 0.871379
vt 0.792068 0.862073
vt 0.802197 0.868886
vt 0.816033 0.834153
vt 0.802197 0.836646
vt 0.829870 0.836646
vt 0.816033 0.834153
vt 0.839998 0.843459
vt 0.829870 0.836646
vt 0.829870 0.868886
vt 0.839998 0.862073
vt 0.788361 0.852766
vt 0.792068 0.862073
vt 0.839998 0.862073
vt 0.843706 0.852766
vt 0.792068 0.843459
vt 0.788361 0.852766
vt 0.802197 0.836646
vt 0.792068 0.843459
vt 0.843706 0.852766
vt 0.839998 0.843459
vt 0.816033 0.871379
vt 0.829870 0.868886
vt 0.802197 0.868886
vt 0.816033 0.871379
vt 0.792068 0.862073
vt 0.802197 0.868886
vt 0.816033 0.834153
vt 0.802197 0.836646
vt 0.829870 0.836646
vt 0.816033 0.834153
vt 0.839998 0.843459
vt 0.829870 0.836646
vt 0.829870 0.868886
vt 0.839998 0.862073
vt 0.788361 0.852766
vt 0.792068 0.862073
vt 0.839998 0.862073
vt 0.843706 0.852766
vt 0.792068 0.843459
vt 0.788361 0.852766
vt 0.802197 0.836646
vt 0.792068 0.843459
vt 0.843706 0.852766
vt 0.839998 0.843459
vt 0.816033 0.871379
vt 0.829870 0.868886
vt 0.802197 0.868886
vt 0.816033 0.871379
vt 0.792068 0.862073
vt 0.802197 0.868886
vt 0.816033 0.834153
vt 0.802197 0.836646
vt 0.829870 0.836646
vt 0.816033 0.834153
vt 0.839998 0.843459
vt 0.829870 0.836646
vt 0.829870 0.868886
vt 0.839998 0.862073
vt 0.788361 0.852766
vt 0.792068 0.862073
vt 0.839998 0.862073
vt 0.843706 0.852766
vt 0.792068 0.843459
vt 0.788361 0.852766
vt 0.802197 0.836646
vt 0.792068 0.843459
vt 0.843706 0.852766
vt 0.839998 0.843459
vt 0.816033 0.871379
vt 0.829870 0.868886
vt 0.802197 0.868886
vt 0.816033 0.871379
vt 0.792068 0.862073
vt 0.802197 0.868886
vt 0.816033 0.834153
vt 0.802197 0.836646
vt 0.829870 0.836646
vt 0.816033 0.834153
vt 0.839998 0.843459
vt 0.829870 0.836646
vt 0.829870 0.868886
vt 0.839998 0.862073
vt 0.788361 0.852766
vt 0.792069 0.862073
vt 0.839998 0.862073
vt 0.843706 0.852766
vt 0.792068 0.843459
vt 0.788361 0.852766
vt 0.802197 0.836646
vt 0.792069 0.843459
vt 0.843706 0.852766
vt 0.839998 0.843459
vt 0.411416 0.907194
vt 0.793896 0.822220
vt 0.838171 0.822220
vt 0.457219 0.907194
vt 0.452639 0.907194
vt 0.448058 0.907194
vt 0.443478 0.907194
vt 0.438898 0.907194
vt 0.434318 0.907194
vt 0.429737 0.907194
vt 0.425157 0.907194
vt 0.420577 0.907194
vt 0.415996 0.907194
vt 0.411416 0.876074
vt 0.801275 0.805358
vt 0.804964 0.805358
vt 0.808654 0.805358
vt 0.812344 0.805358
vt 0.816033 0.805358
vt 0.819723 0.805358
vt 0.823413 0.805358
vt 0.827102 0.805358
vt 0.830792 0.805358
vt 0.834482 0.805358
vt 0.793896 0.805358
vt 0.838171 0.805358
vt 0.461799 0.876074
vt 0.406836 0.876074
vt 0.411416 0.876074
vt 0.797585 0.805358
vt 0.797585 0.805358
vt 0.834482 0.805358
vt 0.457219 0.876074
vt 0.457219 0.876074
vt 0.830792 0.805358
vt 0.452639 0.876074
vt 0.452639 0.876074
vt 0.827102 0.805358
vt 0.448058 0.876074
vt 0.448058 0.876074
vt 0.823413 0.805358
vt 0.443478 0.876074
vt 0.443478 0.876074
vt 0.819723 0.805358
vt 0.438898 0.876074
vt 0.438898 0.876074
vt 0.816033 0.805358
vt 0.434318 0.876074
vt 0.434318 0.876074
vt 0.812344 0.805358
vt 0.429737 0.876074
vt 0.429737 0.876074
vt 0.808654 0.805358
vt 0.425157 0.876074
vt 0.425157 0.876074
vt 0.804964 0.805358
vt 0.420577 0.876074
vt 0.420577 0.876074
vt 0.801275 0.805358
vt 0.415996 0.876074
vt 0.415996 0.876074
vt 0.793896 0.794116
vt 0.838171 0.794116
vt 0.834482 0.822220
vt 0.834482 0.822220
vt 0.457219 0.907194
vt 0.830792 0.822220
vt 0.830792 0.822220
vt 0.452639 0.907194
vt 0.827102 0.822220
vt 0.827102 0.822220
vt 0.448058 0.907194
vt 0.823413 0.822220
vt 0.823413 0.822220
vt 0.443478 0.907194
vt 0.819723 0.822220
vt 0.819723 0.822220
vt 0.438898 0.907194
vt 0.816033 0.822220
vt 0.816033 0.822220
vt 0.434318 0.907194
vt 0.812344 0.822220
vt 0.812344 0.822220
vt 0.429737 0.907194
vt 0.808654 0.822220
vt 0.808654 0.822220
vt 0.425157 0.907194
vt 0.804964 0.822220
vt 0.804964 0.822220
vt 0.420577 0.907194
vt 0.801275 0.822220
vt 0.801275 0.822220
vt 0.415996 0.907194
vt 0.797585 0.822220
vt 0.797585 0.822220
vt 0.411416 0.907194
vt 0.406836 0.907194
vt 0.461799 0.907194
vt 0.816033 0.871379
vt 0.801275 0.834265
vt 0.802197 0.868886
vt 0.804964 0.834265
vt 0.792068 0.862073
vt 0.808654 0.834265
vt 0.788361 0.852766
vt 0.812344 0.834265
vt 0.792068 0.843459
vt 0.816033 0.834265
vt 0.802197 0.836646
vt 0.819723 0.834265
vt 0.816033 0.834153
vt 0.823413 0.834265
vt 0.829870 0.836646
vt 0.827102 0.834265
vt 0.839998 0.843459
vt 0.830792 0.834265
vt 0.843706 0.852766
vt 0.834482 0.834265
vt 0.829870 0.868886
vt 0.797585 0.834265
vt 0.792068 0.843459
vt 0.792068 0.843459
vt 0.792068 0.843459
vt 0.792069 0.843459
vt 0.792069 0.843459
vt 0.792069 0.843459
vt 0.843706 0.852766
vt 0.843706 0.852766
vt 0.843706 0.852766
vt 0.843706 0.852766
vt 0.843706 0.852766
vt 0.843706 0.852766
vt 0.788361 0.852766
vt 0.788361 0.852766
vt 0.788361 0.852766
vt 0.788361 0.852766
vt 0.788361 0.852766
vt 0.788361 0.852766
vt 0.839998 0.862073
vt 0.839998 0.862073
vt 0.839998 0.862073
vt 0.839998 0.862073
vt 0.839998 0.862073
vt 0.839998 0.862073
vt 0.839998 0.843459
vt 0.839998 0.843459
vt 0.839998 0.843459
vt 0.839998 0.843459
vt 0.839998 0.843459
vt 0.839998 0.843459
vt 0.829870 0.836646
vt 0.829870 0.836646
vt 0.829870 0.836646
vt 0.829870 0.836646
vt 0.829870 0.836646
vt 0.829870 0.836646
vt 0.802197 0.836646
vt 0.802197 0.836646
vt 0.802197 0.836646
vt 0.802197 0.836646
vt 0.802197 0.836646
vt 0.802197 0.836646
vt 0.816033 0.834153
vt 0.816033 0.834153
vt 0.816033 0.834153
vt 0.816033 0.834153
vt 0.816033 0.834153
vt 0.816033 0.834153
vt 0.792068 0.862073
vt 0.792068 0.862073
vt 0.792068 0.862073
vt 0.792069 0.862073
vt 0.792069 0.862073
vt 0.792069 0.862073
vt 0.802197 0.868886
vt 0.802197 0.868886
vt 0.802197 0.868886
vt 0.802197 0.868886
vt 0.802197 0.868886
vt 0.802197 0.868886
vt 0.829870 0.868886
vt 0.829870 0.868886
vt 0.829870 0.868886
vt 0.829870 0.868886
vt 0.829870 0.868886
vt 0.829870 0.868886
vt 0.816033 0.871379
vt 0.816033 0.871379
vt 0.816033 0.871379
vt 0.816033 0.871379
vt 0.816033 0.871379
vt 0.816033 0.871379
vt 0.792068 0.843459
vt 0.792068 0.843459
vt 0.792068 0.843459
vt 0.792068 0.843459
vt 0.792068 0.843459
vt 0.792068 0.843459
vt 0.843706 0.852766
vt 0.843706 0.852766
vt 0.843706 0.852766
vt 0.843706 0.852766
vt 0.843706 0.852766
vt 0.843706 0.852766
vt 0.788361 0.852766
vt 0.788361 0.852766
vt 0.788361 0.852766
vt 0.788361 0.852766
vt 0.788361 0.852766
vt 0.788361 0.852766
vt 0.839998 0.862073
vt 0.839998 0.862073
vt 0.839998 0.862073
vt 0.839998 0.862073
vt 0.839998 0.862073
vt 0.839998 0.862073
vt 0.839998 0.843459
vt 0.839998 0.843459
vt 0.839998 0.843459
vt 0.839998 0.843459
vt 0.839998 0.843459
vt 0.839998 0.843459
vt 0.829870 0.836646
vt 0.829870 0.836646
vt 0.829870 0.836646
vt 0.829870 0.836646
vt 0.829870 0.836646
vt 0.829870 0.836646
vt 0.802197 0.836646
vt 0.802197 0.836646
vt 0.802197 0.836646
vt 0.802197 0.836646
vt 0.802197 0.836646
vt 0.802197 0.836646
vt 0.816033 0.834153
vt 0.816033 0.834153
vt 0.816033 0.834153
vt 0.816033 0.834153
vt 0.816033 0.834153
vt 0.816033 0.834153
vt 0.792068 0.862073
vt 0.792068 0.862073
vt 0.792068 0.862073
vt 0.792068 0.862073
vt 0.792068 0.862073
vt 0.792068 0.862073
vt 0.802197 0.868886
vt 0.802197 0.868886
vt 0.802197 0.868886
vt 0.802197 0.868886
vt 0.802197 0.868886
vt 0.802197 0.868886
vt 0.829870 0.868886
vt 0.829870 0.868886
vt 0.829870 0.868886
vt 0.829870 0.868886
vt 0.829870 0.868886
vt 0.829870 0.868886
vt 0.816033 0.871379
vt 0.816033 0.871379
vt 0.816033 0.871379
vt 0.816033 0.871379
vt 0.816033 0.871379
vt 0.816033 0.871379
vt 0.792068 0.843459
vt 0.792068 0.843459
vt 0.792068 0.843459
vt 0.792068 0.843459
vt 0.792068 0.843459
vt 0.792068 0.843459
vt 0.843706 0.852766
vt 0.843706 0.852766
vt 0.843706 0.852766
vt 0.843706 0.852766
vt 0.843706 0.852766
vt 0.843706 0.852766
vt 0.788361 0.852766
vt 0.788361 0.852766
vt 0.788361 0.852766
vt 0.788361 0.852766
vt 0.788361 0.852766
vt 0.788361 0.852766
vt 0.839998 0.862073
vt 0.839998 0.862073
vt 0.839998 0.862073
vt 0.839998 0.862073
vt 0.839998 0.862073
vt 0.839998 0.862073
vt 0.839998 0.843459
vt 0.839998 0.843459
vt 0.839998 0.843459
vt 0.839998 0.843459
vt 0.839998 0.843459
vt 0.839998 0.843459
vt 0.829870 0.836646
vt 0.829870 0.836646
vt 0.829870 0.836646
vt 0.829870 0.836646
vt 0.829870 0.836646
vt 0.829870 0.836646
vt 0.802197 0.836646
vt 0.802197 0.836646
vt 0.802197 0.836646
vt 0.802197 0.836646
vt 0.802197 0.836646
vt 0.802197 0.836646
vt 0.816033 0.834153
vt 0.816033 0.834153
vt 0.816033 0.834153
vt 0.816033 0.834153
vt 0.816033 0.834153
vt 0.816033 0.834153
vt 0.792068 0.862073
vt 0.792068 0.862073
vt 0.792068 0.862073
vt 0.792068 0.862073
vt 0.792068 0.862073
vt 0.792068 0.862073
vt 0.802197 0.868886
vt 0.802197 0.868886
vt 0.802197 0.868886
vt 0.802197 0.868886
vt 0.802197 0.868886
vt 0.802197 0.868886
vt 0.829870 0.868886
vt 0.829870 0.868886
vt 0.829870 0.868886
vt 0.829870 0.868886
vt 0.829870 0.868886
vt 0.829870 0.868886
vt 0.816033 0.871379
vt 0.816033 0.871379
vt 0.816033 0.871379
vt 0.816033 0.871379
vt 0.816033 0.871379
vt 0.816033 0.871379
vt 0.792068 0.843459
vt 0.792068 0.843459
vt 0.792068 0.843459
vt 0.790074 0.793514
vt 0.790074 0.793514
vt 0.792068 0.843459
vt 0.854176 0.810690
vt 0.854176 0.810690
vt 0.843706 0.852766
vt 0.843706 0.852766
vt 0.843706 0.852766
vt 0.843706 0.852766
vt 0.788361 0.852766
vt 0.788361 0.852766
vt 0.788361 0.852766
vt 0.785472 0.810690
vt 0.785472 0.810690
vt 0.788361 0.852766
vt 0.849574 0.827867
vt 0.849574 0.827867
vt 0.839998 0.862073
vt 0.839998 0.862073
vt 0.839998 0.862073
vt 0.839998 0.862073
vt 0.839998 0.843459
vt 0.839998 0.843459
vt 0.839998 0.843459
vt 0.849574 0.793514
vt 0.849574 0.793514
vt 0.839998 0.843459
vt 0.829870 0.836646
vt 0.829870 0.836646
vt 0.829870 0.836646
vt 0.837000 0.780941
vt 0.837000 0.780941
vt 0.829870 0.836646
vt 0.802648 0.780941
vt 0.802648 0.780941
vt 0.802197 0.836646
vt 0.802197 0.836646
vt 0.802197 0.836646
vt 0.802197 0.836646
vt 0.816033 0.834153
vt 0.816033 0.834153
vt 0.816033 0.834153
vt 0.819824 0.776338
vt 0.819824 0.776338
vt 0.816033 0.834153
vt 0.792068 0.862073
vt 0.792068 0.862073
vt 0.792068 0.862073
vt 0.790074 0.827867
vt 0.790074 0.827867
vt 0.792068 0.862073
vt 0.802197 0.868886
vt 0.802197 0.868886
vt 0.802197 0.868886
vt 0.802648 0.840440
vt 0.802648 0.840440
vt 0.802197 0.868886
vt 0.837000 0.840440
vt 0.837000 0.840440
vt 0.829870 0.868886
vt 0.829870 0.868886
vt 0.829870 0.868886
vt 0.829870 0.868886
vt 0.816033 0.871379
vt 0.816033 0.871379
vt 0.816033 0.871379
vt 0.819824 0.845043
vt 0.819824 0.845043
vt 0.816033 0.871379
vt 0.839998 0.761561
vt 0.843706 0.770867
vt 0.834482 0.789481
vt 0.829870 0.786987
vt 0.827102 0.789481
vt 0.830792 0.789481
vt 0.839998 0.780174
vt 0.816033 0.789481
vt 0.823413 0.789481
vt 0.802197 0.786987
vt 0.819723 0.789481
vt 0.792068 0.780174
vt 0.816033 0.789481
vt 0.788361 0.770867
vt 0.812344 0.789481
vt 0.802197 0.754748
vt 0.804964 0.789481
vt 0.808654 0.789481
vt 0.792068 0.761561
vt 0.816033 0.752254
vt 0.801275 0.789481
vt 0.829870 0.754748
vt 0.797585 0.789481
vt 0.837774 0.770867
vt 0.837774 0.770867
vt 0.837774 0.770867
vt 0.816033 0.785491
vt 0.816033 0.785491
vt 0.816033 0.785491
vt 0.834862 0.763555
vt 0.834862 0.763555
vt 0.834862 0.763555
vt 0.805163 0.783532
vt 0.805163 0.783532
vt 0.805163 0.783532
vt 0.826904 0.758203
vt 0.826904 0.758203
vt 0.826904 0.758203
vt 0.797205 0.778179
vt 0.797205 0.778179
vt 0.797205 0.778179
vt 0.816033 0.756243
vt 0.816033 0.756243
vt 0.816033 0.756243
vt 0.794292 0.770867
vt 0.794292 0.770867
vt 0.794292 0.770867
vt 0.834482 0.794116
vt 0.834482 0.794116
vt 0.834482 0.794116
vt 0.830792 0.794116
vt 0.830792 0.794116
vt 0.830792 0.794116
vt 0.827102 0.794116
vt 0.827102 0.794116
vt 0.827102 0.794116
vt 0.823413 0.794116
vt 0.823413 0.794116
vt 0.823413 0.794116
vt 0.819723 0.794116
vt 0.819723 0.794116
vt 0.819723 0.794116
vt 0.816033 0.794116
vt 0.816033 0.794116
vt 0.816033 0.794116
vt 0.812344 0.794116
vt 0.812344 0.794116
vt 0.812344 0.794116
vt 0.808654 0.794116
vt 0.808654 0.794116
vt 0.808654 0.794116
vt 0.804964 0.794116
vt 0.804964 0.794116
vt 0.804964 0.794116
vt 0.801275 0.794116
vt 0.801275 0.794116
vt 0.801275 0.794116
vt 0.839998 0.862073
vt 0.797585 0.794116
vt 0.797585 0.794116
vt 0.797585 0.794116
vt 0.834862 0.778179
vt 0.834862 0.778179
vt 0.826904 0.783532
vt 0.826904 0.783532
vt 0.797205 0.763555
vt 0.797205 0.763555
vt 0.805163 0.758203
vt 0.805163 0.758203
vt 0.849574 0.793514
vt 0.839998 0.843459
vt 0.839998 0.843459
vt 0.843706 0.852766
vt 0.854176 0.810690
vt 0.854176 0.810690
vt 0.790074 0.793514
vt 0.792068 0.843459
vt 0.792068 0.843459
vt 0.802197 0.836646
vt 0.802648 0.780941
vt 0.802648 0.780941
vt 0.785472 0.810690
vt 0.788361 0.852766
vt 0.788361 0.852766
vt 0.839998 0.862073
vt 0.849574 0.827867
vt 0.849574 0.827867
vt 0.790074 0.827867
vt 0.792068 0.862073
vt 0.792068 0.862073
vt 0.829870 0.868886
vt 0.837000 0.840440
vt 0.837000 0.840440
vt 0.837000 0.780941
vt 0.829870 0.836646
vt 0.819824 0.776338
vt 0.816033 0.834153
vt 0.802648 0.840440
vt 0.802197 0.868886
vt 0.819824 0.845043
vt 0.816033 0.871379
vt 0.792068 0.843459
vt 0.792068 0.843459
vt 0.792068 0.843459
vt 0.843706 0.852766
vt 0.843706 0.852766
vt 0.843706 0.852766
vt 0.788361 0.852766
vt 0.788361 0.852766
vt 0.788361 0.852766
vt 0.839998 0.862073
vt 0.839998 0.862073
vt 0.839998 0.862073
vt 0.829870 0.836646
vt 0.829870 0.836646
vt 0.829870 0.836646
vt 0.816033 0.834153
vt 0.816033 0.834153
vt 0.816033 0.834153
vt 0.802197 0.836646
vt 0.802197 0.836646
vt 0.802197 0.836646
vt 0.839998 0.843459
vt 0.839998 0.843459
vt 0.839998 0.843459
vt 0.802197 0.868886
vt 0.802197 0.868886
vt 0.802197 0.868886
vt 0.816033 0.871379
vt 0.816033 0.871379
vt 0.816033 0.871379
vt 0.829870 0.868886
vt 0.829870 0.868886
vt 0.829870 0.868886
vt 0.792068 0.862073
vt 0.792068 0.862073
vt 0.792068 0.862073
vt 0.792068 0.843459
vt 0.792068 0.843459
vt 0.792068 0.843459
vt 0.843706 0.852766
vt 0.843706 0.852766
vt 0.843706 0.852766
vt 0.788361 0.852766
vt 0.788361 0.852766
vt 0.788361 0.852766
vt 0.839998 0.862073
vt 0.839998 0.862073
vt 0.839998 0.862073
vt 0.829870 0.836646
vt 0.829870 0.836646
vt 0.829870 0.836646
vt 0.816033 0.834153
vt 0.816033 0.834153
vt 0.816033 0.834153
vt 0.802197 0.836646
vt 0.802197 0.836646
vt 0.802197 0.836646
vt 0.839998 0.843459
vt 0.839998 0.843459
vt 0.839998 0.843459
vt 0.802197 0.868886
vt 0.802197 0.868886
vt 0.802197 0.868886
vt 0.816033 0.871379
vt 0.816033 0.871379
vt 0.816033 0.871379
vt 0.829870 0.868886
vt 0.829870 0.868886
vt 0.829870 0.868886
vt 0.792068 0.862073
vt 0.792068 0.862073
vt 0.792068 0.862073
vt 0.792068 0.843459
vt 0.792068 0.843459
vt 0.792068 0.843459
vt 0.843706 0.852766
vt 0.843706 0.852766
vt 0.843706 0.852766
vt 0.788361 0.852766
vt 0.788361 0.852766
vt 0.788361 0.852766
vt 0.839998 0.862073
vt 0.839998 0.862073
vt 0.839998 0.862073
vt 0.829870 0.836646
vt 0.829870 0.836646
vt 0.829870 0.836646
vt 0.816033 0.834153
vt 0.816033 0.834153
vt 0.816033 0.834153
vt 0.802197 0.836646
vt 0.802197 0.836646
vt 0.802197 0.836646
vt 0.839998 0.843459
vt 0.839998 0.843459
vt 0.839998 0.843459
vt 0.802197 0.868886
vt 0.802197 0.868886
vt 0.802197 0.868886
vt 0.816033 0.871379
vt 0.816033 0.871379
vt 0.816033 0.871379
vt 0.829870 0.868886
vt 0.829870 0.868886
vt 0.829870 0.868886
vt 0.792068 0.862073
vt 0.792068 0.862073
vt 0.792068 0.862073
vt 0.792068 0.843459
vt 0.792068 0.843459
vt 0.792068 0.843459
vt 0.843706 0.852766
vt 0.843706 0.852766
vt 0.843706 0.852766
vt 0.788361 0.852766
vt 0.788361 0.852766
vt 0.788361 0.852766
vt 0.839998 0.862073
vt 0.839998 0.862073
vt 0.839998 0.862073
vt 0.829870 0.836646
vt 0.829870 0.836646
vt 0.829870 0.836646
vt 0.816033 0.834153
vt 0.816033 0.834153
vt 0.816033 0.834153
vt 0.802197 0.836646
vt 0.802197 0.836646
vt 0.802197 0.836646
vt 0.839998 0.843459
vt 0.839998 0.843459
vt 0.839998 0.843459
vt 0.802197 0.868886
vt 0.802197 0.868886
vt 0.802197 0.868886
vt 0.816033 0.871379
vt 0.816033 0.871379
vt 0.816033 0.871379
vt 0.829870 0.868886
vt 0.829870 0.868886
vt 0.829870 0.868886
vt 0.792068 0.862073
vt 0.792068 0.862073
vt 0.792068 0.862073
vn 0.000000 1.000000 0.000000
vn 0.000000 1.000000 0.000000
vn 0.000000 1.000000 -0.000001
vn 0.000000 1.000000 -0.000001
vn 0.000000 1.000000 0.000000
vn 0.000000 1.000000 0.000000
vn 0.000000 1.000000 0.000001
vn 0.000000 1.000000 0.000001
vn 0.000000 1.000000 -0.000000
vn 0.000000 1.000000 -0.000000
vn 0.000000 1.000000 -0.000000
vn 0.000000 1.000000 -0.000000
vn 0.498977 0.063928 -0.864254
vn 0.258325 0.061758 -0.964082
vn 0.242812 0.346216 -0.906188
vn 0.242812 0.346216 -0.906188
vn -0.258325 0.061758 -0.964082
vn -0.498977 0.063928 -0.864254
vn -0.242812 0.346216 -0.906188
vn -0.242812 0.346216 -0.906188
vn -0.864254 0.063928 -0.498977
vn -0.663376 0.346216 -0.663376
vn -0.663376 0.346216 -0.663376
vn -0.498977 0.063928 0.864254
vn -0.258325 0.061758 0.964082
vn -0.242812 0.346216 0.906188
vn -0.242812 0.346216 0.906188
vn 0.258325 0.061758 0.964082
vn 0.498977 0.063928 0.864254
vn 0.242812 0.346216 0.906188
vn 0.242812 0.346216 0.906188
vn 0.864254 0.063928 0.498977
vn 0.663376 0.346216 0.663376
vn 0.663376 0.346216 0.663376
vn 0.864254 0.063928 -0.498977
vn 0.663376 0.346216 -0.663376
vn 0.663376 0.346216 -0.663376
vn -0.964082 0.061758 -0.258325
vn -0.906188 0.346216 -0.242812
vn -0.906188 0.346216 -0.242812
vn 0.964082 0.061758 -0.258325
vn 0.906188 0.346216 -0.242812
vn 0.906188 0.346216 -0.242812
vn -0.964082 0.061758 0.258325
vn -0.864254 0.063928 0.498977
vn -0.906188 0.346216 0.242812
vn -0.906188 0.346216 0.242812
vn -0.663376 0.346216 0.663376
vn -0.663376 0.346216 0.663376
vn 0.964082 0.061758 0.258325
vn 0.906188 0.346216 0.242812
vn 0.906188 0.346216 0.242812
vn 0.232322 0.440763 -0.867038
vn 0.232322 0.440763 -0.867038
vn 0.232322 0.440763 -0.867038
vn 0.232322 0.440763 -0.867038
vn -0.232322 0.440763 -0.867038
vn -0.232322 0.440763 -0.867038
vn -0.232322 0.440763 -0.867038
vn -0.232322 0.440763 -0.867038
vn -0.634715 0.440763 -0.634716
vn -0.634715 0.440763 -0.634716
vn -0.634715 0.440763 -0.634716
vn -0.634715 0.440763 -0.634716
vn -0.232322 0.440763 0.867038
vn -0.232322 0.440763 0.867038
vn -0.232322 0.440763 0.867038
vn -0.232322 0.440763 0.867038
vn 0.232322 0.440763 0.867038
vn 0.232322 0.440763 0.867038
vn 0.232322 0.440763 0.867038
vn 0.232322 0.440763 0.867038
vn 0.634715 0.440763 0.634716
vn 0.634715 0.440763 0.634716
vn 0.634715 0.440763 0.634716
vn 0.634715 0.440763 0.634716
vn 0.634715 0.440763 -0.634716
vn 0.634715 0.440763 -0.634716
vn 0.634715 0.440763 -0.634716
vn 0.634715 0.440763 -0.634716
vn -0.867038 0.440763 -0.232322
vn -0.867038 0.440763 -0.232322
vn -0.867038 0.440763 -0.232322
vn -0.867038 0.440763 -0.232322
vn 0.867038 0.440763 -0.232322
vn 0.867038 0.440763 -0.232322
vn 0.867038 0.440763 -0.232322
vn 0.867038 0.440763 -0.232322
vn -0.867038 0.440763 0.232322
vn -0.867038 0.440763 0.232322
vn -0.867038 0.440763 0.232322
vn -0.867038 0.440763 0.232322
vn -0.634715 0.440763 0.634716
vn -0.634715 0.440763 0.634716
vn -0.634715 0.440763 0.634716
vn -0.634715 0.440763 0.634716
vn 0.867038 0.440763 0.232322
vn 0.867038 0.440763 0.232322
vn 0.867038 0.440763 0.232322
vn 0.867038 0.440763 0.232322
vn 0.253505 0.201598 -0.946094
vn 0.253505 0.201598 -0.946094
vn 0.253505 0.201598 -0.946094
vn 0.253505 0.201598 -0.946094
vn -0.253505 0.201598 -0.946094
vn -0.253505 0.201598 -0.946094
vn -0.253505 0.201598 -0.946094
vn -0.253505 0.201598 -0.946094
vn -0.692589 0.201598 -0.692589
vn -0.692589 0.201598 -0.692589
vn -0.692589 0.201598 -0.692589
vn -0.692589 0.201598 -0.692589
vn -0.253505 0.201598 0.946094
vn -0.253505 0.201598 0.946094
vn -0.253505 0.201598 0.946094
vn -0.253505 0.201598 0.946094
vn 0.253505 0.201598 0.946094
vn 0.253505 0.201598 0.946094
vn 0.253505 0.201598 0.946094
vn 0.253505 0.201598 0.946094
vn 0.692589 0.201598 0.692589
vn 0.692589 0.201598 0.692589
vn 0.692589 0.201598 0.692589
vn 0.692589 0.201598 0.692589
vn 0.692589 0.201598 -0.692589
vn 0.692589 0.201598 -0.692589
vn 0.692589 0.201598 -0.692589
vn 0.692589 0.201598 -0.692589
vn -0.946094 0.201598 -0.253505
vn -0.946094 0.201598 -0.253505
vn -0.946094 0.201598 -0.253505
vn -0.946094 0.201598 -0.253505
vn 0.946094 0.201598 -0.253505
vn 0.946094 0.201598 -0.253505
vn 0.946094 0.201598 -0.253505
vn 0.946094 0.201598 -0.253505
vn -0.946094 0.201598 0.253505
vn -0.946094 0.201598 0.253505
vn -0.946094 0.201598 0.253505
vn -0.946094 0.201598 0.253505
vn -0.692589 0.201598 0.692589
vn -0.692589 0.201598 0.692589
vn -0.692589 0.201598 0.692589
vn -0.692589 0.201598 0.692589
vn 0.946094 0.201598 0.253505
vn 0.946094 0.201598 0.253505
vn 0.946094 0.201598 0.253505
vn 0.946094 0.201598 0.253505
vn 0.258598 0.041366 -0.965099
vn 0.258598 0.041366 -0.965099
vn 0.258598 0.041366 -0.965099
vn 0.258598 0.041366 -0.965099
vn -0.258597 0.041366 -0.965099
vn -0.258597 0.041366 -0.965099
vn -0.258597 0.041366 -0.965099
vn -0.258597 0.041366 -0.965099
vn -0.706501 0.041366 -0.706502
vn -0.706501 0.041366 -0.706502
vn -0.706501 0.041366 -0.706502
vn -0.706501 0.041366 -0.706502
vn -0.258597 0.041366 0.965099
vn -0.258597 0.041366 0.965099
vn -0.258597 0.041366 0.965099
vn -0.258597 0.041366 0.965099
vn 0.258598 0.041366 0.965099
vn 0.258598 0.041366 0.965099
vn 0.258598 0.041366 0.965099
vn 0.258598 0.041366 0.965099
vn 0.706501 0.041366 0.706502
vn 0.706501 0.041366 0.706502
vn 0.706501 0.041366 0.706502
vn 0.706501 0.041366 0.706502
vn 0.706502 0.041366 -0.706502
vn 0.706501 0.041366 -0.706502
vn 0.706501 0.041366 -0.706502
vn 0.706501 0.041366 -0.706502
vn -0.965099 0.041366 -0.258598
vn -0.965099 0.041366 -0.258598
vn -0.965099 0.041366 -0.258598
vn -0.965099 0.041366 -0.258598
vn 0.965099 0.041366 -0.258598
vn 0.965099 0.041366 -0.258598
vn 0.965099 0.041366 -0.258598
vn 0.965099 0.041366 -0.258598
vn -0.965099 0.041366 0.258598
vn -0.965099 0.041366 0.258598
vn -0.965099 0.041366 0.258598
vn -0.965099 0.041366 0.258598
vn -0.706501 0.041366 0.706502
vn -0.706501 0.041366 0.706502
vn -0.706501 0.041366 0.706502
vn -0.706501 0.041366 0.706502
vn 0.965099 0.041366 0.258598
vn 0.965099 0.041366 0.258598
vn 0.965099 0.041366 0.258598
vn 0.965099 0.041366 0.258598
vn 0.258482 0.051028 -0.964667
vn 0.258482 0.051028 -0.964667
vn 0.258482 0.051028 -0.964667
vn 0.258482 0.051028 -0.964667
vn -0.258482 0.051028 -0.964667
vn -0.258482 0.051028 -0.964667
vn -0.258482 0.051028 -0.964667
vn -0.258482 0.051028 -0.964667
vn -0.706186 0.051028 -0.706186
vn -0.706186 0.051028 -0.706186
vn -0.706186 0.051028 -0.706186
vn -0.706186 0.051028 -0.706186
vn -0.258482 0.051028 0.964667
vn -0.258482 0.051028 0.964667
vn -0.258482 0.051028 0.964667
vn -0.258482 0.051028 0.964667
vn 0.258482 0.051028 0.964667
vn 0.258482 0.051028 0.964667
vn 0.258482 0.051028 0.964667
vn 0.258482 0.051028 0.964667
vn 0.706186 0.051028 0.706186
vn 0.706186 0.051028 0.706186
vn 0.706186 0.051028 0.706186
vn 0.706186 0.051028 0.706186
vn 0.706185 0.051028 -0.706186
vn 0.706185 0.051028 -0.706186
vn 0.706185 0.051028 -0.706186
vn 0.706185 0.051028 -0.706186
vn -0.964668 0.051028 -0.258482
vn -0.964668 0.051028 -0.258482
vn -0.964667 0.051028 -0.258482
vn -0.964667 0.051028 -0.258482
vn 0.964667 0.051028 -0.258482
vn 0.964667 0.051028 -0.258482
vn 0.964667 0.051028 -0.258482
vn 0.964667 0.051028 -0.258482
vn -0.964667 0.051028 0.258482
vn -0.964667 0.051028 0.258482
vn -0.964667 0.051028 0.258482
vn -0.964667 0.051028 0.258482
vn -0.706186 0.051028 0.706186
vn -0.706186 0.051028 0.706186
vn -0.706186 0.051028 0.706186
vn -0.706186 0.051028 0.706186
vn 0.964668 0.051028 0.258482
vn 0.964668 0.051028 0.258482
vn 0.964667 0.051028 0.258482
vn 0.964667 0.051028 0.258482
vn -0.258074 -0.075827 0.963145
vn 0.000000 -0.078485 0.996915
vn -0.257645 -0.095161 0.961542
vn -0.257645 -0.095161 0.961542
vn 0.258074 -0.075827 0.963145
vn 0.257645 -0.095161 0.961542
vn 0.257645 -0.095161 0.961542
vn 0.705071 -0.075827 0.705071
vn 0.705071 -0.075827 0.705071
vn 0.703898 -0.095161 0.703898
vn 0.703898 -0.095161 0.703898
vn 0.258074 -0.075827 -0.963145
vn 0.000000 -0.078485 -0.996915
vn 0.257645 -0.095161 -0.961542
vn 0.257645 -0.095161 -0.961542
vn -0.258074 -0.075827 -0.963145
vn -0.257645 -0.095161 -0.961542
vn -0.257645 -0.095161 -0.961542
vn -0.705071 -0.075827 -0.705071
vn -0.863354 -0.078485 -0.498458
vn -0.703898 -0.095161 -0.703898
vn -0.703898 -0.095161 -0.703898
vn -0.863354 -0.078485 0.498458
vn -0.705071 -0.075827 0.705071
vn -0.703898 -0.095161 0.703898
vn -0.703898 -0.095161 0.703898
vn 0.963145 -0.075827 0.258074
vn 0.996915 -0.078485 0.000000
vn 0.961542 -0.095161 0.257645
vn 0.961542 -0.095161 0.257645
vn -0.996915 -0.078485 0.000000
vn -0.961542 -0.095161 0.257645
vn -0.961542 -0.095161 0.257645
vn 0.963145 -0.075827 -0.258074
vn 0.961542 -0.095161 -0.257645
vn 0.961542 -0.095161 -0.257645
vn 0.705071 -0.075827 -0.705071
vn 0.705071 -0.075827 -0.705071
vn 0.703898 -0.095161 -0.703898
vn 0.703898 -0.095161 -0.703898
vn -0.961542 -0.095161 -0.257645
vn -0.961542 -0.095161 -0.257645
vn -0.865134 -0.045353 -0.499486
vn -0.795930 -0.394116 -0.459530
vn -0.919061 -0.394117 0.000000
vn -0.998971 -0.045353 -0.000000
vn -0.321702 -0.928445 -0.185735
vn -0.126656 -0.989248 -0.073125
vn -0.073397 -0.997303 -0.000000
vn -0.371470 -0.928445 -0.000000
vn 0.865134 -0.045353 0.499486
vn 0.795930 -0.394116 0.459530
vn 0.919061 -0.394117 0.000000
vn 0.998971 -0.045353 0.000000
vn 0.321702 -0.928445 0.185735
vn 0.126656 -0.989248 0.073125
vn 0.073397 -0.997303 -0.000000
vn 0.371470 -0.928445 -0.000000
vn 0.866025 0.000000 -0.500000
vn 0.500000 0.000000 -0.866025
vn 0.500000 -0.000000 -0.866025
vn 0.866025 -0.000000 -0.500000
vn 0.258819 0.000000 -0.965926
vn 0.258819 -0.000000 -0.965926
vn -0.258819 0.000000 -0.965926
vn -0.500000 0.000000 -0.866025
vn -0.500000 -0.000000 -0.866025
vn -0.258819 -0.000000 -0.965926
vn -0.866025 0.000000 -0.500000
vn -0.866025 -0.000000 -0.500000
vn -0.965926 0.000000 -0.258819
vn -0.965926 -0.000000 -0.258819
vn -0.965926 0.000000 0.258819
vn -0.866025 0.000000 0.500000
vn -0.866025 -0.000000 0.500000
vn -0.965926 -0.000000 0.258819
vn -0.500000 0.000000 0.866025
vn -0.500000 -0.000000 0.866025
vn -0.258819 0.000000 0.965926
vn -0.258819 -0.000000 0.965926
vn 0.258819 0.000000 0.965926
vn 0.500000 0.000000 0.866025
vn 0.500000 -0.000000 0.866025
vn 0.258819 -0.000000 0.965926
vn 0.866025 0.000000 0.500000
vn 0.866025 -0.000000 0.500000
vn 0.965926 0.000000 0.258819
vn 0.965926 -0.000000 0.258819
vn 0.965926 0.000000 -0.258819
vn 0.965926 -0.000000 -0.258819
vn -0.000000 -0.997303 -0.073397
vn -0.073125 -0.989248 -0.126655
vn 0.027964 -0.998435 -0.048434
vn -0.048434 -0.998435 0.027964
vn 0.048434 -0.998435 -0.027964
vn -0.027964 -0.998435 0.048434
vn 0.000000 -0.997303 0.073397
vn 0.073125 -0.989248 0.126655
vn 0.865134 -0.045353 -0.499486
vn 0.795930 -0.394116 -0.459530
vn 0.459530 -0.394116 -0.795930
vn 0.499486 -0.045353 -0.865134
vn 0.321702 -0.928445 -0.185735
vn 0.185735 -0.928445 -0.321702
vn -0.000000 -0.394116 -0.919061
vn 0.000000 -0.045353 -0.998971
vn -0.000000 -0.928445 -0.371469
vn -0.459530 -0.394116 -0.795930
vn -0.499486 -0.045353 -0.865134
vn -0.185735 -0.928445 -0.321702
vn -0.795930 -0.394116 0.459530
vn -0.865134 -0.045353 0.499486
vn -0.321702 -0.928445 0.185735
vn -0.459530 -0.394116 0.795930
vn -0.499486 -0.045353 0.865134
vn -0.185735 -0.928445 0.321702
vn 0.000000 -0.394116 0.919061
vn 0.000000 -0.045353 0.998971
vn 0.000000 -0.928445 0.371469
vn 0.459530 -0.394116 0.795930
vn 0.499486 -0.045353 0.865134
vn 0.185735 -0.928445 0.321702
vn 0.347373 0.719255 -0.601668
vn 0.347373 0.719255 -0.601668
vn 0.601668 0.719255 -0.347373
vn 0.601668 0.719255 -0.347373
vn 0.000000 0.719254 -0.694747
vn 0.000000 0.719254 -0.694747
vn -0.347373 0.719254 -0.601669
vn -0.347373 0.719254 -0.601669
vn -0.601668 0.719254 -0.347374
vn -0.601668 0.719254 -0.347374
vn -0.694747 0.719255 -0.000001
vn -0.694747 0.719254 -0.000001
vn -0.347373 0.719254 0.601669
vn -0.347373 0.719254 0.601669
vn -0.601668 0.719255 0.347374
vn -0.601668 0.719255 0.347374
vn 0.000000 0.719254 0.694747
vn 0.000000 0.719254 0.694747
vn 0.347374 0.719256 0.601667
vn 0.347374 0.719256 0.601667
vn 0.601668 0.719255 0.347372
vn 0.601668 0.719255 0.347372
vn 0.694747 0.719255 -0.000000
vn 0.694746 0.719255 -0.000000
vn -0.347374 0.719254 0.601668
vn -0.347374 0.719254 0.601668
vn -0.000000 0.719253 0.694749
vn -0.000000 0.719253 0.694749
vn -0.601669 0.719253 0.347376
vn -0.601669 0.719253 0.347376
vn 0.347373 0.719252 0.601672
vn 0.347373 0.719252 0.601672
vn 0.601669 0.719253 0.347374
vn 0.601669 0.719253 0.347374
vn 0.694748 0.719253 0.000001
vn 0.694748 0.719253 0.000001
vn 0.347373 0.719252 -0.601672
vn 0.347373 0.719252 -0.601672
vn 0.000000 0.719253 -0.694749
vn 0.000000 0.719253 -0.694749
vn 0.601669 0.719254 -0.347374
vn 0.601669 0.719254 -0.347374
vn -0.347375 0.719255 -0.601666
vn -0.347375 0.719255 -0.601666
vn -0.601669 0.719253 -0.347374
vn -0.601669 0.719253 -0.347374
vn -0.694748 0.719253 -0.000001
vn -0.694748 0.719253 -0.000001
vn -0.258819 0.000000 0.965926
vn 0.000000 0.000000 1.000000
vn 0.258819 0.000000 0.965926
vn 0.707107 0.000000 0.707107
vn 0.707107 0.000000 0.707107
vn 0.258819 0.000000 -0.965926
vn 0.000000 0.000000 -1.000000
vn -0.258819 0.000000 -0.965926
vn -0.707107 0.000000 -0.707107
vn -0.866025 0.000000 -0.500000
vn -0.866025 0.000000 0.500000
vn -0.707107 0.000000 0.707107
vn 0.965926 0.000000 0.258819
vn 1.000000 0.000000 0.000000
vn -1.000000 0.000000 0.000000
vn 0.965926 0.000000 -0.258819
vn 0.707107 0.000000 -0.707107
vn 0.707107 0.000000 -0.707107
vn 0.000000 1.000000 -0.000002
vn 0.000000 1.000000 0.000001
vn 0.000000 1.000000 0.000001
vn 0.000000 1.000000 -0.000002
vn 0.000000 1.000000 -0.000003
vn 0.000000 1.000000 -0.000003
vn 0.000000 1.000000 -0.000001
vn 0.000000 1.000000 -0.000001
vn 0.000000 1.000000 -0.000002
vn 0.000000 1.000000 -0.000003
vn 0.000000 1.000000 -0.000003
vn 0.000000 1.000000 -0.000002
vn 0.000000 1.000000 0.000001
vn 0.000000 1.000000 0.000001
vn 0.000000 1.000000 0.000001
vn 0.000000 1.000000 0.000001
vn 0.000000 1.000000 -0.000003
vn 0.000000 1.000000 -0.000003
vn 0.000000 1.000000 -0.000001
vn 0.000000 1.000000 -0.000001
vn 0.000000 1.000000 0.000000
vn 0.000000 1.000000 0.000000
vn 0.000000 1.000000 -0.000002
vn 0.000000 1.000000 -0.000002
vn 0.347374 -0.719254 -0.601669
vn 0.347374 -0.719254 -0.601669
vn 0.601669 -0.719253 -0.347374
vn 0.601669 -0.719253 -0.347374
vn -0.000000 -0.719254 -0.694748
vn -0.000000 -0.719254 -0.694748
vn -0.347374 -0.719254 -0.601669
vn -0.347374 -0.719254 -0.601669
vn -0.601670 -0.719253 -0.347374
vn -0.601670 -0.719253 -0.347374
vn -0.694748 -0.719253 0.000000
vn -0.694748 -0.719253 0.000000
vn -0.347374 -0.719254 0.601669
vn -0.347374 -0.719254 0.601669
vn -0.601670 -0.719253 0.347374
vn -0.601670 -0.719253 0.347374
vn -0.000000 -0.719254 0.694748
vn -0.000000 -0.719254 0.694748
vn 0.347374 -0.719254 0.601669
vn 0.347374 -0.719254 0.601669
vn 0.601669 -0.719253 0.347374
vn 0.601670 -0.719253 0.347374
vn 0.694748 -0.719253 -0.000000
vn 0.694748 -0.719253 -0.000000
vn 0.000000 -1.000000 -0.000001
vn 0.000000 -1.000000 -0.000002
vn 0.000000 -1.000000 -0.000002
vn 0.000000 -1.000000 -0.000001
vn 0.000000 -1.000000 -0.000003
vn 0.000000 -1.000000 -0.000003
vn 0.000000 -1.000000 -0.000001
vn 0.000000 -1.000000 -0.000001
vn 0.000000 -1.000000 0.000003
vn 0.000000 -1.000000 0.000002
vn 0.000000 -1.000000 0.000002
vn 0.000000 -1.000000 0.000003
vn 0.000000 -1.000000 0.000001
vn 0.000000 -1.000000 0.000001
vn 0.000000 -1.000000 -0.000001
vn 0.000000 -1.000000 -0.000001
vn 0.000000 -1.000000 -0.000000
vn 0.000000 -1.000000 0.000000
vn 0.000000 -1.000000 0.000000
vn 0.000000 -1.000000 0.000000
vn 0.000000 -1.000000 -0.000000
vn 0.000000 -1.000000 -0.000000
vn 0.000000 -1.000000 0.000001
vn 0.000000 -1.000000 0.000001
vn 0.258818 0.000000 -0.965926
vn 0.000000 0.000000 -1.000000
vn 0.000000 0.000000 -1.000000
vn 0.258818 0.000000 -0.965926
vn -0.258819 0.000000 -0.965926
vn -0.258819 0.000000 -0.965926
vn -0.707107 0.000000 -0.707106
vn -0.707107 0.000000 -0.707106
vn -0.707107 0.000000 -0.707106
vn -0.707107 0.000000 -0.707106
vn -0.258819 0.000000 0.965926
vn 0.000000 0.000000 1.000000
vn 0.000000 0.000000 1.000000
vn -0.258819 0.000000 0.965926
vn 0.258818 0.000000 0.965926
vn 0.258818 0.000000 0.965926
vn 0.707106 0.000000 0.707107
vn 0.707106 0.000000 0.707107
vn 0.707106 0.000000 0.707107
vn 0.707106 0.000000 0.707107
vn 0.707106 0.000000 -0.707107
vn 0.707106 0.000000 -0.707107
vn 0.707106 0.000000 -0.707107
vn 0.707106 0.000000 -0.707107
vn -0.965926 0.000000 -0.258819
vn -1.000000 0.000000 0.000000
vn -1.000000 0.000000 0.000000
vn -0.965926 0.000000 -0.258819
vn 1.000000 0.000000 0.000000
vn 0.965926 0.000000 -0.258818
vn 0.965926 0.000000 -0.258818
vn 1.000000 0.000000 0.000000
vn -0.965926 0.000000 0.258819
vn -0.965926 0.000000 0.258819
vn -0.707107 0.000000 0.707106
vn -0.707107 0.000000 0.707106
vn -0.707107 0.000000 0.707106
vn -0.707107 0.000000 0.707106
vn 0.965926 0.000000 0.258818
vn 0.965926 0.000000 0.258818
s 1
g Botella
usemtl initialShadingGroup
f 85/748/1 86/750/2 87/760/3 88/758/4
f 89/730/5 90/738/6 91/756/7 92/754/8
f 94/742/9 93/744/10 86/61/2 85/749/1
f 95/732/11 93/69/10 94/743/9 96/736/12
f 95/71/11 96/737/12 90/65/6 89/731/5
s 3
f 2/350/13 3/9/14 15/897/15 14/899/16
f 3/330/17 4/8/18 16/894/19 15/896/20
f 4/332/18 5/7/21 13/903/22 16/893/23
f 8/340/24 9/3/25 19/885/26 18/887/27
f 9/342/28 10/2/29 20/882/30 19/884/31
f 10/344/29 11/1/32 17/891/33 20/881/34
f 1/717/35 2/10/13 14/900/36 21/878/37
f 5/334/21 6/6/38 22/876/39 13/902/40
f 12/348/41 1/11/35 21/879/42 23/872/43
f 6/336/44 7/5/45 24/870/46 22/875/47
f 7/338/45 8/4/24 18/888/48 24/869/49
f 11/346/32 12/12/50 23/873/51 17/890/52
s off
f 14/13/53 15/898/54 27/861/55 26/863/56
f 15/14/57 16/895/58 28/858/59 27/860/60
f 16/15/61 13/904/62 25/867/63 28/857/64
f 18/17/65 19/886/66 31/849/67 30/851/68
f 19/18/69 20/883/70 32/846/71 31/848/72
f 20/19/73 17/892/74 29/855/75 32/845/76
f 21/21/77 14/901/78 26/864/79 33/842/80
f 13/16/81 22/877/82 34/840/83 25/866/84
f 23/23/85 21/880/86 33/843/87 35/836/88
f 22/22/89 24/871/90 36/834/91 34/839/92
f 24/24/93 18/889/94 30/852/95 36/833/96
f 17/20/97 23/874/98 35/837/99 29/854/100
f 26/25/101 27/862/102 39/825/103 38/827/104
f 27/26/105 28/859/106 40/822/107 39/824/108
f 28/27/109 25/868/110 37/831/111 40/821/112
f 30/29/113 31/850/114 43/813/115 42/815/116
f 31/30/117 32/847/118 44/810/119 43/812/120
f 32/31/121 29/856/122 41/819/123 44/809/124
f 33/33/125 26/865/126 38/828/127 45/806/128
f 25/28/129 34/841/130 46/804/131 37/830/132
f 35/35/133 33/844/134 45/807/135 47/800/136
f 34/34/137 36/835/138 48/798/139 46/803/140
f 36/36/141 30/853/142 42/816/143 48/797/144
f 29/32/145 35/838/146 47/801/147 41/818/148
f 38/37/149 39/826/150 51/789/151 50/791/152
f 39/38/153 40/823/154 52/786/155 51/788/156
f 40/39/157 37/832/158 49/795/159 52/785/160
f 42/41/161 43/814/162 55/777/163 54/779/164
f 43/42/165 44/811/166 56/774/167 55/776/168
f 44/43/169 41/820/170 53/783/171 56/773/172
f 45/45/173 38/829/174 50/792/175 57/770/176
f 37/40/177 46/805/178 58/768/179 49/794/180
f 47/47/181 45/808/182 57/771/183 59/764/184
f 46/46/185 48/799/186 60/762/187 58/767/188
f 48/48/189 42/817/190 54/780/191 60/761/192
f 41/44/193 47/802/194 59/765/195 53/782/196
f 50/49/197 51/790/198 63/491/199 62/487/200
f 51/50/201 52/787/202 64/479/203 63/490/204
f 52/51/205 49/796/206 61/473/207 64/478/208
f 54/53/209 55/778/210 67/467/211 66/463/212
f 55/54/213 56/775/214 68/455/215 67/466/216
f 56/55/217 53/784/218 65/449/219 68/454/220
f 57/57/221 50/793/222 62/488/223 69/445/224
f 49/52/225 58/769/226 70/437/227 61/472/228
f 59/59/229 57/772/230 69/446/231 71/433/232
f 58/58/233 60/763/234 72/425/235 70/436/236
f 60/60/237 54/781/238 66/464/239 72/424/240
f 53/56/241 59/766/242 71/434/243 65/448/244
s 15
f 74/629/245 75/637/246 87/759/247 86/751/248
f 75/638/246 76/625/249 88/757/250 87/62/251
s 17
f 76/626/252 73/619/253 85/747/254 88/63/255
s 18
f 78/605/256 79/613/257 91/755/258 90/739/259
f 79/614/257 80/601/260 92/753/261 91/66/262
s 20
f 80/602/263 77/595/264 89/729/265 92/67/266
f 81/587/267 74/628/268 86/752/269 93/745/270
s 22
f 73/620/271 82/583/272 94/741/273 85/64/274
s 20
f 83/575/275 81/586/267 93/746/276 95/733/277
s 22
f 82/584/272 84/571/278 96/735/279 94/70/280
s 25
f 84/572/281 78/604/282 90/740/283 96/72/284
s 20
f 77/596/264 83/574/275 95/734/285 89/68/286
s 3
f 111/708/287 110/657/288 113/123/289 112/706/290
s 28
f 110/121/291 109/726/292 114/684/293 113/653/294
s 3
f 129/690/295 128/645/296 131/135/297 130/688/298
s 28
f 128/133/299 127/722/300 132/663/301 131/641/302
s 3
f 228/259/303 217/245/304 205/232/305 206/328/306
f 217/260/304 218/291/307 216/244/308 205/327/305
f 218/292/309 219/288/310 215/243/311 216/324/312
f 219/289/310 220/285/313 214/242/314 215/321/311
f 220/286/313 221/282/315 213/241/316 214/318/314
f 221/283/317 222/279/318 212/240/319 213/315/320
f 222/280/318 223/276/321 211/239/322 212/312/319
f 223/277/321 224/273/323 210/238/324 211/309/322
f 224/274/325 225/270/326 209/237/327 210/306/328
f 225/271/326 226/267/329 208/236/330 209/303/327
f 226/268/329 227/264/331 207/235/332 208/300/330
f 227/265/333 228/258/303 206/329/306 207/297/334
s 28
f 105/683/335 114/102/293 109/73/292 106/109/336
f 102/677/337 117/104/338 114/686/293 105/100/335
f 99/671/339 120/106/340 117/680/338 102/101/337
f 132/665/301 123/107/341 120/674/340 99/103/339
f 127/74/300 124/110/342 123/668/341 132/105/301
s 3
f 97/293/343 98/113/344 101/115/345 100/719/346
s 28
f 98/112/347 99/670/339 102/675/337 101/661/348
s 3
f 100/718/346 101/662/345 104/117/349 103/715/350
s 28
f 101/114/348 102/676/337 105/681/335 104/659/351
s 3
f 103/714/350 104/660/349 107/119/352 108/712/353
s 28
f 104/116/351 105/682/335 106/727/336 107/655/354
s 3
f 108/711/353 107/656/352 110/120/288 111/709/287
s 28
f 107/118/354 106/728/336 109/725/292 110/658/291
s 3
f 112/705/290 113/654/289 116/125/355 115/703/356
s 28
f 113/122/294 114/685/293 117/678/338 116/651/357
s 3
f 115/702/356 116/652/355 119/127/358 118/700/359
s 28
f 116/124/357 117/679/338 120/672/340 119/649/360
s 3
f 118/699/359 119/650/358 122/129/361 121/697/362
s 28
f 119/126/360 120/673/340 123/666/341 122/647/363
s 3
f 121/696/362 122/648/361 125/131/364 126/694/365
s 28
f 122/128/363 123/667/341 124/723/342 125/643/366
s 3
f 126/693/365 125/644/364 128/132/296 129/691/295
s 28
f 125/130/366 124/724/342 127/721/300 128/646/299
f 99/669/339 98/640/347 131/134/302 132/664/301
s 3
f 98/111/344 97/97/343 130/687/298 131/642/297
s 35
f 133/412/367 134/560/368 150/517/369 149/371/370
f 134/559/368 133/413/367 135/421/371 136/563/372
f 136/562/372 135/422/371 137/409/373 138/551/374
f 138/550/374 137/410/373 139/403/375 140/545/376
f 140/544/376 139/404/375 151/367/377 152/509/378
f 141/388/379 142/536/380 156/496/381 155/356/382
f 142/535/380 141/389/379 143/397/383 144/539/384
f 144/538/384 143/398/383 145/385/385 146/527/386
f 146/526/386 145/386/385 147/379/387 148/521/388
f 148/520/388 147/380/387 153/358/389 154/506/390
f 149/370/370 150/518/369 154/505/390 153/359/389
f 152/508/378 151/368/377 155/355/382 156/497/381
s 37
f 157/631/391 158/557/392 160/565/393 159/635/394
f 158/556/392 157/632/391 173/589/395 174/515/396
f 159/634/394 160/566/393 162/553/397 161/623/398
f 161/622/398 162/554/397 164/547/399 163/617/400
f 163/616/400 164/548/399 176/511/401 175/581/402
f 165/607/403 166/533/404 168/541/405 167/611/406
f 166/532/404 165/608/403 179/568/407 180/500/408
f 167/610/406 168/542/405 170/529/409 169/599/410
f 169/598/410 170/530/409 172/523/411 171/593/412
f 171/592/412 172/524/411 178/502/413 177/578/414
f 174/514/396 173/590/395 177/577/414 178/503/413
f 175/580/402 176/512/401 180/499/408 179/569/407
s 15
f 157/148/415 159/636/416 75/139/246 74/630/245
f 159/136/416 161/624/417 76/141/249 75/639/246
s 17
f 161/138/418 163/618/419 73/151/253 76/627/252
s 18
f 165/156/420 167/612/421 79/145/257 78/606/256
f 167/142/421 169/600/422 80/147/260 79/615/257
s 20
f 169/144/423 171/594/424 77/159/264 80/603/263
f 173/152/425 157/633/426 74/137/268 81/588/267
s 22
f 163/140/427 175/582/428 82/155/272 73/621/271
s 20
f 177/158/429 173/591/425 81/149/267 83/576/275
s 22
f 175/150/428 179/570/430 84/157/278 82/585/272
s 25
f 179/154/431 165/609/432 78/143/282 84/573/281
s 20
f 171/146/424 177/579/429 83/153/275 77/597/264
s 39
f 134/172/433 136/564/434 160/163/435 158/558/436
f 136/160/434 138/552/437 162/165/438 160/567/435
f 138/162/437 140/546/439 164/175/440 162/555/438
f 142/180/441 144/540/442 168/169/443 166/534/444
f 144/166/442 146/528/445 170/171/446 168/543/443
f 146/168/445 148/522/447 172/183/448 170/531/446
f 150/176/449 134/561/433 158/161/436 174/516/450
f 140/164/439 152/510/451 176/179/452 164/549/440
f 154/182/453 150/519/449 174/173/450 178/504/454
f 152/174/451 156/498/455 180/181/456 176/513/452
f 156/178/455 142/537/441 166/167/444 180/501/456
f 148/170/447 154/507/453 178/177/454 172/525/448
s 41
f 181/484/457 182/416/458 198/373/459 197/443/460
f 182/415/458 181/485/457 183/493/461 184/419/462
f 184/418/462 183/494/461 185/481/463 186/407/464
f 186/406/464 185/482/463 187/475/465 188/401/466
f 188/400/466 187/476/465 199/439/467 200/365/468
f 189/460/469 190/392/470 204/352/471 203/428/472
f 190/391/470 189/461/469 191/469/473 192/395/474
f 192/394/474 191/470/473 193/457/475 194/383/476
f 194/382/476 193/458/475 195/451/477 196/377/478
f 196/376/478 195/452/477 201/430/479 202/362/480
f 197/442/460 198/374/459 202/361/480 201/431/479
f 200/364/468 199/440/467 203/427/472 204/353/471
s 43
f 62/196/481 63/492/482 183/187/483 181/486/484
f 63/184/482 64/480/485 185/189/486 183/495/483
f 64/186/485 61/474/487 187/199/488 185/483/486
f 66/204/489 67/468/490 191/193/491 189/462/492
f 67/190/490 68/456/493 193/195/494 191/471/491
f 68/192/493 65/450/495 195/207/496 193/459/494
f 69/200/497 62/489/481 181/185/484 197/444/498
f 61/188/487 70/438/499 199/203/500 187/477/488
f 71/206/501 69/447/497 197/197/498 201/432/502
f 70/198/499 72/426/503 203/205/504 199/441/500
f 72/202/503 66/465/489 189/191/492 203/429/504
f 65/194/495 71/435/501 201/201/502 195/453/496
s 45
f 182/220/505 184/420/506 135/211/507 133/414/508
f 184/208/506 186/408/509 137/213/510 135/423/507
s off
f 186/210/511 188/402/512 139/223/513 137/411/514
s 46
f 190/228/515 192/396/516 143/217/517 141/390/518
f 192/214/516 194/384/519 145/219/520 143/399/517
s off
f 194/216/521 196/378/522 147/231/523 145/387/524
f 198/224/525 182/417/526 133/209/527 149/372/528
s 47
f 188/212/529 200/366/530 151/227/531 139/405/532
s 48
f 202/230/533 198/375/534 149/221/535 153/360/536
s 47
f 200/222/530 204/354/537 155/229/538 151/369/531
s off
f 204/226/539 190/393/540 141/215/541 155/357/542
s 48
f 196/218/543 202/363/533 153/225/536 147/381/544
s 3
f 206/233/306 205/325/305 2/78/13 1/76/35
f 207/296/334 206/234/306 1/98/35 12/349/41
f 208/299/330 207/295/332 12/99/50 11/347/32
f 209/302/327 208/298/330 11/96/32 10/345/29
f 210/305/328 209/301/327 10/94/29 9/343/28
f 211/308/322 210/304/324 9/92/25 8/341/24
f 212/311/319 211/307/322 8/90/24 7/339/45
f 213/314/320 212/310/319 7/88/45 6/337/44
f 214/317/314 213/313/316 6/86/38 5/335/21
f 215/320/311 214/316/314 5/84/21 4/333/18
f 216/323/312 215/319/311 4/82/18 3/331/17
f 205/326/305 216/322/308 3/80/14 2/351/13
f 100/75/346 103/716/350 218/290/307 217/261/304
f 103/77/350 108/713/353 219/287/310 218/246/309
f 108/79/353 111/710/287 220/284/313 219/247/310
f 111/81/287 112/707/290 221/281/315 220/248/313
f 112/83/290 115/704/356 222/278/318 221/249/317
f 115/85/356 118/701/359 223/275/321 222/250/318
f 118/87/359 121/698/362 224/272/323 223/251/321
f 121/89/362 126/695/365 225/269/326 224/252/325
f 126/91/365 129/692/295 226/266/329 225/253/326
f 129/93/295 130/689/298 227/263/331 226/254/329
f 130/95/298 97/294/343 228/257/303 227/255/333
f 97/108/343 100/720/346 217/262/304 228/256/303
