# This file uses centimeters as units for non-parametric coordinates.

mtllib Cristales_Diamantes_T.mtl
g default
v 5.406336 0.000010 6.746092
v 6.406336 0.000010 5.746092
v 5.406336 0.879278 5.746092
v 4.406336 0.000010 5.746092
v 5.406336 0.000000 5.746092
v 5.406336 0.000010 4.746092
v 6.113443 0.586385 5.746092
v 5.406336 0.586385 6.453199
v 6.113443 0.000010 6.453199
v 5.983687 0.456628 6.323442
v 4.699230 0.586385 5.746092
v 4.699230 0.000010 6.453199
v 4.828986 0.456628 6.323442
v 5.406336 0.586385 5.038985
v 6.113443 0.000010 5.038985
v 5.983687 0.456628 5.168742
v 4.699230 0.000010 5.038985
v 4.828986 0.456628 5.168742
v 6.581325 2.288164 6.135293
v 5.874218 3.104729 6.135293
v 5.874218 2.288164 6.842399
v 6.451568 2.158408 6.712643
v 6.249497 1.147269 7.424077
v 6.249497 0.560895 7.716970
v 6.956604 0.560895 7.424077
v 6.826847 1.017513 7.294321
v 4.938454 3.260160 6.213974
v 4.938454 2.967267 6.921081
v 4.231348 2.967267 6.213974
v 4.361104 2.837510 6.791324
v 3.821212 1.147270 7.109559
v 3.528319 0.560895 7.109559
v 3.821212 0.560895 7.816665
v 3.950968 1.017513 7.686909
v 6.052491 0.902184 3.883020
v 5.345385 0.902184 3.590127
v 5.345385 1.488559 3.883020
v 5.922735 1.358803 4.012777
v 5.819298 2.079703 4.571103
v 5.819298 2.770872 5.278210
v 6.526405 2.079703 5.278210
v 6.396649 1.949946 4.700860
v 7.720820 0.560895 6.171177
v 7.427927 1.147270 6.171177
v 7.427927 0.560895 5.464070
v 7.298170 1.017513 5.593826
v 3.792495 0.792151 4.116597
v 3.499602 0.792151 4.823704
v 3.792495 1.378526 4.823704
v 3.922252 1.248769 4.246353
v 4.938454 2.394112 5.278210
v 4.231348 2.117238 5.278210
v 4.938454 2.101220 4.571103
v 4.361104 1.566930 4.700860
vt 0.445493 0.564075
vt 0.447285 0.564075
vt 0.445493 0.567659
vt 0.443700 0.564075
vt 0.445493 0.567659
vt 0.449078 0.564075
vt 0.447285 0.565867
vt 0.445493 0.565867
vt 0.446389 0.564075
vt 0.446389 0.565479
vt 0.443700 0.565867
vt 0.444597 0.564075
vt 0.444597 0.565479
vt 0.449078 0.565867
vt 0.448181 0.564075
vt 0.448181 0.565479
vt 0.442804 0.564075
vt 0.442804 0.565479
vt 0.449974 0.564075
vt 0.449974 0.565479
vt 0.450870 0.565867
vt 0.447285 0.565867
vt 0.445493 0.567659
vt 0.445493 0.565867
vt 0.446389 0.565479
vt 0.445493 0.565867
vt 0.445493 0.564075
vt 0.446389 0.564075
vt 0.446389 0.565479
vt 0.445493 0.565867
vt 0.445493 0.567659
vt 0.443700 0.565867
vt 0.444597 0.565479
vt 0.443700 0.565867
vt 0.443700 0.564075
vt 0.444597 0.564075
vt 0.444597 0.565479
vt 0.448181 0.564075
vt 0.449078 0.564075
vt 0.449078 0.565867
vt 0.448181 0.565479
vt 0.449078 0.565867
vt 0.445493 0.567659
vt 0.447285 0.565867
vt 0.448181 0.565479
vt 0.447285 0.565867
vt 0.447285 0.564075
vt 0.448181 0.564075
vt 0.448181 0.565479
vt 0.442804 0.564075
vt 0.443700 0.564075
vt 0.443700 0.565867
vt 0.442804 0.565479
vt 0.450870 0.565867
vt 0.445493 0.567659
vt 0.449078 0.565867
vt 0.449974 0.565479
vt 0.418294 0.565867
vt 0.410150 0.562343
vt 0.409254 0.569003
vt 0.417398 0.552715
vt 0.424646 0.562343
vt 0.416502 0.565867
vt 0.467236 0.585291
vt 0.392966 0.569003
vt 0.401110 0.565479
vt 0.437349 0.535084
vt 0.445493 0.535084
vt 0.416502 0.565867
vt 0.408358 0.562343
vt 0.408358 0.549579
vt 0.400214 0.549579
vt 0.416502 0.549579
vt 0.416502 0.549579
vt 0.492564 0.565867
vt 0.459988 0.582155
vt 0.476276 0.565867
vt 0.484420 0.562343
vt 0.476276 0.565867
vt 0.418294 0.549579
vt 0.469925 0.535084
vt 0.469925 0.547848
vt 0.478069 0.535084
vt 0.429205 0.535084
vt 0.429205 0.551372
vt 0.445493 0.567659
vt 0.478069 0.551372
vt 0.499812 0.564075
vt 0.450948 0.552715
vt 0.484420 0.549579
vt 0.492564 0.564075
vt 0.459988 0.580363
vt 0.459988 0.580363
vt 0.459988 0.580363
vt 0.459988 0.564075
vt 0.459988 0.564075
vt 0.409254 0.580363
vt 0.467236 0.580363
vt 0.414709 0.565867
vt 0.407461 0.569003
vt 0.415605 0.576839
vt 0.415605 0.565479
vt 0.423749 0.569003
vt 0.407461 0.569003
vt 0.407461 0.552715
vt 0.407461 0.552715
vt 0.422853 0.564075
vt 0.415605 0.564075
vt 0.415605 0.576839
vt 0.415605 0.576839
vt 0.407461 0.580363
vt 0.455429 0.549579
vt 0.463573 0.549579
vt 0.463573 0.549579
vt 0.455429 0.562343
vt 0.455429 0.562343
vt 0.455429 0.549579
vt 0.455429 0.576839
vt 0.455429 0.576839
vt 0.455429 0.564075
vt 0.455429 0.564075
vt 0.440933 0.562343
vt 0.448181 0.565479
vt 0.406565 0.549579
vt 0.429205 0.535084
vt 0.407461 0.552715
vt 0.407461 0.580363
vt 0.400214 0.565867
vt 0.392070 0.576839
vt 0.392070 0.576839
vt 0.392070 0.564075
vt 0.416502 0.596651
vt 0.449078 0.580363
vt 0.459988 0.582155
vt 0.485317 0.569003
vt 0.501604 0.580363
vt 0.501604 0.569003
vt 0.493460 0.565479
vt 0.493460 0.565479
vt 0.493460 0.565479
vt 0.500708 0.576839
vt 0.485317 0.580363
vt 0.485317 0.580363
vt 0.485317 0.580363
vt 0.485317 0.569003
vt 0.478069 0.565867
vt 0.492564 0.565867
vt 0.494357 0.551372
vt 0.445493 0.582155
vt 0.445493 0.582155
vt 0.445493 0.582155
vt 0.445493 0.582155
vt 0.445493 0.582155
vt 0.445493 0.582155
vt 0.445493 0.582155
vt 0.413813 0.552715
vt 0.413813 0.576839
vt 0.421957 0.569003
vt 0.421957 0.552715
vt 0.478965 0.552715
vt 0.454533 0.569003
vt 0.469925 0.576839
vt 0.462677 0.564075
vt 0.454533 0.564075
vt 0.454533 0.580363
vt 0.461781 0.580363
vt 0.461781 0.580363
vt 0.461781 0.580363
vt 0.461781 0.580363
vt 0.447285 0.565867
vt 0.454533 0.552715
vt 0.461781 0.549579
vt 0.461781 0.535084
vt 0.461781 0.535084
vt 0.478069 0.551372
vt 0.469925 0.547848
vt 0.442746 0.578293
vt 0.426458 0.594581
vt 0.450890 0.574769
vt 0.450890 0.562005
vt 0.459034 0.578293
vt 0.459034 0.562005
vt 0.410170 0.578293
vt 0.418314 0.574769
vt 0.418314 0.562005
vt 0.410170 0.562005
vt 0.418314 0.574769
vt 0.426458 0.578293
vt 0.410170 0.578293
vt 0.426458 0.594581
vt 0.426458 0.578293
vt 0.434602 0.574769
vt 0.434602 0.562005
vt 0.434602 0.574769
vt 0.434602 0.574769
vt 0.434602 0.574769
vt 0.434602 0.574769
vt 0.426458 0.562005
vt 0.434602 0.562005
vt 0.434602 0.562005
vt 0.434602 0.562005
vt 0.442746 0.578293
vt 0.434602 0.574769
vt 0.426458 0.578293
vt 0.426458 0.594581
vt 0.426458 0.594581
vt 0.426458 0.594581
vt 0.426458 0.594581
vn 0.862403 0.389671 0.323138
vn 0.862403 0.389671 0.323138
vn 0.862403 0.389671 0.323138
vn 0.862403 0.389671 0.323138
vn 0.535373 0.653262 0.535373
vn 0.535373 0.653262 0.535373
vn 0.535373 0.653262 0.535373
vn 0.535373 0.653262 0.535373
vn 0.323138 0.389670 0.862403
vn 0.323138 0.389670 0.862403
vn 0.323138 0.389670 0.862403
vn 0.323138 0.389671 0.862403
vn -0.325057 0.888074 0.325058
vn -0.325057 0.888074 0.325058
vn -0.325057 0.888074 0.325058
vn -0.325057 0.888074 0.325058
vn -0.862403 0.389670 0.323138
vn -0.862403 0.389671 0.323138
vn -0.862403 0.389670 0.323138
vn -0.862403 0.389671 0.323138
vn -0.323138 0.389671 0.862403
vn -0.323138 0.389671 0.862403
vn -0.323138 0.389671 0.862403
vn -0.323138 0.389671 0.862403
vn -0.214437 -0.972691 0.088824
vn -0.208702 -0.974151 0.086449
vn -0.000007 -1.000000 0.000007
vn -0.000007 -1.000000 0.000007
vn 0.087556 -0.973476 0.211373
vn 0.099971 -0.965276 0.241346
vn 0.000007 -1.000000 0.000007
vn 0.000007 -1.000000 0.000007
vn 0.323138 0.389671 -0.862403
vn 0.323138 0.389670 -0.862403
vn 0.323138 0.389671 -0.862403
vn 0.323138 0.389671 -0.862403
vn 0.501351 0.705192 -0.501351
vn 0.501351 0.705192 -0.501351
vn 0.501351 0.705192 -0.501351
vn 0.501351 0.705192 -0.501351
vn 0.862403 0.389671 -0.323138
vn 0.862403 0.389671 -0.323138
vn 0.862403 0.389671 -0.323138
vn 0.862403 0.389671 -0.323138
vn -0.323138 0.389671 -0.862403
vn -0.323138 0.389671 -0.862403
vn -0.323138 0.389671 -0.862403
vn -0.323138 0.389671 -0.862403
vn -0.862403 0.389670 -0.323138
vn -0.862403 0.389670 -0.323138
vn -0.862403 0.389670 -0.323138
vn -0.862403 0.389670 -0.323138
vn -0.495252 0.702450 -0.511165
vn -0.495252 0.702450 -0.511165
vn -0.495252 0.702450 -0.511165
vn -0.495252 0.702450 -0.511165
vn -0.297361 -0.946787 -0.123173
vn -0.000007 -1.000000 -0.000007
vn -0.000007 -1.000000 -0.000007
vn -0.329545 -0.934220 -0.136504
vn 0.192776 -0.946069 -0.260366
vn 0.315614 -0.939839 -0.130733
vn 0.000007 -1.000000 -0.000007
vn 0.186872 -0.872666 -0.451146
vn 0.128150 0.163352 -0.978209
vn 0.128150 0.163352 -0.978209
vn 0.128150 0.163352 -0.978209
vn 0.128150 0.163352 -0.978209
vn -0.967327 0.199474 0.156488
vn -0.967327 0.199474 0.156488
vn -0.967327 0.199474 0.156488
vn -0.967327 0.199474 0.156488
vn 0.155554 -0.260677 0.952812
vn 0.155554 -0.260677 0.952812
vn 0.155554 -0.260677 0.952812
vn 0.155554 -0.260677 0.952812
vn 0.944760 -0.293237 0.146426
vn 0.944760 -0.293237 0.146426
vn 0.944760 -0.293237 0.146426
vn 0.944760 -0.293237 0.146426
vn -0.798707 0.268882 0.538303
vn -0.798707 0.268881 0.538303
vn -0.798707 0.268882 0.538303
vn -0.798707 0.268881 0.538303
vn 0.159890 -0.908533 0.386010
vn 0.159890 -0.908533 0.386010
vn 0.747894 0.024015 -0.663384
vn 0.747894 0.024015 -0.663383
vn 0.747894 0.024015 -0.663384
vn 0.747894 0.024015 -0.663383
vn 0.066533 0.837858 -0.541819
vn 0.066533 0.837858 -0.541819
vn 0.066533 0.837858 -0.541819
vn 0.066533 0.837858 -0.541819
vn 0.981199 0.178307 0.073857
vn 0.981199 0.178307 0.073857
vn 0.981199 0.178307 0.073857
vn 0.981199 0.178307 0.073857
vn -0.073857 0.178307 -0.981199
vn -0.073857 0.178307 -0.981199
vn -0.073857 0.178307 -0.981199
vn -0.073857 0.178307 -0.981199
vn -0.960899 -0.221489 0.166179
vn -0.960899 -0.221489 0.166179
vn -0.960899 -0.221489 0.166179
vn -0.960899 -0.221489 0.166179
vn -0.166179 -0.221489 0.960899
vn -0.166179 -0.221489 0.960899
vn -0.166179 -0.221489 0.960899
vn -0.166179 -0.221489 0.960899
vn -0.712282 0.355784 -0.605039
vn -0.712282 0.355784 -0.605039
vn -0.712282 0.355784 -0.605039
vn -0.712282 0.355784 -0.605039
vn -0.358322 -0.921725 0.148422
vn -0.358322 -0.921725 0.148422
vn 0.824149 -0.074656 0.561430
vn 0.824150 -0.074656 0.561430
vn 0.824150 -0.074656 0.561430
vn 0.824150 -0.074656 0.561430
vn 0.590102 0.805871 0.048493
vn 0.590102 0.805871 0.048493
vn 0.590102 0.805871 0.048493
vn 0.590102 0.805871 0.048493
vn 0.250126 -0.756831 -0.603858
vn 0.250126 -0.756831 -0.603858
vn -0.999102 -0.018933 0.037904
vn -0.999102 -0.018933 0.037904
vn -0.999102 -0.018933 0.037904
vn -0.999102 -0.018933 0.037904
vn 0.039384 0.788724 0.613484
vn 0.039384 0.788724 0.613484
vn 0.039384 0.788724 0.613484
vn 0.039384 0.788724 0.613484
vn 0.962653 0.235705 0.133198
vn 0.962653 0.235705 0.133198
vn 0.962653 0.235705 0.133198
vn 0.962653 0.235705 0.133198
vn -0.970301 0.198559 -0.138165
vn -0.970301 0.198559 -0.138165
vn -0.970301 0.198559 -0.138165
vn -0.970301 0.198559 -0.138165
vn 0.158026 0.227102 0.960965
vn 0.158026 0.227102 0.960965
vn 0.158026 0.227102 0.960964
vn 0.158026 0.227102 0.960965
vn 0.941498 -0.305170 -0.143012
vn 0.941498 -0.305170 -0.143012
vn 0.941498 -0.305170 -0.143012
vn 0.941498 -0.305170 -0.143012
vn 0.135723 -0.330203 -0.934101
vn 0.135723 -0.330203 -0.934101
vn 0.135723 -0.330203 -0.934101
vn 0.135723 -0.330203 -0.934101
vn -0.255470 -0.127607 0.958359
vn -0.255470 -0.127607 0.958359
vn -0.255470 -0.127607 0.958359
vn -0.255470 -0.127607 0.958359
vn 0.434737 -0.882370 -0.180074
vn 0.434737 -0.882370 -0.180074
vn 0.168473 0.313442 -0.934543
vn 0.168473 0.313442 -0.934543
vn 0.168473 0.313442 -0.934543
vn 0.168473 0.313442 -0.934543
vn -0.353689 0.926463 -0.128728
vn -0.353689 0.926463 -0.128728
vn -0.353689 0.926463 -0.128728
vn -0.353689 0.926463 -0.128728
vn -0.511735 -0.832585 -0.211968
vn -0.511735 -0.832585 -0.211968
vn -0.555279 0.277361 0.784051
vn -0.555279 0.277361 0.784051
vn -0.555279 0.277361 0.784051
vn -0.555279 0.277361 0.784051
vn 0.667687 0.744243 -0.017205
vn 0.667688 0.744243 -0.017205
vn 0.667687 0.744243 -0.017205
vn 0.667687 0.744243 -0.017205
vn 0.711944 -0.002760 -0.702231
vn 0.711944 -0.002760 -0.702231
vn 0.711944 -0.002760 -0.702231
vn 0.711944 -0.002760 -0.702231
vn -0.105655 0.262245 0.959200
vn -0.105655 0.262245 0.959200
vn -0.105655 0.262245 0.959200
vn -0.105655 0.262245 0.959200
vn 0.958772 0.262544 -0.108749
vn 0.958772 0.262544 -0.108749
vn 0.958772 0.262544 -0.108749
vn 0.958772 0.262544 -0.108749
vn -0.015408 -0.340597 -0.940083
vn -0.015408 -0.340597 -0.940083
vn -0.015408 -0.340597 -0.940083
vn -0.015408 -0.340597 -0.940083
vn -0.941109 -0.337872 -0.012519
vn -0.941109 -0.337872 -0.012519
vn -0.941109 -0.337872 -0.012519
vn -0.941109 -0.337872 -0.012519
s off
g Diamantes3
usemtl lambert2SG
f 9/199/1 2/173/2 7/165/3 10/196/4
f 19/58/5 20/55/6 21/8/7 22/59/8
f 23/60/9 24/1/10 25/61/11 26/62/12
f 28/63/13 27/64/14 29/11/15 30/13/16
f 31/65/17 32/4/18 33/12/19 34/66/20
f 12/67/21 1/68/22 8/69/23 13/70/24
s 1
f 12/71/25 4/72/26 5/206/27 1/73/28
s 2
f 9/200/29 1/74/30 5/207/31 2/172/32
s off
f 35/15/33 36/6/34 37/56/35 38/16/36
f 39/75/37 40/76/38 41/77/39 42/78/40
f 44/79/41 43/80/42 45/81/43 46/82/44
f 14/142/45 6/83/46 17/160/47 18/140/48
f 47/17/49 48/84/50 49/85/51 50/18/52
f 52/54/53 51/86/54 53/87/55 54/139/56
s 3
f 17/19/57 6/88/58 5/5/59 4/89/60
s 4
f 15/90/61 2/171/62 5/208/63 6/91/64
s off
f 7/167/65 3/151/66 20/205/67 19/22/68
f 3/152/69 8/92/70 21/204/71 20/23/72
f 8/93/73 10/194/74 22/203/75 21/24/76
f 10/195/77 7/166/78 19/202/79 22/25/80
f 8/94/81 1/95/82 24/198/83 23/26/84
s 2
f 1/96/30 9/201/29 25/193/85 24/27/86
s off
f 9/9/87 10/197/88 26/192/89 25/28/90
f 10/10/91 8/97/92 23/191/93 26/29/94
f 8/98/95 3/153/96 27/190/97 28/30/98
f 3/154/99 11/99/100 29/189/101 27/31/102
f 11/100/103 13/101/104 30/187/105 29/32/106
f 13/102/107 8/103/108 28/188/109 30/33/110
f 11/104/111 4/105/112 32/186/113 31/34/114
s 1
f 4/106/26 12/107/25 33/185/115 32/35/116
s off
f 12/108/117 13/109/118 34/184/119 33/36/120
f 13/110/121 11/111/122 31/183/123 34/37/124
s 4
f 15/112/61 6/113/64 36/182/125 35/38/126
s off
f 6/114/127 14/143/128 37/181/129 36/39/130
f 14/144/131 16/115/132 38/179/133 37/40/134
f 16/116/135 15/117/136 35/180/137 38/41/138
f 14/146/139 3/149/140 40/178/141 39/42/142
f 3/150/143 7/168/144 41/177/145 40/43/146
f 7/169/147 16/118/148 42/176/149 41/44/150
f 16/119/151 14/145/152 39/175/153 42/45/154
f 7/7/155 2/174/156 43/164/157 44/46/158
s 4
f 2/2/62 15/120/61 45/163/159 43/47/160
s off
f 15/121/161 16/122/162 46/162/163 45/48/164
f 16/123/165 7/170/166 44/161/167 46/49/168
s 3
f 17/124/57 4/125/60 48/159/169 47/50/170
s off
f 4/126/171 11/127/172 49/158/173 48/51/174
f 11/128/175 18/129/176 50/157/177 49/52/178
f 18/130/179 17/131/180 47/156/181 50/53/182
f 11/21/183 3/155/184 51/132/185 52/136/186
f 3/3/187 14/147/188 53/133/189 51/134/190
f 14/14/191 18/141/192 54/138/193 53/135/194
f 18/20/195 11/148/196 52/137/197 54/57/198
g default
v -3.841024 0.000010 5.543368
v -2.841024 0.000010 4.543368
v -3.841024 0.795587 4.543368
v -4.841024 0.000010 4.543368
v -3.841024 -0.000000 4.543368
v -3.841024 0.000010 3.543368
v -3.133917 0.502694 4.543368
v -3.841024 0.502694 5.250475
v -3.133917 0.000010 5.250475
v -3.263673 0.372937 5.120718
v -4.548130 0.502694 4.543368
v -4.548130 0.000010 5.250475
v -4.418374 0.372937 5.120718
v -3.841024 0.502694 3.836261
v -3.133917 0.000010 3.836261
v -3.263673 0.372937 3.966018
v -4.548130 0.000010 3.836261
v -4.418374 0.372937 3.966018
v -2.769570 2.142020 6.252626
v -2.491450 2.224930 5.833141
v -3.100887 2.474329 5.545519
v -3.230643 2.344572 6.122870
v -4.409505 3.019222 5.002764
v -4.409505 2.726329 5.709871
v -5.116612 2.726329 5.002764
v -4.986855 2.596573 5.580115
v -5.000134 0.799765 6.428940
v -4.293027 0.799765 6.721833
v -4.293027 1.302449 6.428940
v -4.870378 1.172692 6.299183
v -3.652750 2.601576 4.018547
v -3.652750 2.894469 4.725653
v -2.945643 2.601576 4.725653
v -3.075400 2.471819 4.148303
v -1.861520 1.496813 4.091364
v -2.154414 1.999497 4.091364
v -2.154414 1.496813 3.384257
v -2.284170 1.869741 3.514014
v -4.231602 1.670430 2.838039
v -4.231602 2.173114 3.130933
v -4.938709 1.670430 3.130933
v -4.808953 2.043358 3.260689
v -5.726595 1.810372 3.384257
v -6.019488 1.810372 4.091364
v -5.726595 2.313056 4.091364
v -5.596839 2.183300 3.514014
vt 0.409269 0.814731
vt 0.430195 0.791827
vt 0.460175 0.852390
vt 0.388344 0.837635
vt 0.460175 0.852390
vt 0.451120 0.768923
vt 0.455648 0.810657
vt 0.434722 0.833561
vt 0.419732 0.803279
vt 0.439678 0.818035
vt 0.413797 0.856465
vt 0.398807 0.826183
vt 0.418753 0.840939
vt 0.476573 0.787753
vt 0.440657 0.780375
vt 0.460603 0.795131
vt 0.377881 0.849087
vt 0.397828 0.863843
vt 0.461582 0.757472
vt 0.481529 0.772227
vt 0.497498 0.764849
vt 0.419732 0.803279
vt 0.430195 0.791827
vt 0.455648 0.810657
vt 0.439678 0.818035
vt 0.434722 0.833561
vt 0.460175 0.852390
vt 0.413797 0.856465
vt 0.418753 0.840939
vt 0.398807 0.826183
vt 0.409269 0.814731
vt 0.434722 0.833561
vt 0.418753 0.840939
vt 0.476573 0.787753
vt 0.460175 0.852390
vt 0.455648 0.810657
vt 0.460603 0.795131
vt 0.455648 0.810657
vt 0.430195 0.791827
vt 0.440657 0.780375
vt 0.460603 0.795131
vt 0.476573 0.787753
vt 0.451120 0.768923
vt 0.461582 0.757472
vt 0.481529 0.772227
vt 0.377881 0.849087
vt 0.388344 0.837635
vt 0.413797 0.856465
vt 0.397828 0.863843
vt 0.455648 0.810657
vt 0.439678 0.818035
vt 0.419732 0.803279
vt 0.439678 0.818035
vt 0.434722 0.833561
vt 0.460175 0.852390
vt 0.418753 0.840939
vt 0.398807 0.826183
vt 0.409269 0.814731
vt 0.434722 0.833561
vt 0.418753 0.840939
vt 0.419732 0.803279
vt 0.430195 0.791827
vt 0.476573 0.787753
vt 0.460175 0.852390
vt 0.455648 0.810657
vt 0.460603 0.795131
vt 0.455648 0.810657
vt 0.430195 0.791827
vt 0.440657 0.780375
vt 0.460603 0.795131
vt 0.476573 0.787753
vt 0.451120 0.768923
vt 0.413797 0.856465
vt 0.481529 0.772227
vt 0.461582 0.757472
vt 0.430195 0.791827
vt 0.419732 0.803279
vt 0.430195 0.791827
vt 0.430195 0.791827
vt 0.455648 0.810657
vt 0.455648 0.810657
vt 0.439678 0.818035
vt 0.439678 0.818035
vt 0.419732 0.803279
vt 0.418753 0.840939
vt 0.418753 0.840939
vt 0.418753 0.840939
vt 0.418753 0.840939
vt 0.455648 0.810657
vt 0.455648 0.810657
vt 0.455648 0.810657
vt 0.430195 0.791827
vt 0.430195 0.791827
vt 0.455648 0.810657
vt 0.461582 0.757472
vt 0.461582 0.757472
vt 0.481529 0.772227
vt 0.481529 0.772227
vt 0.413797 0.856465
vt 0.413797 0.856465
vn 0.267297 0.914265 0.304421
vn 0.267297 0.914265 0.304421
vn 0.267297 0.914265 0.304421
vn 0.267297 0.914265 0.304421
vn 0.325058 0.888074 0.325058
vn 0.325058 0.888074 0.325058
vn 0.325058 0.888074 0.325058
vn 0.325058 0.888074 0.325058
vn 0.319827 0.449888 0.833853
vn 0.319827 0.449888 0.833853
vn 0.319827 0.449888 0.833853
vn 0.319827 0.449888 0.833853
vn -0.325058 0.888074 0.325058
vn -0.325058 0.888074 0.325058
vn -0.325058 0.888074 0.325058
vn -0.325058 0.888074 0.325058
vn -0.833853 0.449888 0.319827
vn -0.833853 0.449888 0.319827
vn -0.833853 0.449888 0.319827
vn -0.833853 0.449888 0.319827
vn -0.319827 0.449888 0.833853
vn -0.319827 0.449888 0.833853
vn -0.319827 0.449888 0.833853
vn -0.319827 0.449888 0.833853
vn -0.109902 -0.957875 0.265323
vn -0.000007 -1.000000 0.000007
vn -0.000007 -1.000000 0.000007
vn -0.145538 -0.924861 0.351357
vn 0.641188 -0.703963 0.305475
vn 0.000007 -1.000000 0.000007
vn 0.000007 -1.000000 0.000007
vn 0.676116 -0.662653 0.322115
vn 0.319827 0.449888 -0.833853
vn 0.319827 0.449888 -0.833853
vn 0.319827 0.449888 -0.833853
vn 0.319827 0.449888 -0.833853
vn 0.325058 0.888074 -0.325058
vn 0.325058 0.888074 -0.325058
vn 0.325058 0.888074 -0.325058
vn 0.325058 0.888074 -0.325058
vn 0.833853 0.449888 -0.319827
vn 0.833853 0.449888 -0.319827
vn 0.833853 0.449888 -0.319827
vn 0.833853 0.449888 -0.319827
vn -0.319827 0.449888 -0.833853
vn -0.319827 0.449888 -0.833853
vn -0.319827 0.449888 -0.833853
vn -0.319827 0.449888 -0.833853
vn -0.833853 0.449888 -0.319827
vn -0.833853 0.449888 -0.319827
vn -0.833853 0.449888 -0.319827
vn -0.833853 0.449888 -0.319827
vn -0.325058 0.888074 -0.325058
vn -0.325058 0.888074 -0.325058
vn -0.325058 0.888074 -0.325058
vn -0.325058 0.888074 -0.325058
vn -0.487839 -0.729238 -0.479818
vn -0.283352 -0.672133 -0.684068
vn -0.000007 -1.000000 -0.000007
vn -0.628930 -0.732516 -0.260513
vn 0.482581 -0.852736 -0.199894
vn 0.594371 -0.765578 -0.246198
vn 0.000007 -1.000000 -0.000007
vn 0.000007 -1.000000 -0.000007
vn 0.845766 -0.349745 0.402938
vn 0.845766 -0.349745 0.402938
vn 0.543998 0.363446 -0.756289
vn 0.543998 0.363446 -0.756289
vn 0.543998 0.363446 -0.756289
vn 0.543998 0.363446 -0.756289
vn -0.974438 0.114553 -0.193255
vn -0.974438 0.114553 -0.193255
vn -0.974438 0.114553 -0.193255
vn -0.974438 0.114553 -0.193255
vn -0.611942 -0.297867 0.732668
vn -0.611942 -0.297867 0.732668
vn -0.611942 -0.297867 0.732668
vn -0.611942 -0.297867 0.732668
vn 0.969014 0.228204 0.094525
vn 0.969014 0.228204 0.094525
vn 0.969014 0.228204 0.094525
vn 0.969014 0.228204 0.094525
vn -0.075846 0.183108 -0.980163
vn -0.075846 0.183108 -0.980163
vn -0.075846 0.183108 -0.980163
vn -0.075846 0.183108 -0.980163
vn -0.949631 -0.274141 0.151813
vn -0.949631 -0.274141 0.151813
vn -0.949631 -0.274141 0.151813
vn -0.949631 -0.274141 0.151813
vn -0.161455 -0.239089 0.957480
vn -0.161455 -0.239089 0.957480
vn -0.161455 -0.239089 0.957480
vn -0.161455 -0.239089 0.957480
vn -0.204876 -0.844620 0.494613
vn -0.204876 -0.844620 0.494613
vn 0.952943 0.152617 0.261932
vn 0.952943 0.152617 0.261932
vn 0.952943 0.152617 0.261932
vn 0.952943 0.152617 0.261932
vn -0.054286 0.816431 -0.574885
vn -0.054286 0.816431 -0.574885
vn -0.054286 0.816431 -0.574885
vn -0.054286 0.816431 -0.574885
vn -0.883395 0.153282 -0.442852
vn -0.883395 0.153282 -0.442852
vn -0.883395 0.153282 -0.442852
vn -0.883395 0.153282 -0.442852
vn -0.994967 0.092581 -0.038348
vn -0.994966 0.092581 -0.038348
vn -0.994966 0.092581 -0.038348
vn -0.994966 0.092581 -0.038348
vn -0.034544 -0.083396 0.995918
vn -0.034544 -0.083396 0.995918
vn -0.034544 -0.083396 0.995918
vn -0.034544 -0.083396 0.995918
vn 0.976523 -0.069900 -0.203759
vn 0.976523 -0.069900 -0.203759
vn 0.976523 -0.069900 -0.203759
vn 0.976523 -0.069900 -0.203759
vn 0.232386 0.063446 -0.970552
vn 0.232386 0.063446 -0.970552
vn 0.232386 0.063446 -0.970552
vn 0.232386 0.063446 -0.970552
vn 0.234916 0.136876 0.962330
vn 0.234916 0.136876 0.962330
vn 0.234916 0.136876 0.962330
vn 0.234916 0.136876 0.962330
vn 0.749708 -0.584383 -0.310539
vn 0.749708 -0.584383 -0.310539
vn -0.541203 0.102109 -0.834669
vn -0.541203 0.102109 -0.834669
vn -0.541203 0.102109 -0.834669
vn -0.541203 0.102109 -0.834669
vn -0.826826 0.559233 0.060140
vn -0.826826 0.559233 0.060140
vn -0.826826 0.559233 0.060140
vn -0.826826 0.559233 0.060140
vn 0.965600 0.130909 -0.224675
vn 0.965600 0.130909 -0.224675
vn 0.965600 0.130909 -0.224675
vn 0.965600 0.130909 -0.224675
vn -0.345054 -0.432426 -0.833034
vn -0.345054 -0.432426 -0.833034
vn -0.796112 0.067768 0.601344
vn -0.796112 0.067768 0.601344
vn -0.796112 0.067768 0.601344
vn -0.796112 0.067768 0.601344
vn 0.111748 0.408616 0.905839
vn 0.111748 0.408616 0.905839
vn 0.111748 0.408616 0.905839
vn 0.111748 0.408616 0.905839
vn -0.757956 -0.571782 -0.313956
vn -0.757956 -0.571782 -0.313956
vn -0.197060 0.114819 0.973645
vn -0.197060 0.114819 0.973645
vn -0.197060 0.114819 0.973645
vn -0.197060 0.114819 0.973645
vn 0.829383 0.555273 0.061605
vn 0.829384 0.555273 0.061605
vn 0.829383 0.555273 0.061605
vn 0.829383 0.555273 0.061605
vn 0.509754 0.119094 -0.852037
vn 0.509754 0.119094 -0.852037
vn 0.509754 0.119094 -0.852037
vn 0.509754 0.119094 -0.852037
s off
g Diamantes2
usemtl lambert2SG
f 73/217/199 74/210/200 75/215/201 76/218/202
f 61/258/203 57/211/204 62/216/205 64/259/206
f 62/216/207 55/209/208 63/260/209 64/261/210
f 78/262/211 77/263/212 79/256/213 80/221/214
f 65/219/215 58/212/216 66/220/217 67/264/218
f 81/265/219 82/266/220 83/267/221 84/268/222
s 1
f 66/220/223 58/212/224 59/213/225 55/209/226
s 2
f 63/269/227 55/209/228 59/213/229 56/270/230
s off
f 69/223/231 60/214/232 68/222/233 70/224/234
f 85/271/235 86/272/236 87/273/237 88/274/238
f 90/275/239 89/276/240 91/277/241 92/278/242
f 94/279/243 93/280/244 95/227/245 96/228/246
f 97/254/247 98/255/248 99/281/249 100/257/250
f 65/229/251 57/211/252 68/222/253 72/282/254
s 3
f 71/283/255 60/214/256 59/213/257 58/212/258
s 4
f 69/223/259 56/284/260 59/213/261 60/214/262
s 2
f 63/285/227 56/286/230 74/231/263 73/230/264
s off
f 56/287/265 61/288/266 75/232/267 74/231/268
f 61/289/269 64/290/270 76/233/271 75/232/272
f 64/291/273 63/292/274 73/230/275 76/233/276
f 62/216/277 57/211/278 77/235/279 78/234/280
f 57/211/281 65/219/282 79/236/283 77/235/284
f 65/219/285 67/293/286 80/237/287 79/236/288
f 67/294/289 62/216/290 78/234/291 80/237/292
s 1
f 66/220/223 55/209/226 82/239/293 81/238/294
s off
f 55/209/295 62/216/296 83/240/297 82/239/298
f 62/216/299 67/295/300 84/241/301 83/240/302
f 67/296/303 66/220/304 81/238/305 84/241/306
f 68/222/307 57/211/308 86/243/309 85/242/310
f 57/211/311 61/297/312 87/244/313 86/243/314
f 61/298/315 70/224/316 88/245/317 87/244/318
f 70/224/319 68/222/320 85/242/321 88/245/322
f 61/299/323 56/300/324 89/247/325 90/246/326
s 4
f 56/301/260 69/223/259 91/248/327 89/247/328
s off
f 69/223/329 70/224/330 92/249/331 91/248/332
f 70/224/333 61/302/334 90/246/335 92/249/336
f 68/222/337 60/214/338 93/251/339 94/250/340
s 3
f 60/214/256 71/303/255 95/252/341 93/251/342
s off
f 71/304/343 72/305/344 96/253/345 95/252/346
f 72/306/347 68/222/348 94/250/349 96/253/350
s 3
f 71/225/255 58/212/258 98/255/351 97/254/352
s off
f 58/212/353 65/219/354 99/307/355 98/255/356
f 65/219/357 72/226/358 100/257/359 99/308/360
f 72/226/361 71/225/362 97/254/363 100/257/364
g default
v 0.000000 0.012170 1.000000
v 1.000000 0.012170 0.000000
v 0.000000 1.000000 0.000000
v -1.000000 0.012170 0.000000
v 0.000000 0.012159 0.000000
v 0.000000 0.012170 -1.000000
v 0.707107 0.707107 0.000000
v 0.000000 0.707107 0.707107
v 0.707107 0.012170 0.707107
v 0.577350 0.577350 0.577350
v -0.707107 0.707107 0.000000
v -0.707107 0.012170 0.707107
v -0.577350 0.577350 0.577350
v -0.707107 0.012162 0.000000
v 0.000000 0.012162 0.707107
v -0.577350 0.012164 0.577350
v 0.707107 0.012162 0.000000
v 0.577350 0.012164 0.577350
v 0.000000 0.707107 -0.707107
v 0.707107 0.012170 -0.707107
v 0.577350 0.577350 -0.577350
v -0.707107 0.012170 -0.707107
v -0.577350 0.577350 -0.577350
v 0.000000 0.012162 -0.707107
v -0.577350 0.012164 -0.577350
v 0.577350 0.012164 -0.577350
v 2.578145 1.604353 1.197851
v 2.871038 1.604353 0.490744
v 2.578145 2.299290 0.490744
v 2.448388 2.169533 1.068095
v 0.581223 3.207091 0.905738
v -0.125884 3.499984 0.905738
v -0.125884 2.874729 1.612845
v 0.451466 2.744972 1.483088
v -2.327388 3.172471 0.410364
v -2.620281 2.477534 0.410364
v -2.327388 2.477534 1.117471
v -2.197632 3.042714 0.987714
v -1.608357 2.117349 2.028378
v -0.901250 2.117349 2.321272
v -0.901250 2.812287 2.028378
v -1.478600 2.682530 1.898622
v 0.622803 1.325981 -2.578145
v -0.084304 1.325981 -2.871038
v -0.084304 2.020918 -2.578145
v 0.493047 1.891162 -2.448388
v 1.027635 2.582426 -1.495404
v 1.027635 2.875319 -0.788297
v 1.734742 2.582426 -0.788297
v 1.604986 2.452670 -1.365648
v -0.491897 3.352714 0.126258
v -1.199003 3.021708 0.126258
v -0.491897 2.957581 -0.580849
v -1.069247 2.750306 -0.451093
vt 0.568927 0.800543
vt 0.570658 0.800543
vt 0.568927 0.804004
vt 0.567196 0.800543
vt 0.568927 0.804004
vt 0.572389 0.800543
vt 0.570658 0.802273
vt 0.568927 0.802273
vt 0.569792 0.800543
vt 0.569792 0.801899
vt 0.567196 0.802273
vt 0.568062 0.800543
vt 0.568062 0.801899
vt 0.567196 0.798812
vt 0.568927 0.798812
vt 0.568062 0.799186
vt 0.570658 0.798812
vt 0.569792 0.799186
vt 0.572389 0.802273
vt 0.571523 0.800543
vt 0.571523 0.801899
vt 0.566331 0.800543
vt 0.566331 0.801899
vt 0.572389 0.798812
vt 0.566331 0.799186
vt 0.571523 0.799186
vt 0.573254 0.800543
vt 0.573254 0.801899
vt 0.574119 0.802273
vt 0.573254 0.799186
vt 0.574119 0.798812
vt 0.569792 0.800543
vt 0.570658 0.800543
vt 0.570658 0.802273
vt 0.569792 0.801899
vt 0.570658 0.802273
vt 0.568927 0.804004
vt 0.568927 0.802273
vt 0.569792 0.801899
vt 0.567196 0.802273
vt 0.567196 0.800543
vt 0.568062 0.800543
vt 0.568062 0.801899
vt 0.568062 0.800543
vt 0.568927 0.800543
vt 0.568927 0.802273
vt 0.568062 0.801899
vt 0.571523 0.800543
vt 0.572389 0.800543
vt 0.572389 0.802273
vt 0.571523 0.801899
vt 0.572389 0.802273
vt 0.568927 0.804004
vt 0.570658 0.802273
vt 0.571523 0.801899
vt 0.574119 0.802273
vt 0.568927 0.804004
vt 0.572389 0.802273
vt 0.573254 0.801899
vt 0.541506 0.802273
vt 0.533353 0.798746
vt 0.532488 0.805427
vt 0.540641 0.789120
vt 0.547929 0.798746
vt 0.539776 0.802273
vt 0.516181 0.805427
vt 0.524335 0.801899
vt 0.560774 0.771391
vt 0.568927 0.771391
vt 0.539776 0.802273
vt 0.531622 0.798746
vt 0.531622 0.785967
vt 0.523469 0.785967
vt 0.531622 0.785967
vt 0.547929 0.785967
vt 0.599809 0.785967
vt 0.591656 0.785967
vt 0.616116 0.802273
vt 0.525200 0.818580
vt 0.585233 0.787698
vt 0.593387 0.784170
vt 0.585233 0.787698
vt 0.585233 0.771391
vt 0.593387 0.771391
vt 0.593387 0.784170
vt 0.572389 0.785967
vt 0.530757 0.789120
vt 0.554351 0.818580
vt 0.579677 0.805427
vt 0.579677 0.789120
vt 0.530757 0.789120
vt 0.579677 0.789120
vt 0.593387 0.771391
vt 0.578811 0.785967
vt 0.570658 0.785967
vt 0.562505 0.785967
vt 0.570658 0.785967
vt 0.570658 0.785967
vt 0.570658 0.802273
vt 0.563370 0.805427
vt 0.555217 0.813321
vt 0.547929 0.798746
vt 0.547929 0.800543
vt 0.556082 0.816849
vt 0.539776 0.816849
vt 0.539776 0.816849
vt 0.547929 0.813321
vt 0.555217 0.813321
vt 0.563370 0.816849
vt 0.530757 0.800543
vt 0.530757 0.800543
vt 0.568062 0.800543
vt 0.568062 0.789120
vt 0.560774 0.785967
vt 0.576215 0.805427
vt 0.576215 0.805427
vt 0.568062 0.789120
vt 0.600675 0.789120
vt 0.601540 0.800543
vt 0.601540 0.785967
vt 0.593387 0.798746
vt 0.593387 0.798746
vt 0.593387 0.785967
vt 0.585233 0.802273
vt 0.585233 0.816849
vt 0.593387 0.813321
vt 0.593387 0.813321
vt 0.568927 0.833156
vt 0.608828 0.816849
vt 0.576215 0.833156
vt 0.608828 0.816849
vt 0.625134 0.816849
vt 0.625134 0.816849
vt 0.624269 0.798746
vt 0.616981 0.801899
vt 0.616981 0.813321
vt 0.624269 0.813321
vt 0.616116 0.816849
vt 0.616116 0.816849
vt 0.616116 0.816849
vt 0.616116 0.816849
vt 0.586964 0.802273
vt 0.594252 0.805427
vt 0.552620 0.802273
vt 0.545333 0.805427
vt 0.545333 0.805427
vt 0.610559 0.805427
vt 0.561639 0.821733
vt 0.568927 0.804004
vt 0.561639 0.821733
vt 0.561639 0.833156
vt 0.554351 0.818580
vt 0.554351 0.833156
vt 0.586964 0.816849
vt 0.578811 0.813321
vt 0.570658 0.816849
vt 0.554351 0.833156
vt 0.586099 0.813321
vt 0.586099 0.800543
vt 0.594252 0.816849
vt 0.594252 0.800543
vt 0.546198 0.815118
vt 0.546198 0.827897
vt 0.554351 0.831425
vt 0.538910 0.824744
vt 0.538910 0.824744
vt 0.531622 0.827897
vt 0.531622 0.827897
vt 0.539776 0.815118
vt 0.583503 0.815118
vt 0.583503 0.815118
vt 0.532488 0.811965
vt 0.568927 0.771391
vt 0.552620 0.787698
vt 0.560774 0.784170
vt 0.524335 0.800543
vt 0.574484 0.800543
vt 0.577946 0.828271
vt 0.569792 0.824744
vt 0.568927 0.831425
vt 0.568927 0.847731
vt 0.577080 0.827897
vt 0.584368 0.811965
vt 0.592521 0.828271
vt 0.582450 0.796639
vt 0.582450 0.780333
vt 0.582450 0.780333
vt 0.582450 0.780333
vt 0.590603 0.783861
vt 0.590603 0.783861
vt 0.598756 0.780333
vt 0.598756 0.780333
vt 0.598756 0.780333
vt 0.549837 0.780333
vt 0.549837 0.780333
vt 0.606909 0.783861
vt 0.566143 0.829252
vt 0.566143 0.829252
vt 0.566143 0.829252
vt 0.606909 0.796639
vt 0.541683 0.796639
vt 0.574296 0.783861
vt 0.574296 0.783861
vt 0.566143 0.780333
vt 0.566143 0.780333
vt 0.566143 0.780333
vt 0.557990 0.783861
vt 0.557990 0.783861
vn 0.886046 0.330646 0.324955
vn 0.886046 0.330646 0.324955
vn 0.886046 0.330646 0.324955
vn 0.886046 0.330646 0.324955
vn 0.298753 0.713281 0.634017
vn 0.298753 0.713281 0.634017
vn 0.298753 0.713281 0.634017
vn 0.298753 0.713281 0.634017
vn 0.324955 0.330645 0.886046
vn 0.324955 0.330645 0.886046
vn 0.324955 0.330645 0.886046
vn 0.324955 0.330645 0.886046
vn -0.325058 0.888074 0.325058
vn -0.325058 0.888074 0.325058
vn -0.325058 0.888074 0.325058
vn -0.325058 0.888074 0.325058
vn -0.886046 0.330645 0.324955
vn -0.886046 0.330645 0.324955
vn -0.886046 0.330645 0.324955
vn -0.886046 0.330645 0.324955
vn -0.324955 0.330645 0.886046
vn -0.324955 0.330645 0.886046
vn -0.324955 0.330645 0.886046
vn -0.324955 0.330645 0.886046
vn -0.744958 -0.591456 0.308572
vn -0.747140 -0.588223 0.309475
vn -0.000027 -1.000000 0.000010
vn -0.000027 -1.000000 0.000010
vn -0.000004 -1.000000 0.000004
vn -0.000004 -1.000000 0.000004
vn -0.000004 -1.000000 0.000004
vn -0.000004 -1.000000 0.000004
vn -0.000010 -1.000000 0.000027
vn -0.296033 -0.633710 0.714686
vn -0.297638 -0.628553 0.718563
vn -0.000010 -1.000000 0.000027
vn 0.000010 -1.000000 0.000027
vn 0.000010 -1.000000 0.000027
vn 0.000010 -1.000000 0.000027
vn 0.000010 -1.000000 0.000027
vn 0.000004 -1.000000 0.000004
vn 0.000004 -1.000000 0.000004
vn 0.000004 -1.000000 0.000004
vn 0.000004 -1.000000 0.000004
vn 0.000027 -1.000000 0.000010
vn 0.566075 -0.790304 0.234476
vn 0.562703 -0.793120 0.233079
vn 0.000027 -1.000000 0.000010
vn 0.324955 0.330645 -0.886046
vn 0.324955 0.330645 -0.886046
vn 0.324955 0.330645 -0.886046
vn 0.324955 0.330645 -0.886046
vn 0.325058 0.888074 -0.325057
vn 0.325058 0.888074 -0.325057
vn 0.325058 0.888074 -0.325057
vn 0.325058 0.888074 -0.325057
vn 0.886046 0.330646 -0.324955
vn 0.886046 0.330646 -0.324955
vn 0.886046 0.330646 -0.324955
vn 0.886046 0.330646 -0.324955
vn -0.324955 0.330645 -0.886046
vn -0.324955 0.330645 -0.886046
vn -0.324955 0.330645 -0.886046
vn -0.324955 0.330645 -0.886046
vn -0.886046 0.330646 -0.324955
vn -0.886046 0.330646 -0.324955
vn -0.886046 0.330646 -0.324955
vn -0.886046 0.330646 -0.324955
vn -0.382809 0.803620 -0.455689
vn -0.382809 0.803620 -0.455689
vn -0.382809 0.803620 -0.455689
vn -0.382809 0.803620 -0.455689
vn -0.000010 -1.000000 -0.000027
vn -0.000010 -1.000000 -0.000027
vn -0.000010 -1.000000 -0.000027
vn -0.000010 -1.000000 -0.000027
vn -0.000004 -1.000000 -0.000004
vn -0.000004 -1.000000 -0.000004
vn -0.000004 -1.000000 -0.000004
vn -0.000004 -1.000000 -0.000004
vn -0.000027 -1.000000 -0.000010
vn -0.000027 -1.000000 -0.000010
vn -0.000027 -1.000000 -0.000010
vn -0.000027 -1.000000 -0.000010
vn 0.000010 -1.000000 -0.000027
vn 0.224325 -0.810174 -0.541569
vn 0.218784 -0.820455 -0.528192
vn 0.000010 -1.000000 -0.000027
vn 0.000027 -1.000000 -0.000010
vn 0.000027 -1.000000 -0.000010
vn 0.000027 -1.000000 -0.000010
vn 0.000027 -1.000000 -0.000010
vn 0.000004 -1.000000 -0.000004
vn 0.000004 -1.000000 -0.000004
vn 0.000004 -1.000000 -0.000004
vn 0.000004 -1.000000 -0.000004
vn 0.590396 -0.769173 0.244550
vn 0.590396 -0.769173 0.244550
vn 0.188946 0.079635 -0.978753
vn 0.188946 0.079635 -0.978753
vn 0.188946 0.079635 -0.978753
vn 0.188946 0.079635 -0.978753
vn -0.651529 0.758245 0.023984
vn -0.651529 0.758245 0.023984
vn -0.651529 0.758245 0.023984
vn -0.651529 0.758245 0.023984
vn -0.354457 0.131177 0.925826
vn -0.354457 0.131177 0.925826
vn -0.354457 0.131177 0.925826
vn -0.354457 0.131177 0.925826
vn 0.142279 0.343491 -0.928316
vn 0.142279 0.343491 -0.928316
vn 0.142279 0.343491 -0.928316
vn 0.142279 0.343491 -0.928316
vn -0.998683 -0.043027 -0.027935
vn -0.998683 -0.043027 -0.027935
vn -0.998683 -0.043027 -0.027935
vn -0.998683 -0.043027 -0.027935
vn 0.121738 -0.376650 0.918322
vn 0.121738 -0.376650 0.918322
vn 0.121738 -0.376650 0.918322
vn 0.121738 -0.376650 0.918322
vn 0.978191 -0.027155 0.205924
vn 0.978191 -0.027155 0.205924
vn 0.978191 -0.027155 0.205924
vn 0.978191 -0.027155 0.205924
vn -0.152191 0.064143 -0.986268
vn -0.152191 0.064143 -0.986268
vn -0.152191 0.064143 -0.986268
vn -0.152191 0.064143 -0.986268
vn -0.767216 -0.557125 0.317791
vn -0.767216 -0.557125 0.317791
vn 0.405056 0.115238 0.907000
vn 0.405056 0.115238 0.907000
vn 0.405056 0.115238 0.907000
vn 0.405056 0.115238 0.907000
vn 0.829355 0.555318 -0.061588
vn 0.829354 0.555318 -0.061588
vn 0.829354 0.555318 -0.061588
vn 0.829354 0.555318 -0.061588
vn -0.307075 -0.596752 0.741345
vn -0.307075 -0.596752 0.741345
vn 0.914356 0.157261 0.373126
vn 0.914355 0.157260 0.373126
vn 0.914355 0.157260 0.373126
vn 0.914355 0.157260 0.373126
vn 0.063579 0.549909 -0.832801
vn 0.063579 0.549909 -0.832801
vn 0.063579 0.549909 -0.832801
vn 0.063579 0.549909 -0.832801
vn -0.792672 0.042357 -0.608175
vn -0.792672 0.042357 -0.608175
vn -0.792672 0.042357 -0.608175
vn -0.792672 0.042357 -0.608175
vn 0.234325 -0.790609 -0.565711
vn 0.234325 -0.790609 -0.565711
vn -0.999289 -0.014643 0.034743
vn -0.999289 -0.014643 0.034743
vn -0.999289 -0.014643 0.034743
vn -0.999289 -0.014643 0.034743
vn 0.055332 0.818309 0.572110
vn 0.055332 0.818309 0.572110
vn 0.055332 0.818309 0.572110
vn 0.055332 0.818309 0.572110
vn 0.974649 0.201381 0.097492
vn 0.974649 0.201381 0.097492
vn 0.974649 0.201381 0.097492
vn 0.974649 0.201381 0.097492
vn -0.892574 0.416579 -0.172552
vn -0.892574 0.416579 -0.172552
vn -0.892574 0.416579 -0.172552
vn -0.892574 0.416579 -0.172552
vn 0.133053 0.321218 0.937612
vn 0.133053 0.321218 0.937612
vn 0.133053 0.321218 0.937612
vn 0.133053 0.321218 0.937612
vn 0.859651 -0.504612 -0.079793
vn 0.859651 -0.504612 -0.079793
vn 0.859651 -0.504612 -0.079793
vn 0.859651 -0.504612 -0.079793
vn 0.103841 -0.433236 -0.895278
vn 0.103841 -0.433236 -0.895278
vn 0.103841 -0.433236 -0.895278
vn 0.103841 -0.433236 -0.895278
vn 0.021806 -0.049428 0.998540
vn 0.021806 -0.049428 0.998540
vn 0.021806 -0.049428 0.998540
vn 0.021806 -0.049428 0.998540
vn 0.971457 0.213313 -0.103778
vn 0.971457 0.213313 -0.103778
vn 0.971457 0.213313 -0.103778
vn 0.971457 0.213313 -0.103778
vn -0.221077 0.006503 -0.975235
vn -0.221077 0.006503 -0.975235
vn -0.221077 0.006503 -0.975235
vn -0.221077 0.006503 -0.975235
vn -0.967931 -0.203943 -0.146685
vn -0.967931 -0.203943 -0.146685
vn -0.967931 -0.203943 -0.146685
vn -0.967931 -0.203943 -0.146685
s off
g Diamantes1
usemtl lambert2SG
f 127/317/365 128/310/366 129/315/367 130/318/368
f 131/368/369 132/365/370 133/316/371 134/369/372
f 108/370/373 101/478/374 109/371/375 110/372/376
f 108/373/377 103/460/378 111/319/379 113/475/380
f 135/374/381 136/312/382 137/320/383 138/375/384
f 139/376/385 140/377/386 141/378/387 142/379/388
s 1
f 112/380/389 104/381/390 114/502/391 116/515/392
s off
f 114/503/393 105/505/394 115/512/395 116/324/396
s 2
f 115/513/397 101/480/398 112/382/399 116/516/400
s off
f 109/383/401 101/479/402 115/514/403 118/510/404
f 115/323/405 105/506/406 117/494/407 118/326/408
s 3
f 117/495/409 102/384/410 109/385/411 118/511/412
s off
f 143/328/413 144/314/414 145/366/415 146/329/416
f 147/386/417 148/387/418 149/388/419 150/389/420
f 107/390/421 102/391/422 120/392/423 121/393/424
f 119/446/425 106/394/426 122/508/427 123/444/428
f 122/330/429 104/395/430 111/454/431 123/331/432
f 152/364/433 151/396/434 153/397/435 154/443/436
f 122/335/437 106/398/438 124/499/439 125/504/440
f 124/500/441 105/313/442 114/339/443 125/338/444
f 114/322/445 104/399/446 122/509/447 125/333/448
s 4
f 124/332/449 106/400/450 120/401/451 126/497/452
s off
f 120/402/453 102/403/454 117/496/455 126/334/456
f 117/325/457 105/507/458 124/501/459 126/498/460
s 3
f 109/404/411 102/405/410 128/493/461 127/340/462
s off
f 102/406/463 107/407/464 129/492/465 128/341/466
f 107/408/467 110/409/468 130/490/469 129/342/470
f 110/410/471 109/411/472 127/491/473 130/343/474
f 107/412/475 103/458/476 132/489/477 131/344/478
f 103/459/479 108/413/480 133/488/481 132/345/482
f 108/414/483 110/415/484 134/487/485 133/346/486
f 110/416/487 107/417/488 131/486/489 134/347/490
f 111/453/491 104/418/492 136/485/493 135/348/494
s 1
f 104/419/390 112/420/389 137/484/495 136/349/496
s off
f 112/421/497 113/473/498 138/483/499 137/350/500
f 113/474/501 111/452/502 135/482/503 138/351/504
s 2
f 112/422/399 101/481/398 140/477/505 139/352/506
s off
f 101/309/507 108/423/508 141/472/509 140/353/510
f 108/424/511 113/476/512 142/471/513 141/354/514
f 113/321/515 112/425/516 139/470/517 142/355/518
s 4
f 120/426/451 106/427/450 144/469/519 143/356/520
s off
f 106/428/521 119/447/522 145/468/523 144/357/524
f 119/448/525 121/429/526 146/466/527 145/358/528
f 121/430/529 120/431/530 143/467/531 146/359/532
f 119/450/533 103/456/534 148/465/535 147/360/536
f 103/457/537 107/432/538 149/464/539 148/361/540
f 107/433/541 121/434/542 150/463/543 149/362/544
f 121/435/545 119/449/546 147/462/547 150/363/548
f 111/337/549 103/461/550 151/436/551 152/440/552
f 103/311/553 119/451/554 153/437/555 151/438/556
f 119/327/557 123/445/558 154/442/559 153/439/560
f 123/336/561 111/455/562 152/441/563 154/367/564
