# This file uses centimeters as units for non-parametric coordinates.

mtllib Pildoras_T.mtl
g default
v 0.482791 1.619657 -0.482791
v -0.000000 1.619659 -0.682769
v -0.482791 1.619659 -0.482791
v -0.682769 1.619659 0.000000
v -0.482791 1.619659 0.482791
v -0.000000 1.619659 0.682769
v 0.482791 1.619659 0.482791
v 0.682769 1.619659 0.000000
v 0.184410 1.926239 -0.184410
v -0.000000 1.926239 -0.260795
v -0.184410 1.926239 -0.184410
v -0.260795 1.926239 0.000000
v -0.184410 1.926239 0.184410
v -0.000000 1.926239 0.260795
v 0.184410 1.926239 0.184410
v 0.260795 1.926239 0.000000
v -0.000000 1.967545 0.000000
v 0.591517 1.138018 -0.591517
v -0.000000 1.138018 -0.836532
v -0.591517 1.138018 -0.591517
v -0.836532 1.138018 0.000000
v -0.591517 1.138018 0.591517
v -0.000000 1.138018 0.836532
v 0.591517 1.138018 0.591517
v 0.836532 1.138018 0.000000
v 0.594152 0.000803 -0.594152
v -0.000000 0.000803 -0.840258
v -0.594153 0.000803 -0.594152
v -0.840258 0.000803 0.000000
v -0.594153 0.000803 0.594152
v -0.000000 0.000803 0.840258
v 0.594152 0.000803 0.594152
v 0.840258 0.000803 0.000000
v 0.193594 -1.923938 -0.193594
v -0.000000 -1.924156 -0.273170
v -0.193594 -1.923938 -0.193594
v -0.273171 -1.924156 0.000000
v -0.193594 -1.923938 0.193594
v -0.000000 -1.924156 0.273170
v 0.193594 -1.923938 0.193594
v 0.273170 -1.924156 -0.000000
v -0.000000 -1.603407 -0.713827
v 0.504752 -1.603407 -0.504752
v -0.504752 -1.603407 -0.504752
v -0.713827 -1.603407 0.000000
v -0.504752 -1.603407 0.504752
v -0.000000 -1.603407 0.713827
v 0.504752 -1.603407 0.504752
v 0.713827 -1.603407 -0.000000
v -0.000000 -1.128641 -0.881606
v 0.623389 -1.128641 -0.623389
v -0.623389 -1.128641 -0.623389
v -0.881606 -1.128641 0.000000
v -0.623389 -1.128641 0.623389
v -0.000000 -1.128641 0.881606
v 0.623389 -1.128641 0.623389
v 0.881606 -1.128641 -0.000000
v -0.000000 -1.967545 0.000000
v -0.000000 0.000918 -0.875186
v 0.618850 0.000918 -0.618850
v -0.618850 0.000918 -0.618850
v -0.875186 0.000918 0.000000
v -0.618850 0.000918 0.618850
v -0.000000 0.000918 0.875186
v 0.618850 0.000918 0.618850
v 0.875186 0.000918 0.000000
vt 0.533137 0.690636
vt 0.542917 0.690636
vt 0.552697 0.690636
vt 0.562477 0.690636
vt 0.572257 0.690636
vt 0.582037 0.690636
vt 0.591817 0.690636
vt 0.601597 0.690636
vt 0.611377 0.690636
vt 0.533137 0.706284
vt 0.542917 0.706284
vt 0.552697 0.706284
vt 0.562477 0.706284
vt 0.572257 0.706284
vt 0.582037 0.706284
vt 0.591817 0.706284
vt 0.601597 0.706284
vt 0.611377 0.706284
vt 0.533137 0.721932
vt 0.542917 0.721932
vt 0.552697 0.721932
vt 0.562477 0.721932
vt 0.572257 0.721932
vt 0.582037 0.721932
vt 0.591817 0.721932
vt 0.601597 0.721932
vt 0.611377 0.721932
vt 0.761450 0.935344
vt 0.774787 0.935344
vt 0.788123 0.935344
vt 0.801459 0.935344
vt 0.814796 0.935344
vt 0.828132 0.935344
vt 0.841469 0.935344
vt 0.854805 0.935344
vt 0.868141 0.935344
vt 0.761450 0.956682
vt 0.774787 0.956682
vt 0.788123 0.956682
vt 0.801459 0.956682
vt 0.814796 0.956682
vt 0.828132 0.956682
vt 0.841469 0.956682
vt 0.854805 0.956682
vt 0.868141 0.956682
vt 0.538027 0.682811
vt 0.557587 0.682811
vt 0.577147 0.682811
vt 0.596707 0.682811
vt 0.781455 0.967351
vt 0.808128 0.967351
vt 0.834801 0.967351
vt 0.861473 0.967351
vt 0.868141 0.915922
vt 0.761450 0.915922
vt 0.774787 0.915922
vt 0.788123 0.915922
vt 0.801459 0.915922
vt 0.814796 0.915922
vt 0.828132 0.915922
vt 0.841469 0.915922
vt 0.854805 0.915922
vt 0.611377 0.722631
vt 0.761450 0.914959
vt 0.542917 0.722631
vt 0.552697 0.722631
vt 0.562477 0.722631
vt 0.572257 0.722631
vt 0.582037 0.722631
vt 0.591817 0.722631
vt 0.601597 0.722631
vt 0.542917 0.722631
vt 0.533137 0.722631
vt 0.552697 0.722631
vt 0.562477 0.722631
vt 0.572257 0.722631
vt 0.582037 0.722631
vt 0.591817 0.722631
vt 0.601597 0.722631
vt 0.611377 0.722631
vt 0.601597 0.722631
vt 0.601597 0.722631
vt 0.601597 0.722631
vt 0.533137 0.722631
vt 0.611377 0.722631
vt 0.591817 0.722631
vt 0.591817 0.722631
vt 0.591817 0.722631
vt 0.601597 0.721932
vt 0.601597 0.721932
vt 0.601597 0.721932
vt 0.854805 0.914959
vt 0.854805 0.914959
vt 0.601597 0.722631
vt 0.582037 0.722631
vt 0.582037 0.722631
vt 0.582037 0.722631
vt 0.591817 0.721932
vt 0.591817 0.721932
vt 0.591817 0.721932
vt 0.841469 0.914959
vt 0.841469 0.914959
vt 0.591817 0.722631
vt 0.572257 0.722631
vt 0.572257 0.722631
vt 0.572257 0.722631
vt 0.582037 0.721932
vt 0.582037 0.721932
vt 0.582037 0.721932
vt 0.828132 0.914959
vt 0.828132 0.914959
vt 0.582037 0.722631
vt 0.562477 0.722631
vt 0.562477 0.722631
vt 0.562477 0.722631
vt 0.572257 0.721932
vt 0.572257 0.721932
vt 0.572257 0.721932
vt 0.814796 0.914959
vt 0.814796 0.914959
vt 0.572257 0.722631
vt 0.552697 0.722631
vt 0.552697 0.722631
vt 0.552697 0.722631
vt 0.562477 0.721932
vt 0.562477 0.721932
vt 0.562477 0.721932
vt 0.801459 0.914959
vt 0.801459 0.914959
vt 0.562477 0.722631
vt 0.542917 0.722631
vt 0.542917 0.722631
vt 0.542917 0.722631
vt 0.552697 0.721932
vt 0.552697 0.721932
vt 0.552697 0.721932
vt 0.788123 0.914959
vt 0.788123 0.914959
vt 0.552697 0.722631
vt 0.533137 0.721932
vt 0.611377 0.721932
vt 0.868141 0.914959
vt 0.533137 0.722631
vt 0.542917 0.721932
vt 0.542917 0.721932
vt 0.542917 0.721932
vt 0.774787 0.914959
vt 0.774787 0.914959
vt 0.542917 0.722631
vt 0.601597 0.690636
vt 0.601597 0.690636
vt 0.601597 0.690636
vt 0.582037 0.690636
vt 0.582037 0.690636
vt 0.582037 0.690636
vt 0.562477 0.690636
vt 0.562477 0.690636
vt 0.562477 0.690636
vt 0.542917 0.690636
vt 0.542917 0.690636
vt 0.542917 0.690636
vt 0.601597 0.706284
vt 0.601597 0.706284
vt 0.601597 0.706284
vt 0.591817 0.706284
vt 0.591817 0.706284
vt 0.591817 0.706284
vt 0.582037 0.706284
vt 0.582037 0.706284
vt 0.582037 0.706284
vt 0.572257 0.706284
vt 0.572257 0.706284
vt 0.572257 0.706284
vt 0.562477 0.706284
vt 0.562477 0.706284
vt 0.562477 0.706284
vt 0.552697 0.706284
vt 0.552697 0.706284
vt 0.552697 0.706284
vt 0.533137 0.706284
vt 0.611377 0.706284
vt 0.542917 0.706284
vt 0.542917 0.706284
vt 0.542917 0.706284
vt 0.591817 0.690636
vt 0.591817 0.690636
vt 0.572257 0.690636
vt 0.572257 0.690636
vt 0.552697 0.690636
vt 0.552697 0.690636
vt 0.611377 0.690636
vt 0.854805 0.915922
vt 0.854805 0.915922
vt 0.854805 0.915922
vt 0.841469 0.915922
vt 0.841469 0.915922
vt 0.841469 0.915922
vt 0.828132 0.915922
vt 0.828132 0.915922
vt 0.828132 0.915922
vt 0.814796 0.915922
vt 0.814796 0.915922
vt 0.814796 0.915922
vt 0.801459 0.915922
vt 0.801459 0.915922
vt 0.801459 0.915922
vt 0.788123 0.915922
vt 0.788123 0.915922
vt 0.788123 0.915922
vt 0.774787 0.915922
vt 0.774787 0.915922
vt 0.774787 0.915922
vt 0.868141 0.915922
vt 0.761450 0.915922
vt 0.854805 0.935344
vt 0.854805 0.935344
vt 0.854805 0.935344
vt 0.841469 0.935344
vt 0.841469 0.935344
vt 0.841469 0.935344
vt 0.828132 0.935344
vt 0.828132 0.935344
vt 0.828132 0.935344
vt 0.814796 0.935344
vt 0.814796 0.935344
vt 0.814796 0.935344
vt 0.801459 0.935344
vt 0.801459 0.935344
vt 0.801459 0.935344
vt 0.788123 0.935344
vt 0.788123 0.935344
vt 0.788123 0.935344
vt 0.774787 0.935344
vt 0.774787 0.935344
vt 0.774787 0.935344
vt 0.868141 0.935344
vt 0.761450 0.935344
vt 0.854805 0.956682
vt 0.854805 0.956682
vt 0.854805 0.956682
vt 0.828132 0.956682
vt 0.828132 0.956682
vt 0.828132 0.956682
vt 0.801459 0.956682
vt 0.801459 0.956682
vt 0.801459 0.956682
vt 0.774787 0.956682
vt 0.774787 0.956682
vt 0.774787 0.956682
vt 0.841469 0.956682
vt 0.841469 0.956682
vt 0.814796 0.956682
vt 0.814796 0.956682
vt 0.788123 0.956682
vt 0.788123 0.956682
vt 0.761450 0.956682
vn 0.000000 -0.850439 -0.526074
vn 0.000000 -0.510817 -0.859689
vn 0.607877 -0.510853 -0.607877
vn 0.375929 -0.846968 -0.375929
vn -0.375929 -0.846968 -0.375929
vn -0.607877 -0.510853 -0.607877
vn -0.526074 -0.850439 -0.000000
vn -0.859689 -0.510817 0.000000
vn -0.375929 -0.846968 0.375929
vn -0.607877 -0.510853 0.607877
vn -0.000000 -0.850439 0.526074
vn -0.000000 -0.510817 0.859689
vn 0.375929 -0.846968 0.375929
vn 0.607877 -0.510853 0.607877
vn 0.526074 -0.850439 -0.000000
vn 0.859689 -0.510817 -0.000000
vn 0.000000 -0.087297 -0.996182
vn 0.704407 -0.087297 -0.704407
vn -0.704407 -0.087297 -0.704407
vn -0.996182 -0.087297 0.000000
vn -0.704407 -0.087297 0.704407
vn -0.000000 -0.087297 0.996182
vn 0.704407 -0.087297 0.704407
vn 0.996182 -0.087297 0.000000
vn 0.000000 0.488332 -0.872658
vn 0.617062 0.488332 -0.617063
vn 0.704503 0.085736 -0.704503
vn -0.000000 0.085737 -0.996318
vn -0.617063 0.488332 -0.617062
vn -0.704503 0.085736 -0.704503
vn -0.872658 0.488332 0.000000
vn -0.996318 0.085736 0.000000
vn -0.617063 0.488332 0.617062
vn -0.704503 0.085736 0.704503
vn -0.000000 0.488332 0.872658
vn -0.000000 0.085736 0.996318
vn 0.617062 0.488332 0.617062
vn 0.704503 0.085736 0.704503
vn 0.872658 0.488333 -0.000000
vn 0.996318 0.085736 0.000000
vn 0.000001 0.850645 -0.525741
vn 0.375454 0.847389 -0.375454
vn -0.375453 0.847391 -0.375453
vn -0.525741 0.850645 0.000000
vn -0.375453 0.847391 0.375453
vn -0.000000 0.850645 0.525740
vn 0.375453 0.847391 0.375452
vn 0.525741 0.850645 -0.000002
vn 0.000000 -1.000000 -0.000000
vn 0.000000 1.000000 0.000000
vn 0.707103 0.003277 -0.707103
vn 0.000000 0.003277 -0.999995
vn -0.707103 0.003277 -0.707103
vn -0.999995 0.003277 0.000000
vn -0.707103 0.003277 0.707103
vn 0.000000 0.003277 0.999995
vn 0.707103 0.003277 0.707103
vn 0.999995 0.003277 -0.000000
vn 0.000000 0.005684 -0.999984
vn 0.707095 0.005684 -0.707095
vn -0.707095 0.005684 -0.707095
vn -0.999984 0.005684 -0.000000
vn -0.707095 0.005684 0.707095
vn 0.000000 0.005683 0.999984
vn 0.707095 0.005684 0.707095
vn 0.999984 0.005684 0.000000
vn 0.000000 0.999995 0.003281
vn -0.002320 0.999995 0.002320
vn -0.002320 0.999995 0.002320
vn 0.000000 0.999995 0.003281
vn 0.002320 0.999995 0.002320
vn 0.002320 0.999995 0.002320
vn 0.003281 0.999995 -0.000000
vn 0.003281 0.999995 -0.000000
vn 0.002320 0.999995 -0.002320
vn 0.002320 0.999995 -0.002320
vn 0.000000 0.999995 -0.003281
vn 0.000000 0.999995 -0.003281
vn -0.002320 0.999995 -0.002320
vn -0.002320 0.999995 -0.002320
vn -0.003281 0.999995 -0.000000
vn -0.003281 0.999995 -0.000000
s 1
g Pildora1
usemtl initialShadingGroup
f 35/159/1 42/183/2 43/180/3 34/1/4
f 36/190/5 44/178/6 42/182/2 35/160/1
f 37/156/7 45/175/8 44/177/6 36/3/5
f 38/188/9 46/172/10 45/174/8 37/157/7
f 39/153/11 47/169/12 46/171/10 38/5/9
f 40/186/13 48/166/14 47/168/12 39/154/11
f 41/150/15 49/163/16 48/165/14 40/7/13
f 34/191/4 43/18/3 49/162/16 41/151/15
f 42/184/2 50/145/17 51/140/18 43/10/3
f 44/179/6 52/135/19 50/144/17 42/11/2
f 45/176/8 53/126/20 52/134/19 44/12/6
f 46/173/10 54/117/21 53/125/20 45/13/8
f 47/170/12 55/108/22 54/116/21 46/14/10
f 48/167/14 56/99/23 55/107/22 47/15/12
f 49/164/16 57/90/24 56/98/23 48/16/14
f 43/181/3 51/27/18 57/89/24 49/17/16
s 2
f 2/29/25 1/237/26 18/55/27 19/210/28
f 3/30/29 2/235/25 19/211/28 20/207/30
f 4/31/31 3/232/29 20/208/30 21/204/32
f 5/32/33 4/229/31 21/205/32 22/201/34
f 6/33/35 5/226/33 22/202/34 23/198/36
f 7/34/37 6/223/35 23/199/36 24/195/38
f 8/35/39 7/220/37 24/196/38 25/192/40
f 1/36/26 8/217/39 25/193/40 18/213/27
f 2/233/25 10/248/41 9/256/42 1/28/26
f 3/230/29 11/39/43 10/247/41 2/234/25
f 4/227/31 12/245/44 11/255/43 3/231/29
f 5/224/33 13/41/45 12/244/44 4/228/31
f 6/221/35 14/242/46 13/253/45 5/225/33
f 7/218/37 15/43/47 14/241/46 6/222/35
f 8/215/39 16/239/48 15/251/47 7/219/37
f 1/236/26 9/45/42 16/238/48 8/216/39
s 1
f 36/189/5 35/161/1 58/47/49 37/4/7
f 38/187/9 37/158/7 58/48/49 39/6/11
f 40/185/13 39/155/11 58/49/49 41/8/15
f 34/9/4 41/152/15 58/46/49 35/2/1
s 2
f 17/50/50 10/38/41 11/254/43 12/246/44
f 17/51/50 12/40/44 13/252/45 14/243/46
f 17/52/50 14/42/46 15/250/47 16/240/48
f 17/53/50 16/44/48 9/37/42 10/249/41
f 26/64/51 27/147/52 19/56/28 18/214/27
f 27/148/52 28/137/53 20/57/30 19/212/28
f 28/138/53 29/128/54 21/58/32 20/209/30
f 29/129/54 30/119/55 22/59/34 21/206/32
f 30/120/55 31/110/56 23/60/36 22/203/34
f 31/111/56 32/101/57 24/61/38 23/200/36
f 32/102/57 33/92/58 25/62/40 24/197/38
f 33/93/58 26/142/51 18/54/27 25/194/40
s 1
f 51/19/18 50/146/17 59/131/59 60/84/60
f 50/20/17 52/136/19 61/122/61 59/72/59
f 52/21/19 53/127/20 62/113/62 61/74/61
f 53/22/20 54/118/21 63/104/63 62/75/62
f 54/23/21 55/109/22 64/95/64 63/76/63
f 55/24/22 56/100/23 65/86/65 64/77/64
f 56/25/23 57/91/24 66/81/66 65/78/65
f 57/26/24 51/141/18 60/85/60 66/79/66
s 3
f 27/65/67 26/143/68 60/73/69 59/132/70
f 28/66/71 27/149/67 59/133/70 61/123/72
f 29/67/73 28/139/71 61/124/72 62/114/74
f 30/68/75 29/130/73 62/115/74 63/105/76
f 31/69/77 30/121/75 63/106/76 64/96/78
f 32/70/79 31/112/77 64/97/78 65/87/80
f 33/71/81 32/103/79 65/88/80 66/82/82
f 26/63/68 33/94/81 66/83/82 60/80/69
g default
v 0.243069 -0.267788 -0.243070
v -0.000000 -0.267788 -0.343752
v -0.243070 -0.267788 -0.243070
v -0.343752 -0.267788 0.000000
v -0.243070 -0.267788 0.243070
v -0.000000 -0.267788 0.343752
v 0.243069 -0.267788 0.243070
v 0.343752 -0.267788 0.000000
v 0.449134 -0.240822 -0.449134
v -0.000000 -0.240822 -0.635171
v -0.449134 -0.240822 -0.449134
v -0.635171 -0.240822 0.000000
v -0.449134 -0.240822 0.449134
v -0.000000 -0.240822 0.635171
v 0.449134 -0.240822 0.449134
v 0.635171 -0.240822 0.000000
v 0.500457 -0.000000 -0.500457
v -0.000000 -0.000000 -0.707753
v -0.500457 -0.000000 -0.500457
v -0.707753 -0.000000 0.000000
v -0.500457 -0.000000 0.500457
v -0.000000 -0.000000 0.707753
v 0.500457 -0.000000 0.500457
v 0.707753 -0.000000 0.000000
v 0.449134 0.240822 -0.449134
v -0.000000 0.240822 -0.635171
v -0.449134 0.240822 -0.449134
v -0.635171 0.240822 0.000000
v -0.449134 0.240822 0.449134
v -0.000000 0.240822 0.635171
v 0.449134 0.240822 0.449134
v 0.635171 0.240822 0.000000
v 0.243069 0.267788 -0.243070
v -0.000000 0.267788 -0.343752
v -0.243070 0.267788 -0.243070
v -0.343752 0.267788 0.000000
v -0.243070 0.267788 0.243070
v -0.000000 0.267788 0.343752
v 0.243069 0.267788 0.243070
v 0.343752 0.267788 0.000000
v -0.000000 -0.283633 0.000000
v -0.000000 0.283633 0.000000
vt 0.409259 0.779178
vt 0.419573 0.779178
vt 0.429886 0.779178
vt 0.440200 0.779178
vt 0.450513 0.779178
vt 0.460827 0.779178
vt 0.471140 0.779178
vt 0.481453 0.779178
vt 0.491767 0.779178
vt 0.409259 0.789491
vt 0.419573 0.789491
vt 0.429886 0.789491
vt 0.440200 0.789491
vt 0.450513 0.789491
vt 0.460827 0.789491
vt 0.471140 0.789491
vt 0.481453 0.789491
vt 0.491767 0.789491
vt 0.409259 0.810118
vt 0.419573 0.810118
vt 0.429886 0.810118
vt 0.440200 0.810118
vt 0.450513 0.810118
vt 0.460827 0.810118
vt 0.471140 0.810118
vt 0.481453 0.810118
vt 0.491767 0.810118
vt 0.409259 0.830745
vt 0.419573 0.830745
vt 0.429886 0.830745
vt 0.440200 0.830745
vt 0.450513 0.830745
vt 0.460827 0.830745
vt 0.471140 0.830745
vt 0.481453 0.830745
vt 0.491767 0.830745
vt 0.409259 0.841058
vt 0.419573 0.841058
vt 0.429886 0.841058
vt 0.440200 0.841058
vt 0.450513 0.841058
vt 0.460827 0.841058
vt 0.471140 0.841058
vt 0.481453 0.841058
vt 0.491767 0.841058
vt 0.414416 0.768864
vt 0.435043 0.768864
vt 0.455670 0.768864
vt 0.476297 0.768864
vt 0.424729 0.851372
vt 0.445356 0.851372
vt 0.465983 0.851372
vt 0.486610 0.851372
vt 0.481453 0.841058
vt 0.481453 0.841058
vt 0.481453 0.841058
vt 0.460827 0.841058
vt 0.460827 0.841058
vt 0.460827 0.841058
vt 0.440200 0.841058
vt 0.440200 0.841058
vt 0.440200 0.841058
vt 0.419573 0.841058
vt 0.419573 0.841058
vt 0.419573 0.841058
vt 0.481453 0.779178
vt 0.481453 0.779178
vt 0.481453 0.779178
vt 0.460827 0.779178
vt 0.460827 0.779178
vt 0.460827 0.779178
vt 0.440200 0.779178
vt 0.440200 0.779178
vt 0.440200 0.779178
vt 0.419573 0.779178
vt 0.419573 0.779178
vt 0.419573 0.779178
vt 0.481453 0.830745
vt 0.481453 0.830745
vt 0.481453 0.830745
vt 0.471140 0.830745
vt 0.471140 0.830745
vt 0.471140 0.830745
vt 0.471140 0.841058
vt 0.471140 0.841058
vt 0.460827 0.830745
vt 0.460827 0.830745
vt 0.460827 0.830745
vt 0.450513 0.830745
vt 0.450513 0.830745
vt 0.450513 0.830745
vt 0.450513 0.841058
vt 0.450513 0.841058
vt 0.440200 0.830745
vt 0.440200 0.830745
vt 0.440200 0.830745
vt 0.429886 0.830745
vt 0.429886 0.830745
vt 0.429886 0.830745
vt 0.429886 0.841058
vt 0.429886 0.841058
vt 0.419573 0.830745
vt 0.419573 0.830745
vt 0.419573 0.830745
vt 0.409259 0.830745
vt 0.491767 0.830745
vt 0.409259 0.841058
vt 0.481453 0.810118
vt 0.481453 0.810118
vt 0.481453 0.810118
vt 0.471140 0.810118
vt 0.471140 0.810118
vt 0.471140 0.810118
vt 0.460827 0.810118
vt 0.460827 0.810118
vt 0.460827 0.810118
vt 0.450513 0.810118
vt 0.450513 0.810118
vt 0.450513 0.810118
vt 0.440200 0.810118
vt 0.440200 0.810118
vt 0.440200 0.810118
vt 0.429886 0.810118
vt 0.429886 0.810118
vt 0.429886 0.810118
vt 0.419573 0.810118
vt 0.419573 0.810118
vt 0.419573 0.810118
vt 0.409259 0.810118
vt 0.491767 0.810118
vt 0.481453 0.789491
vt 0.481453 0.789491
vt 0.481453 0.789491
vt 0.471140 0.789491
vt 0.471140 0.789491
vt 0.471140 0.789491
vt 0.460827 0.789491
vt 0.460827 0.789491
vt 0.460827 0.789491
vt 0.450513 0.789491
vt 0.450513 0.789491
vt 0.450513 0.789491
vt 0.440200 0.789491
vt 0.440200 0.789491
vt 0.440200 0.789491
vt 0.429886 0.789491
vt 0.429886 0.789491
vt 0.429886 0.789491
vt 0.419573 0.789491
vt 0.419573 0.789491
vt 0.419573 0.789491
vt 0.409259 0.789491
vt 0.491767 0.789491
vt 0.471140 0.779178
vt 0.471140 0.779178
vt 0.450513 0.779178
vt 0.450513 0.779178
vt 0.429886 0.779178
vt 0.429886 0.779178
vt 0.491767 0.779178
vn 0.054361 -0.997041 -0.054361
vn 0.000000 -0.997374 -0.072425
vn -0.000000 -0.656579 -0.754258
vn 0.533341 -0.656578 -0.533341
vn -0.054361 -0.997041 -0.054361
vn -0.533341 -0.656579 -0.533341
vn -0.072425 -0.997374 -0.000000
vn -0.754258 -0.656579 -0.000000
vn -0.054361 -0.997041 0.054361
vn -0.533341 -0.656579 0.533341
vn -0.000000 -0.997374 0.072425
vn -0.000000 -0.656579 0.754258
vn 0.054361 -0.997041 0.054361
vn 0.533341 -0.656579 0.533341
vn 0.072425 -0.997374 -0.000000
vn 0.754258 -0.656579 -0.000000
vn 0.000000 0.000000 -1.000000
vn 0.707107 0.000000 -0.707107
vn -0.707107 0.000000 -0.707107
vn -1.000000 0.000000 -0.000000
vn -0.707107 -0.000000 0.707107
vn 0.000000 -0.000000 1.000000
vn 0.707107 0.000000 0.707107
vn 1.000000 -0.000000 -0.000000
vn -0.000000 0.656579 -0.754258
vn 0.533341 0.656578 -0.533341
vn -0.533341 0.656579 -0.533341
vn -0.754258 0.656579 -0.000000
vn -0.533341 0.656579 0.533341
vn -0.000000 0.656579 0.754258
vn 0.533341 0.656579 0.533341
vn 0.754258 0.656579 -0.000000
vn 0.000000 0.997374 -0.072425
vn 0.054361 0.997041 -0.054361
vn -0.054361 0.997040 -0.054361
vn -0.072425 0.997374 0.000000
vn -0.054361 0.997041 0.054361
vn -0.000000 0.997374 0.072425
vn 0.054361 0.997041 0.054361
vn 0.072425 0.997374 -0.000000
vn 0.000000 -1.000000 0.000000
vn 0.000000 1.000000 0.000000
s 1
g Pastilla
usemtl initialShadingGroup
f 67/257/83 68/331/84 76/406/85 75/408/86
f 68/332/84 69/415/87 77/403/88 76/405/85
f 69/259/87 70/328/89 78/400/90 77/402/88
f 70/329/89 71/413/91 79/397/92 78/399/90
f 71/261/91 72/325/93 80/394/94 79/396/92
f 72/326/93 73/411/95 81/391/96 80/393/94
f 73/263/95 74/322/97 82/388/98 81/390/96
f 74/323/97 67/416/83 75/274/86 82/387/98
f 76/407/85 84/383/99 83/385/100 75/266/86
f 77/404/88 85/380/101 84/382/99 76/267/85
f 78/401/90 86/377/102 85/379/101 77/268/88
f 79/398/92 87/374/103 86/376/102 78/269/90
f 80/395/94 88/371/104 87/373/103 79/270/92
f 81/392/96 89/368/105 88/370/104 80/271/94
f 82/389/98 90/365/106 89/367/105 81/272/96
f 75/409/86 83/283/100 90/364/106 82/273/98
f 84/384/99 92/359/107 91/361/108 83/275/100
f 85/381/101 93/354/109 92/358/107 84/276/99
f 86/378/102 94/351/110 93/353/109 85/277/101
f 87/375/103 95/346/111 94/350/110 86/278/102
f 88/372/104 96/343/112 95/345/111 87/279/103
f 89/369/105 97/338/113 96/342/112 88/280/104
f 90/366/106 98/335/114 97/337/113 89/281/105
f 83/386/100 91/292/108 98/334/114 90/282/106
f 91/284/108 92/360/107 100/320/115 99/363/116
f 92/285/107 93/355/109 101/295/117 100/319/115
f 93/286/109 94/352/110 102/317/118 101/357/117
f 94/287/110 95/347/111 103/297/119 102/316/118
f 95/288/111 96/344/112 104/314/120 103/349/119
f 96/289/112 97/339/113 105/299/121 104/313/120
f 97/290/113 98/336/114 106/311/122 105/341/121
f 98/291/114 91/362/108 99/301/116 106/310/122
f 69/414/87 68/333/84 107/303/123 70/260/89
f 71/412/91 70/330/89 107/304/123 72/262/93
f 73/410/95 72/327/93 107/305/123 74/264/97
f 67/265/83 74/324/97 107/302/123 68/258/84
f 108/306/124 100/294/115 101/356/117 102/318/118
f 108/307/124 102/296/118 103/348/119 104/315/120
f 108/308/124 104/298/120 105/340/121 106/312/122
f 108/309/124 106/300/122 99/293/116 100/321/115
g default
v 0.482791 1.619657 -0.482791
v -0.000000 1.619659 -0.682769
v -0.482791 1.619659 -0.482791
v -0.682769 1.619659 0.000000
v -0.482791 1.619659 0.482791
v -0.000000 1.619659 0.682769
v 0.482791 1.619659 0.482791
v 0.682769 1.619659 0.000000
v 0.184410 1.926239 -0.184410
v -0.000000 1.926239 -0.260795
v -0.184410 1.926239 -0.184410
v -0.260795 1.926239 0.000000
v -0.184410 1.926239 0.184410
v -0.000000 1.926239 0.260795
v 0.184410 1.926239 0.184410
v 0.260795 1.926239 0.000000
v -0.000000 1.967545 0.000000
v 0.591517 1.138018 -0.591517
v -0.000000 1.138018 -0.836532
v -0.591517 1.138018 -0.591517
v -0.836532 1.138018 0.000000
v -0.591517 1.138018 0.591517
v -0.000000 1.138018 0.836532
v 0.591517 1.138018 0.591517
v 0.836532 1.138018 0.000000
v 0.193594 -1.923938 -0.193594
v -0.000000 -1.924156 -0.273170
v -0.193594 -1.923938 -0.193594
v -0.273171 -1.924156 0.000000
v -0.193594 -1.923938 0.193594
v -0.000000 -1.924156 0.273170
v 0.193594 -1.923938 0.193594
v 0.273170 -1.924156 -0.000000
v -0.000000 -1.603407 -0.713827
v 0.504752 -1.603407 -0.504752
v -0.504752 -1.603407 -0.504752
v -0.713827 -1.603407 0.000000
v -0.504752 -1.603407 0.504752
v -0.000000 -1.603407 0.713827
v 0.504752 -1.603407 0.504752
v 0.713827 -1.603407 -0.000000
v -0.000000 -1.128641 -0.881606
v 0.623389 -1.128641 -0.623389
v -0.623389 -1.128641 -0.623389
v -0.881606 -1.128641 0.000000
v -0.623389 -1.128641 0.623389
v -0.000000 -1.128641 0.881606
v 0.623389 -1.128641 0.623389
v 0.881606 -1.128641 -0.000000
v -0.000000 -1.967545 0.000000
vt 0.773649 0.527618
vt 0.784407 0.527618
vt 0.795165 0.527618
vt 0.805923 0.527618
vt 0.816681 0.527618
vt 0.827439 0.527618
vt 0.838197 0.527618
vt 0.848955 0.527618
vt 0.859713 0.527618
vt 0.773649 0.544831
vt 0.784407 0.544831
vt 0.795165 0.544831
vt 0.805923 0.544831
vt 0.816681 0.544831
vt 0.827439 0.544831
vt 0.838197 0.544831
vt 0.848955 0.544831
vt 0.859713 0.544831
vt 0.773649 0.562044
vt 0.784407 0.562044
vt 0.795165 0.562044
vt 0.805923 0.562044
vt 0.816681 0.562044
vt 0.827439 0.562044
vt 0.838197 0.562044
vt 0.848955 0.562044
vt 0.859713 0.562044
vt 0.773649 0.579256
vt 0.784407 0.579256
vt 0.795165 0.579256
vt 0.805923 0.579256
vt 0.816681 0.579256
vt 0.827439 0.579256
vt 0.838197 0.579256
vt 0.848955 0.579256
vt 0.859713 0.579256
vt 0.773649 0.596469
vt 0.784407 0.596469
vt 0.795165 0.596469
vt 0.805923 0.596469
vt 0.816681 0.596469
vt 0.827439 0.596469
vt 0.838197 0.596469
vt 0.848955 0.596469
vt 0.859713 0.596469
vt 0.779028 0.519011
vt 0.800544 0.519011
vt 0.822060 0.519011
vt 0.843576 0.519011
vt 0.789786 0.605076
vt 0.811302 0.605076
vt 0.832818 0.605076
vt 0.854334 0.605076
vt 0.859713 0.563589
vt 0.773649 0.563589
vt 0.784407 0.563589
vt 0.795165 0.563589
vt 0.805923 0.563589
vt 0.816681 0.563589
vt 0.827439 0.563589
vt 0.838197 0.563589
vt 0.848955 0.563589
vt 0.848955 0.562044
vt 0.848955 0.562044
vt 0.848955 0.562044
vt 0.848955 0.563589
vt 0.848955 0.563589
vt 0.848955 0.563589
vt 0.838197 0.562044
vt 0.838197 0.562044
vt 0.838197 0.562044
vt 0.838197 0.563589
vt 0.838197 0.563589
vt 0.838197 0.563589
vt 0.827439 0.562044
vt 0.827439 0.562044
vt 0.827439 0.562044
vt 0.827439 0.563589
vt 0.827439 0.563589
vt 0.827439 0.563589
vt 0.816681 0.562044
vt 0.816681 0.562044
vt 0.816681 0.562044
vt 0.816681 0.563589
vt 0.816681 0.563589
vt 0.816681 0.563589
vt 0.805923 0.562044
vt 0.805923 0.562044
vt 0.805923 0.562044
vt 0.805923 0.563589
vt 0.805923 0.563589
vt 0.805923 0.563589
vt 0.795165 0.562044
vt 0.795165 0.562044
vt 0.795165 0.562044
vt 0.795165 0.563589
vt 0.795165 0.563589
vt 0.795165 0.563589
vt 0.859713 0.563589
vt 0.773649 0.563589
vt 0.773649 0.562044
vt 0.859713 0.562044
vt 0.784407 0.562044
vt 0.784407 0.562044
vt 0.784407 0.562044
vt 0.784407 0.563589
vt 0.784407 0.563589
vt 0.784407 0.563589
vt 0.848955 0.527618
vt 0.848955 0.527618
vt 0.848955 0.527618
vt 0.827439 0.527618
vt 0.827439 0.527618
vt 0.827439 0.527618
vt 0.805923 0.527618
vt 0.805923 0.527618
vt 0.805923 0.527618
vt 0.784407 0.527618
vt 0.784407 0.527618
vt 0.784407 0.527618
vt 0.848955 0.544831
vt 0.848955 0.544831
vt 0.848955 0.544831
vt 0.838197 0.544831
vt 0.838197 0.544831
vt 0.838197 0.544831
vt 0.827439 0.544831
vt 0.827439 0.544831
vt 0.827439 0.544831
vt 0.816681 0.544831
vt 0.816681 0.544831
vt 0.816681 0.544831
vt 0.805923 0.544831
vt 0.805923 0.544831
vt 0.805923 0.544831
vt 0.795165 0.544831
vt 0.795165 0.544831
vt 0.795165 0.544831
vt 0.773649 0.544831
vt 0.859713 0.544831
vt 0.784407 0.544831
vt 0.784407 0.544831
vt 0.784407 0.544831
vt 0.838197 0.527618
vt 0.838197 0.527618
vt 0.816681 0.527618
vt 0.816681 0.527618
vt 0.795165 0.527618
vt 0.795165 0.527618
vt 0.859713 0.527618
vt 0.848955 0.579256
vt 0.848955 0.579256
vt 0.848955 0.579256
vt 0.838197 0.579256
vt 0.838197 0.579256
vt 0.838197 0.579256
vt 0.827439 0.579256
vt 0.827439 0.579256
vt 0.827439 0.579256
vt 0.816681 0.579256
vt 0.816681 0.579256
vt 0.816681 0.579256
vt 0.805923 0.579256
vt 0.805923 0.579256
vt 0.805923 0.579256
vt 0.795165 0.579256
vt 0.795165 0.579256
vt 0.795165 0.579256
vt 0.784407 0.579256
vt 0.784407 0.579256
vt 0.784407 0.579256
vt 0.859713 0.579256
vt 0.773649 0.579256
vt 0.848955 0.596469
vt 0.848955 0.596469
vt 0.848955 0.596469
vt 0.827439 0.596469
vt 0.827439 0.596469
vt 0.827439 0.596469
vt 0.805923 0.596469
vt 0.805923 0.596469
vt 0.805923 0.596469
vt 0.784407 0.596469
vt 0.784407 0.596469
vt 0.784407 0.596469
vt 0.838197 0.596469
vt 0.838197 0.596469
vt 0.816681 0.596469
vt 0.816681 0.596469
vt 0.795165 0.596469
vt 0.795165 0.596469
vt 0.773649 0.596469
vn -0.000000 -0.850439 -0.526074
vn 0.000000 -0.510817 -0.859689
vn 0.607877 -0.510853 -0.607877
vn 0.375929 -0.846968 -0.375929
vn -0.375929 -0.846968 -0.375929
vn -0.607877 -0.510853 -0.607877
vn -0.526074 -0.850439 -0.000000
vn -0.859689 -0.510817 0.000000
vn -0.375929 -0.846968 0.375929
vn -0.607877 -0.510853 0.607877
vn -0.000000 -0.850439 0.526074
vn -0.000000 -0.510817 0.859689
vn 0.375929 -0.846968 0.375929
vn 0.607877 -0.510853 0.607877
vn 0.526074 -0.850439 -0.000000
vn 0.859689 -0.510817 -0.000000
vn 0.000000 -0.036905 -0.999319
vn 0.706625 -0.036905 -0.706625
vn -0.706625 -0.036905 -0.706625
vn -0.999319 -0.036905 0.000000
vn -0.706625 -0.036905 0.706625
vn -0.000000 -0.036905 0.999319
vn 0.706625 -0.036905 0.706625
vn 0.999319 -0.036905 -0.000000
vn 0.000000 0.488332 -0.872658
vn 0.617062 0.488332 -0.617063
vn 0.705660 0.063929 -0.705660
vn -0.000000 0.063929 -0.997954
vn -0.617063 0.488332 -0.617062
vn -0.705660 0.063929 -0.705660
vn -0.872658 0.488332 0.000000
vn -0.997954 0.063929 0.000000
vn -0.617063 0.488332 0.617062
vn -0.705660 0.063929 0.705660
vn -0.000000 0.488332 0.872658
vn -0.000000 0.063929 0.997954
vn 0.617062 0.488332 0.617062
vn 0.705660 0.063929 0.705660
vn 0.872658 0.488333 -0.000000
vn 0.997954 0.063929 -0.000000
vn 0.000001 0.850645 -0.525741
vn 0.375454 0.847389 -0.375454
vn -0.375453 0.847391 -0.375453
vn -0.525741 0.850645 0.000000
vn -0.375453 0.847391 0.375453
vn -0.000000 0.850645 0.525740
vn 0.375453 0.847391 0.375452
vn 0.525741 0.850645 -0.000002
vn 0.000000 -1.000000 -0.000000
vn 0.000000 1.000000 0.000000
s 1
g Pildora2
usemtl initialShadingGroup
f 135/534/125 142/558/126 143/555/127 134/417/128
f 136/565/129 144/553/130 142/557/126 135/535/125
f 137/531/131 145/550/132 144/552/130 136/419/129
f 138/563/133 146/547/134 145/549/132 137/532/131
f 139/528/135 147/544/136 146/546/134 138/421/133
f 140/561/137 148/541/138 147/543/136 139/529/135
f 141/525/139 149/538/140 148/540/138 140/423/137
f 134/566/128 143/434/127 149/537/140 141/526/139
f 142/559/126 150/520/141 151/517/142 143/426/127
f 144/554/130 152/510/143 150/519/141 142/427/126
f 145/551/132 153/504/144 152/509/143 144/428/130
f 146/548/134 154/498/145 153/503/144 145/429/132
f 147/545/136 155/492/146 154/497/145 146/430/134
f 148/542/138 156/486/147 155/491/146 147/431/136
f 149/539/140 157/480/148 156/485/147 148/432/138
f 143/556/127 151/443/142 157/479/148 149/433/140
f 110/445/149 109/589/150 126/471/151 127/522/152
f 111/446/153 110/587/149 127/523/152 128/512/154
f 112/447/155 111/584/153 128/513/154 129/506/156
f 113/448/157 112/581/155 129/507/156 130/500/158
f 114/449/159 113/578/157 130/501/158 131/494/160
f 115/450/161 114/575/159 131/495/160 132/488/162
f 116/451/163 115/572/161 132/489/162 133/482/164
f 109/452/150 116/569/163 133/483/164 126/515/151
f 110/585/149 118/600/165 117/608/166 109/444/150
f 111/582/153 119/455/167 118/599/165 110/586/149
f 112/579/155 120/597/168 119/607/167 111/583/153
f 113/576/157 121/457/169 120/596/168 112/580/155
f 114/573/159 122/594/170 121/605/169 113/577/157
f 115/570/161 123/459/171 122/593/170 114/574/159
f 116/567/163 124/591/172 123/603/171 115/571/161
f 109/588/150 117/461/166 124/590/172 116/568/163
f 136/564/129 135/536/125 158/463/173 137/420/131
f 138/562/133 137/533/131 158/464/173 139/422/135
f 140/560/137 139/530/135 158/465/173 141/424/139
f 134/425/128 141/527/139 158/462/173 135/418/125
f 125/466/174 118/454/165 119/606/167 120/598/168
f 125/467/174 120/456/168 121/604/169 122/595/170
f 125/468/174 122/458/170 123/602/171 124/592/172
f 125/469/174 124/460/172 117/453/166 118/601/165
f 127/472/152 126/516/151 151/435/142 150/521/141
f 128/473/154 127/524/152 150/436/141 152/511/143
f 129/474/156 128/514/154 152/437/143 153/505/144
f 130/475/158 129/508/156 153/438/144 154/499/145
f 131/476/160 130/502/158 154/439/145 155/493/146
f 132/477/162 131/496/160 155/440/146 156/487/147
f 133/478/164 132/490/162 156/441/147 157/481/148
f 126/470/151 133/484/164 157/442/148 151/518/142
